<svg width="1034" height="508" viewBox="0 0 1034 508" fill="none" xmlns="http://www.w3.org/2000/svg">
<path d="M4.07842 438.001C1.8697 437.957 0.0440769 439.713 0.000768661 441.921C-0.0425396 444.13 1.71287 445.956 3.92158 445.999L4.07842 438.001ZM129 360L131.918 362.736L129 360ZM354 8.99993L354.493 12.9694L354 8.99993ZM628 153L631.817 154.196L628 153ZM477 286.999L474.957 283.561L477 286.999ZM832 336L831.128 332.096L832 336ZM1028.68 353.775C1030.76 354.505 1033.05 353.406 1033.78 351.321C1034.51 349.236 1033.41 346.954 1031.32 346.224L1028.68 353.775ZM4.20717 446.004C6.41603 446.04 8.23532 444.278 8.27067 442.069C8.30602 439.86 6.54405 438.041 4.33519 438.005L4.20717 446.004ZM32.5706 433.086C30.4897 433.827 29.404 436.115 30.1457 438.196C30.8873 440.277 33.1754 441.363 35.2564 440.621L32.5706 433.086ZM35.7848 440.431C37.8617 439.679 38.9353 437.385 38.1825 435.308C37.4298 433.231 35.136 432.157 33.059 432.91L35.7848 440.431ZM59.0636 419.528C57.219 420.744 56.7091 423.224 57.9248 425.069C59.1404 426.914 61.6213 427.423 63.4658 426.208L59.0636 419.528ZM63.928 425.902C65.7687 424.681 66.2705 422.198 65.049 420.357C63.8274 418.517 61.345 418.015 59.5043 419.236L63.928 425.902ZM82.9217 401.008C81.2672 402.472 81.1127 405 82.5767 406.655C84.0406 408.309 86.5685 408.464 88.223 407L82.9217 401.008ZM88.6325 406.637C90.2842 405.17 90.434 402.641 88.9671 400.99C87.5001 399.338 84.9719 399.188 83.3201 400.655L88.6325 406.637ZM104.85 379.843C103.314 381.43 103.355 383.962 104.942 385.499C106.53 387.035 109.062 386.994 110.598 385.407L104.85 379.843ZM110.978 385.014C112.513 383.425 112.47 380.893 110.881 379.358C109.292 377.823 106.76 377.866 105.225 379.455L110.978 385.014ZM125.899 357.459C124.389 359.071 124.471 361.602 126.083 363.113C127.695 364.623 130.226 364.541 131.737 362.929L125.899 357.459ZM132.098 362.543C133.603 360.926 133.513 358.395 131.896 356.89C130.279 355.385 127.748 355.475 126.243 357.092L132.098 362.543ZM141.799 334.209C140.772 336.165 141.525 338.583 143.481 339.61C145.437 340.637 147.855 339.884 148.882 337.928L141.799 334.209ZM149.123 337.469C150.144 335.51 149.384 333.094 147.425 332.072C145.466 331.051 143.05 331.811 142.029 333.77L149.123 337.469ZM153.43 307.908C152.642 309.972 153.676 312.284 155.74 313.072C157.804 313.859 160.116 312.825 160.904 310.761L153.43 307.908ZM161.089 310.274C161.874 308.209 160.837 305.899 158.772 305.114C156.707 304.329 154.396 305.366 153.611 307.431L161.089 310.274ZM162.962 280.384C162.289 282.488 163.45 284.74 165.554 285.412C167.658 286.085 169.909 284.924 170.582 282.82L162.962 280.384ZM170.741 282.322C171.412 280.217 170.25 277.967 168.146 277.296C166.041 276.624 163.791 277.786 163.119 279.891L170.741 282.322ZM171.503 252.408C170.876 254.526 172.086 256.752 174.205 257.378C176.323 258.004 178.548 256.794 179.174 254.676L171.503 252.408ZM179.322 254.177C179.948 252.058 178.738 249.833 176.619 249.207C174.501 248.581 172.276 249.791 171.65 251.91L179.322 254.177ZM179.764 224.277C179.139 226.395 180.35 228.62 182.469 229.245C184.587 229.87 186.812 228.659 187.437 226.541L179.764 224.277ZM187.583 226.044C188.209 223.926 186.998 221.701 184.88 221.076C182.761 220.45 180.536 221.661 179.911 223.779L187.583 226.044ZM188.273 196.152C187.613 198.26 188.787 200.504 190.895 201.164C193.004 201.824 195.248 200.65 195.907 198.541L188.273 196.152ZM196.061 198.051C196.722 195.943 195.549 193.698 193.441 193.038C191.333 192.377 189.088 193.55 188.427 195.658L196.061 198.051ZM197.485 168.179C196.757 170.265 197.858 172.545 199.944 173.273C202.03 174.001 204.311 172.9 205.039 170.814L197.485 168.179ZM205.207 170.331C205.936 168.246 204.837 165.964 202.752 165.235C200.666 164.506 198.385 165.605 197.656 167.691L205.207 170.331ZM207.858 140.539C207.027 142.586 208.013 144.918 210.06 145.749C212.107 146.58 214.44 145.593 215.271 143.546L207.858 140.539ZM215.462 143.074C216.295 141.028 215.311 138.694 213.265 137.862C211.219 137.029 208.885 138.013 208.052 140.059L215.462 143.074ZM219.895 113.495C218.922 115.478 219.742 117.875 221.725 118.847C223.708 119.82 226.105 119.001 227.078 117.017L219.895 113.495ZM227.301 116.562C228.277 114.58 227.461 112.182 225.479 111.207C223.497 110.231 221.099 111.047 220.124 113.029L227.301 116.562ZM234.181 87.4599C233.022 89.3402 233.606 91.8046 235.486 92.9642C237.366 94.1239 239.831 93.5397 240.99 91.6594L234.181 87.4599ZM241.256 91.2299C242.419 89.3519 241.84 86.8864 239.962 85.723C238.084 84.5597 235.618 85.139 234.455 87.017L241.256 91.2299ZM251.367 63.1003C249.975 64.8152 250.236 67.3343 251.951 68.7269C253.666 70.1196 256.185 69.8583 257.577 68.1434L251.367 63.1003ZM257.894 67.7539C259.292 66.0427 259.037 63.5228 257.326 62.1258C255.614 60.7287 253.094 60.9835 251.697 62.6948L257.894 67.7539ZM272.044 41.444C270.387 42.9045 270.227 45.4321 271.687 47.0896C273.148 48.7471 275.675 48.9068 277.333 47.4463L272.044 41.444ZM277.709 47.116C279.371 45.6608 279.539 43.1337 278.084 41.4715C276.629 39.8093 274.102 39.6415 272.44 41.0966L277.709 47.116ZM296.422 23.8471C294.51 24.9531 293.856 27.3999 294.962 29.3123C296.068 31.2246 298.515 31.8783 300.427 30.7723L296.422 23.8471ZM300.857 30.5247C302.773 29.4256 303.436 26.9812 302.337 25.0648C301.238 23.1485 298.793 22.4859 296.877 23.585L300.857 30.5247ZM323.898 11.578C321.798 12.2651 320.653 14.5242 321.34 16.6238C322.028 18.7233 324.287 19.8683 326.386 19.1811L323.898 11.578ZM326.854 19.0289C328.956 18.3491 330.109 16.0941 329.429 13.9921C328.749 11.8902 326.494 10.7373 324.392 11.4171L326.854 19.0289ZM353.239 5.06396C351.047 5.33984 349.494 7.34032 349.77 9.53217C350.046 11.724 352.046 13.2772 354.238 13.0013L353.239 5.06396ZM354.737 12.9392C356.929 12.6677 358.486 10.6703 358.215 8.47786C357.943 6.28548 355.946 4.72831 353.754 4.99984L354.737 12.9392ZM380.996 2.26402C378.794 2.43187 377.144 4.35362 377.312 6.55637C377.48 8.75913 379.402 10.4087 381.604 10.2409L380.996 2.26402ZM382.085 10.2045C384.288 10.0386 385.939 8.11833 385.773 5.91542C385.607 3.71252 383.687 2.06119 381.484 2.22707L382.085 10.2045ZM408.695 0.886354C406.486 0.935469 404.735 2.7657 404.784 4.9743C404.834 7.18289 406.664 8.93349 408.872 8.88438L408.695 0.886354ZM409.344 8.87413C411.552 8.8272 413.305 6.99871 413.258 4.79006C413.211 2.58142 411.382 0.82901 409.174 0.875938L409.344 8.87413ZM436.578 1.10505C434.371 1.01829 432.511 2.73745 432.424 4.94488C432.337 7.15232 434.057 9.01212 436.264 9.09888L436.578 1.10505ZM436.742 9.11795C438.95 9.20724 440.811 7.49024 440.901 5.2829C440.99 3.07557 439.273 1.21378 437.066 1.12449L436.742 9.11795ZM464.337 3.15372C462.141 2.91182 460.165 4.4958 459.923 6.69166C459.681 8.88751 461.265 10.8637 463.461 11.1056L464.337 3.15372ZM463.941 11.1589C466.137 11.4037 468.115 9.82241 468.36 7.62688C468.605 5.43135 467.024 3.45303 464.828 3.20818L463.941 11.1589ZM491.9 7.30663C489.732 6.88631 487.633 8.30372 487.212 10.4725C486.792 12.6413 488.209 14.7402 490.378 15.1605L491.9 7.30663ZM490.855 15.2532C493.023 15.677 495.124 14.2629 495.548 12.0947C495.971 9.92661 494.557 7.8255 492.389 7.40176L490.855 15.2532ZM519.075 13.9024C516.957 13.2762 514.732 14.486 514.105 16.6045C513.479 18.723 514.689 20.9481 516.808 21.5743L519.075 13.9024ZM517.271 21.7118C519.388 22.3419 521.616 21.1363 522.246 19.0189C522.876 16.9015 521.67 14.6743 519.553 14.0441L517.271 21.7118ZM545.495 23.3299C543.461 22.4667 541.113 23.4155 540.25 25.449C539.387 27.4825 540.335 29.8307 542.369 30.6939L545.495 23.3299ZM542.808 30.8808C544.84 31.7485 547.19 30.8049 548.057 28.7733C548.925 26.7417 547.982 24.3913 545.95 23.5237L542.808 30.8808ZM570.563 35.9914C568.666 34.8589 566.21 35.4785 565.078 37.3753C563.945 39.2721 564.565 41.7278 566.462 42.8603L570.563 35.9914ZM566.862 43.0999C568.756 44.2373 571.213 43.6241 572.35 41.7303C573.488 39.8365 572.875 37.3791 570.981 36.2417L566.862 43.0999ZM593.563 52.3744C591.881 50.9426 589.356 51.1457 587.925 52.828C586.493 54.5103 586.696 57.0348 588.378 58.4666L593.563 52.3744ZM588.735 58.7713C590.413 60.2085 592.938 60.0136 594.375 58.3359C595.812 56.6583 595.617 54.1331 593.94 52.6959L588.735 58.7713ZM613.227 72.7992C611.872 71.054 609.36 70.7372 607.614 72.0917C605.869 73.4461 605.552 75.9589 606.907 77.7041L613.227 72.7992ZM607.191 78.0722C608.539 79.8228 611.05 80.1497 612.801 78.8022C614.552 77.4548 614.878 74.9433 613.531 73.1927L607.191 78.0722ZM627.798 97.3015C626.93 95.27 624.579 94.3268 622.548 95.1948C620.516 96.0628 619.573 98.4132 620.441 100.445L627.798 97.3015ZM620.624 100.877C621.482 102.913 623.828 103.868 625.863 103.01C627.899 102.153 628.854 99.8072 627.997 97.7713L620.624 100.877ZM634.891 125.165C634.706 122.964 632.771 121.329 630.57 121.514C628.369 121.7 626.734 123.634 626.919 125.836L634.891 125.165ZM626.956 126.29C627.128 128.492 629.052 130.138 631.255 129.967C633.457 129.795 635.104 127.871 634.932 125.668L626.956 126.29ZM631.893 153.952C632.546 151.842 631.365 149.601 629.255 148.948C627.144 148.295 624.904 149.476 624.251 151.587L631.893 153.952ZM624.107 152.046C623.442 154.153 624.611 156.4 626.718 157.065C628.825 157.729 631.071 156.56 631.736 154.453L624.107 152.046ZM619.718 181.818C620.823 179.905 620.169 177.458 618.256 176.353C616.343 175.248 613.896 175.902 612.791 177.815L619.718 181.818ZM612.539 178.249C611.426 180.158 612.071 182.607 613.98 183.72C615.888 184.832 618.337 184.187 619.45 182.279L612.539 178.249ZM601.8 206.328C603.277 204.685 603.142 202.156 601.499 200.679C599.856 199.202 597.327 199.337 595.85 200.98L601.8 206.328ZM595.511 201.356C594.029 202.994 594.156 205.524 595.794 207.006C597.432 208.488 599.961 208.361 601.444 206.723L595.511 201.356ZM579.845 227.028C581.558 225.633 581.816 223.113 580.422 221.4C579.027 219.687 576.507 219.429 574.794 220.824L579.845 227.028ZM574.397 221.146C572.681 222.538 572.418 225.056 573.809 226.773C575.2 228.489 577.719 228.752 579.435 227.361L574.397 221.146ZM555.647 244.695C557.486 243.472 557.986 240.989 556.763 239.149C555.539 237.31 553.057 236.81 551.217 238.033L555.647 244.695ZM550.789 238.317C548.948 239.538 548.446 242.02 549.667 243.861C550.888 245.702 553.37 246.205 555.211 244.984L550.789 238.317ZM530.395 260.486C532.293 259.355 532.914 256.899 531.783 255.002C530.651 253.104 528.196 252.483 526.298 253.615L530.395 260.486ZM525.853 253.88C523.955 255.01 523.332 257.465 524.463 259.364C525.593 261.262 528.048 261.884 529.946 260.754L525.853 253.88ZM504.785 275.427C506.698 274.322 507.354 271.876 506.249 269.963C505.145 268.049 502.698 267.394 500.785 268.499L504.785 275.427ZM500.334 268.759C498.421 269.863 497.766 272.31 498.871 274.223C499.975 276.136 502.422 276.791 504.335 275.687L500.334 268.759ZM479.267 290.305C481.166 289.177 481.792 286.723 480.663 284.824C479.535 282.924 477.081 282.299 475.182 283.427L479.267 290.305ZM474.752 283.682C472.853 284.811 472.229 287.266 473.359 289.165C474.488 291.064 476.942 291.687 478.841 290.558L474.752 283.682ZM456.747 304.401C458.587 303.177 459.086 300.694 457.862 298.855C456.638 297.016 454.155 296.517 452.316 297.74L456.747 304.401ZM451.924 298.002C450.086 299.228 449.59 301.711 450.815 303.549C452.041 305.387 454.525 305.883 456.363 304.657L451.924 298.002ZM435.359 319.854C437.089 318.48 437.377 315.963 436.003 314.234C434.629 312.504 432.112 312.216 430.383 313.59L435.359 319.854ZM430.012 313.885C428.284 315.262 428.001 317.779 429.378 319.506C430.755 321.234 433.272 321.517 434.999 320.14L430.012 313.885ZM415.971 337.384C417.493 335.783 417.427 333.251 415.825 331.73C414.223 330.208 411.692 330.274 410.17 331.876L415.971 337.384ZM409.836 332.229C408.32 333.835 408.394 336.367 410 337.883C411.607 339.399 414.139 339.326 415.655 337.719L409.836 332.229ZM400.328 357.829C401.44 355.92 400.794 353.471 398.885 352.359C396.976 351.247 394.527 351.893 393.415 353.802L400.328 357.829ZM393.168 354.229C392.066 356.143 392.725 358.589 394.64 359.691C396.554 360.793 399 360.134 400.102 358.219L393.168 354.229ZM391.313 381.416C391.726 379.246 390.302 377.152 388.132 376.738C385.962 376.325 383.867 377.749 383.454 379.919L391.313 381.416ZM383.363 380.405C382.964 382.578 384.402 384.663 386.574 385.062C388.747 385.462 390.832 384.024 391.231 381.851L383.363 380.405ZM391.107 406.61C390.755 404.429 388.701 402.947 386.521 403.299C384.34 403.651 382.857 405.705 383.21 407.886L391.107 406.61ZM383.289 408.37C383.653 410.549 385.715 412.021 387.894 411.656C390.073 411.292 391.544 409.231 391.18 407.052L383.289 408.37ZM398.572 431.183C397.69 429.158 395.333 428.231 393.307 429.113C391.282 429.994 390.355 432.351 391.237 434.377L398.572 431.183ZM391.442 434.845C392.334 436.865 394.696 437.78 396.717 436.888C398.738 435.995 399.652 433.633 398.76 431.613L391.442 434.845ZM413.659 453.526C412.136 451.926 409.604 451.864 408.004 453.388C406.404 454.911 406.342 457.443 407.866 459.043L413.659 453.526ZM408.225 459.418C409.757 461.01 412.289 461.059 413.881 459.527C415.473 457.996 415.522 455.464 413.99 453.872L408.225 459.418ZM435.046 470.74C433.176 469.563 430.706 470.125 429.53 471.995C428.353 473.864 428.915 476.334 430.785 477.511L435.046 470.74ZM431.22 477.784C433.094 478.954 435.561 478.383 436.731 476.509C437.901 474.635 437.331 472.168 435.457 470.998L431.22 477.784ZM459.827 483.314C457.781 482.481 455.447 483.465 454.614 485.511C453.781 487.557 454.765 489.891 456.811 490.724L459.827 483.314ZM457.283 490.915C459.332 491.742 461.663 490.752 462.49 488.704C463.318 486.656 462.328 484.324 460.279 483.497L457.283 490.915ZM486.396 492.004C484.255 491.457 482.077 492.749 481.53 494.889C480.983 497.03 482.275 499.208 484.416 499.755L486.396 492.004ZM484.91 499.88C487.051 500.422 489.227 499.126 489.769 496.984C490.311 494.842 489.014 492.667 486.872 492.125L484.91 499.88ZM513.92 497.276C511.729 496.99 509.722 498.535 509.437 500.726C509.152 502.916 510.696 504.923 512.887 505.209L513.92 497.276ZM513.391 505.274C515.582 505.555 517.586 504.006 517.867 501.815C518.148 499.623 516.599 497.62 514.408 497.339L513.391 505.274ZM541.865 499.203C539.656 499.19 537.854 500.97 537.841 503.179C537.828 505.389 539.608 507.19 541.817 507.203L541.865 499.203ZM542.329 507.206C544.538 507.214 546.335 505.429 546.343 503.22C546.351 501.011 544.567 499.214 542.358 499.206L542.329 507.206ZM569.692 497.358C567.507 497.681 565.997 499.715 566.32 501.9C566.643 504.086 568.676 505.595 570.862 505.272L569.692 497.358ZM571.371 505.196C573.556 504.866 575.059 502.828 574.729 500.644C574.399 498.459 572.36 496.956 570.176 497.286L571.371 505.196ZM596.242 490.399C594.201 491.245 593.233 493.585 594.079 495.626C594.925 497.667 597.266 498.635 599.306 497.788L596.242 490.399ZM599.78 497.59C601.815 496.731 602.769 494.385 601.91 492.349C601.05 490.314 598.704 489.361 596.669 490.22L599.78 497.59ZM619.895 476.435C618.109 477.735 617.714 480.236 619.014 482.023C620.314 483.809 622.815 484.204 624.602 482.904L619.895 476.435ZM625.013 482.604C626.797 481.3 627.186 478.798 625.882 477.014C624.578 475.231 622.076 474.842 620.292 476.146L625.013 482.604ZM641.882 458.773C640.207 460.214 640.018 462.739 641.459 464.414C642.899 466.089 645.425 466.278 647.1 464.838L641.882 458.773ZM647.478 464.512C649.151 463.07 649.339 460.544 647.897 458.871C646.455 457.197 643.929 457.009 642.256 458.452L647.478 464.512ZM663.138 439.916C661.498 441.396 661.369 443.926 662.85 445.565C664.33 447.205 666.859 447.334 668.499 445.854L663.138 439.916ZM668.871 445.518C670.511 444.037 670.64 441.508 669.159 439.868C667.678 438.229 665.149 438.1 663.509 439.58L668.871 445.518ZM684.356 420.811C682.706 422.281 682.56 424.809 684.029 426.459C685.498 428.109 688.027 428.255 689.677 426.786L684.356 420.811ZM690.05 426.454C691.7 424.985 691.848 422.457 690.379 420.806C688.91 419.156 686.382 419.009 684.732 420.477L690.05 426.454ZM705.985 402.042C704.293 403.463 704.074 405.986 705.495 407.678C706.915 409.369 709.438 409.589 711.13 408.168L705.985 402.042ZM711.511 407.848C713.204 406.429 713.426 403.906 712.006 402.213C710.586 400.52 708.063 400.299 706.371 401.719L711.511 407.848ZM728.389 384.081C726.63 385.418 726.287 387.927 727.624 389.686C728.96 391.445 731.469 391.788 733.228 390.452L728.389 384.081ZM733.624 390.152C735.384 388.817 735.729 386.308 734.395 384.548C733.06 382.787 730.551 382.442 728.791 383.776L733.624 390.152ZM751.88 367.431C750.032 368.641 749.516 371.121 750.726 372.969C751.937 374.817 754.416 375.333 756.264 374.123L751.88 367.431ZM756.678 373.852C758.528 372.644 759.048 370.166 757.84 368.316C756.632 366.466 754.153 365.946 752.304 367.154L756.678 373.852ZM776.719 352.697C774.767 353.731 774.021 356.151 775.055 358.104C776.088 360.056 778.508 360.802 780.461 359.768L776.719 352.697ZM780.897 359.538C782.852 358.509 783.602 356.089 782.572 354.135C781.542 352.18 779.123 351.431 777.169 352.46L780.897 359.538ZM803.068 340.639C801.006 341.432 799.978 343.747 800.771 345.809C801.564 347.87 803.878 348.899 805.94 348.106L803.068 340.639ZM806.399 347.93C808.462 347.142 809.496 344.83 808.708 342.766C807.92 340.702 805.608 339.668 803.544 340.457L806.399 347.93ZM830.878 332.152C828.723 332.637 827.368 334.777 827.853 336.932C828.337 339.087 830.477 340.442 832.633 339.957L830.878 332.152ZM833.107 339.851C835.264 339.373 836.625 337.237 836.147 335.08C835.669 332.924 833.532 331.563 831.376 332.041L833.107 339.851ZM859.66 327.88C857.459 328.068 855.827 330.004 856.015 332.205C856.203 334.407 858.139 336.039 860.341 335.851L859.66 327.88ZM860.83 335.81C863.031 335.626 864.667 333.692 864.483 331.491C864.299 329.289 862.366 327.653 860.164 327.837L860.83 335.81ZM888.558 326.745C886.349 326.743 884.556 328.532 884.553 330.741C884.55 332.95 886.339 334.743 888.548 334.745L888.558 326.745ZM889.046 334.746C891.256 334.752 893.051 332.965 893.056 330.756C893.061 328.547 891.275 326.752 889.066 326.746L889.046 334.746ZM917.369 327.711C915.164 327.572 913.264 329.246 913.125 331.451C912.986 333.656 914.661 335.556 916.866 335.695L917.369 327.711ZM917.362 335.726C919.567 335.867 921.468 334.195 921.609 331.99C921.75 329.785 920.077 327.884 917.873 327.743L917.362 335.726ZM946.042 330.245C943.846 329.998 941.867 331.578 941.62 333.773C941.374 335.969 942.953 337.948 945.149 338.195L946.042 330.245ZM945.644 338.25C947.839 338.499 949.82 336.921 950.068 334.725C950.316 332.53 948.738 330.55 946.543 330.301L945.644 338.25ZM974.547 334.078C972.364 333.736 970.318 335.229 969.977 337.412C969.636 339.595 971.129 341.64 973.311 341.982L974.547 334.078ZM973.802 342.059C975.984 342.401 978.031 340.91 978.374 338.728C978.717 336.545 977.226 334.498 975.043 334.155L973.802 342.059ZM1002.87 339.153C1000.71 338.711 998.592 340.108 998.151 342.272C997.709 344.437 999.106 346.55 1001.27 346.991L1002.87 339.153ZM1001.76 347.092C1003.93 347.536 1006.04 346.141 1006.48 343.977C1006.93 341.813 1005.53 339.699 1003.37 339.255L1001.76 347.092ZM1031.09 346.144C1029 345.424 1026.73 346.534 1026.01 348.622C1025.29 350.711 1026.4 352.988 1028.48 353.707L1031.09 346.144ZM3.92158 445.999C4.01681 446.001 4.112 446.003 4.20717 446.004L4.33519 438.005C4.24962 438.004 4.16403 438.002 4.07842 438.001L3.92158 445.999ZM35.2564 440.621C35.4326 440.558 35.6088 440.495 35.7848 440.431L33.059 432.91C32.8963 432.969 32.7335 433.028 32.5706 433.086L35.2564 440.621ZM63.4658 426.208C63.62 426.106 63.7741 426.004 63.928 425.902L59.5043 419.236C59.3575 419.334 59.2106 419.431 59.0636 419.528L63.4658 426.208ZM88.223 407C88.3596 406.879 88.4961 406.758 88.6325 406.637L83.3201 400.655C83.1874 400.773 83.0546 400.891 82.9217 401.008L88.223 407ZM110.598 385.407C110.725 385.276 110.852 385.145 110.978 385.014L105.225 379.455C105.1 379.584 104.975 379.714 104.85 379.843L110.598 385.407ZM131.737 362.929C131.797 362.865 131.858 362.8 131.918 362.736L126.082 357.264C126.021 357.329 125.96 357.394 125.899 357.459L131.737 362.929ZM131.918 362.736C131.978 362.672 132.038 362.608 132.098 362.543L126.243 357.092C126.189 357.15 126.136 357.207 126.082 357.264L131.918 362.736ZM148.882 337.928C148.962 337.775 149.043 337.622 149.123 337.469L142.029 333.77C141.953 333.917 141.876 334.063 141.799 334.209L148.882 337.928ZM160.904 310.761C160.966 310.599 161.028 310.436 161.089 310.274L153.611 307.431C153.551 307.591 153.49 307.749 153.43 307.908L160.904 310.761ZM170.582 282.82C170.635 282.654 170.688 282.488 170.741 282.322L163.119 279.891C163.067 280.055 163.014 280.22 162.962 280.384L170.582 282.82ZM179.174 254.676C179.224 254.51 179.273 254.343 179.322 254.177L171.65 251.91C171.601 252.076 171.552 252.242 171.503 252.408L179.174 254.676ZM187.437 226.541C187.486 226.375 187.535 226.21 187.583 226.044L179.911 223.779C179.862 223.945 179.813 224.111 179.764 224.277L187.437 226.541ZM195.907 198.541C195.959 198.378 196.01 198.214 196.061 198.051L188.427 195.658C188.376 195.823 188.324 195.987 188.273 196.152L195.907 198.541ZM205.039 170.814C205.095 170.653 205.151 170.492 205.207 170.331L197.656 167.691C197.599 167.853 197.542 168.016 197.485 168.179L205.039 170.814ZM215.271 143.546C215.334 143.389 215.398 143.232 215.462 143.074L208.052 140.059C207.987 140.219 207.922 140.379 207.858 140.539L215.271 143.546ZM227.078 117.017C227.152 116.865 227.227 116.714 227.301 116.562L220.124 113.029C220.047 113.184 219.971 113.339 219.895 113.495L227.078 117.017ZM240.99 91.6594C241.079 91.5161 241.167 91.3729 241.256 91.2299L234.455 87.017C234.364 87.1645 234.272 87.3122 234.181 87.4599L240.99 91.6594ZM257.577 68.1434C257.683 68.0134 257.789 67.8836 257.894 67.7539L251.697 62.6948C251.587 62.8298 251.477 62.9649 251.367 63.1003L257.577 68.1434ZM277.333 47.4463C277.458 47.336 277.584 47.2259 277.709 47.116L272.44 41.0966C272.308 41.2122 272.176 41.328 272.044 41.444L277.333 47.4463ZM300.427 30.7723C300.57 30.6895 300.714 30.607 300.857 30.5247L296.877 23.585C296.725 23.6721 296.574 23.7595 296.422 23.8471L300.427 30.7723ZM326.386 19.1811C326.542 19.1302 326.698 19.0794 326.854 19.0289L324.392 11.4171C324.227 11.4704 324.062 11.5241 323.898 11.578L326.386 19.1811ZM354.238 13.0013C354.323 12.9906 354.408 12.98 354.493 12.9694L353.507 5.03046C353.417 5.04156 353.328 5.05273 353.239 5.06396L354.238 13.0013ZM354.493 12.9694C354.574 12.9593 354.656 12.9492 354.737 12.9392L353.754 4.99984C353.671 5.01002 353.589 5.02023 353.507 5.03046L354.493 12.9694ZM381.604 10.2409C381.765 10.2287 381.925 10.2165 382.085 10.2045L381.484 2.22707C381.322 2.23931 381.159 2.25162 380.996 2.26402L381.604 10.2409ZM408.872 8.88438C409.03 8.88088 409.187 8.87747 409.344 8.87413L409.174 0.875938C409.014 0.879329 408.854 0.882801 408.695 0.886354L408.872 8.88438ZM436.264 9.09888C436.424 9.10515 436.583 9.1115 436.742 9.11795L437.066 1.12449C436.903 1.11792 436.741 1.11144 436.578 1.10505L436.264 9.09888ZM463.461 11.1056C463.621 11.1233 463.781 11.141 463.941 11.1589L464.828 3.20818C464.664 3.18993 464.501 3.17177 464.337 3.15372L463.461 11.1056ZM490.378 15.1605C490.537 15.1913 490.696 15.2222 490.855 15.2532L492.389 7.40176C492.226 7.36994 492.063 7.33823 491.9 7.30663L490.378 15.1605ZM516.808 21.5743C516.962 21.62 517.117 21.6658 517.271 21.7118L519.553 14.0441C519.394 13.9968 519.235 13.9496 519.075 13.9024L516.808 21.5743ZM542.369 30.6939C542.515 30.7561 542.662 30.8184 542.808 30.8808L545.95 23.5237C545.798 23.459 545.647 23.3944 545.495 23.3299L542.369 30.6939ZM566.462 42.8603C566.595 42.9401 566.729 43.0199 566.862 43.0999L570.981 36.2417C570.842 36.1582 570.702 36.0747 570.563 35.9914L566.462 42.8603ZM588.378 58.4666C588.497 58.5681 588.616 58.6696 588.735 58.7713L593.94 52.6959C593.814 52.5886 593.689 52.4815 593.563 52.3744L588.378 58.4666ZM606.907 77.7041C607.002 77.8267 607.097 77.9494 607.191 78.0722L613.531 73.1927C613.43 73.0615 613.329 72.9303 613.227 72.7992L606.907 77.7041ZM620.441 100.445C620.502 100.589 620.564 100.733 620.624 100.877L627.997 97.7713C627.931 97.6147 627.864 97.4581 627.798 97.3015L620.441 100.445ZM626.919 125.836C626.932 125.987 626.944 126.138 626.956 126.29L634.932 125.668C634.919 125.5 634.905 125.333 634.891 125.165L626.919 125.836ZM624.251 151.587C624.228 151.659 624.206 151.731 624.183 151.804L631.817 154.196C631.842 154.115 631.868 154.033 631.893 153.952L624.251 151.587ZM624.183 151.804C624.158 151.885 624.132 151.966 624.107 152.046L631.736 154.453C631.763 154.368 631.79 154.282 631.817 154.196L624.183 151.804ZM612.791 177.815C612.707 177.96 612.623 178.105 612.539 178.249L619.45 182.279C619.54 182.125 619.629 181.972 619.718 181.818L612.791 177.815ZM595.85 200.98C595.738 201.105 595.624 201.231 595.511 201.356L601.444 206.723C601.563 206.591 601.682 206.46 601.8 206.328L595.85 200.98ZM574.794 220.824C574.662 220.932 574.53 221.039 574.397 221.146L579.435 227.361C579.572 227.25 579.709 227.139 579.845 227.028L574.794 220.824ZM551.217 238.033C551.075 238.128 550.932 238.222 550.789 238.317L555.211 244.984C555.356 244.888 555.502 244.791 555.647 244.695L551.217 238.033ZM526.298 253.615C526.15 253.703 526.001 253.792 525.853 253.88L529.946 260.754C530.096 260.664 530.246 260.575 530.395 260.486L526.298 253.615ZM500.785 268.499C500.635 268.585 500.485 268.672 500.334 268.759L504.335 275.687C504.485 275.6 504.635 275.513 504.785 275.427L500.785 268.499ZM475.182 283.427C475.107 283.472 475.032 283.516 474.957 283.561L479.043 290.438C479.118 290.394 479.192 290.35 479.267 290.305L475.182 283.427ZM474.957 283.561C474.888 283.601 474.82 283.642 474.752 283.682L478.841 290.558C478.909 290.518 478.976 290.478 479.043 290.438L474.957 283.561ZM452.316 297.74C452.185 297.827 452.054 297.915 451.924 298.002L456.363 304.657C456.491 304.572 456.619 304.486 456.747 304.401L452.316 297.74ZM430.383 313.59C430.259 313.688 430.135 313.787 430.012 313.885L434.999 320.14C435.119 320.044 435.239 319.949 435.359 319.854L430.383 313.59ZM410.17 331.876C410.059 331.993 409.947 332.111 409.836 332.229L415.655 337.719C415.76 337.607 415.866 337.496 415.971 337.384L410.17 331.876ZM393.415 353.802C393.332 353.944 393.25 354.087 393.168 354.229L400.102 358.219C400.177 358.089 400.252 357.959 400.328 357.829L393.415 353.802ZM383.454 379.919C383.423 380.081 383.393 380.243 383.363 380.405L391.231 381.851C391.258 381.706 391.285 381.561 391.313 381.416L383.454 379.919ZM383.21 407.886C383.236 408.047 383.262 408.209 383.289 408.37L391.18 407.052C391.155 406.904 391.131 406.757 391.107 406.61L383.21 407.886ZM391.237 434.377C391.27 434.452 391.302 434.527 391.335 434.603L398.665 431.396C398.634 431.325 398.603 431.254 398.572 431.183L391.237 434.377ZM391.335 434.603C391.371 434.683 391.406 434.764 391.442 434.845L398.76 431.613C398.728 431.54 398.696 431.468 398.665 431.396L391.335 434.603ZM407.866 459.043C407.985 459.168 408.105 459.294 408.225 459.418L413.99 453.872C413.879 453.757 413.769 453.642 413.659 453.526L407.866 459.043ZM430.785 477.511C430.929 477.602 431.074 477.693 431.22 477.784L435.457 470.998C435.319 470.912 435.182 470.826 435.046 470.74L430.785 477.511ZM456.811 490.724C456.969 490.788 457.126 490.851 457.283 490.915L460.279 483.497C460.129 483.436 459.978 483.375 459.827 483.314L456.811 490.724ZM484.416 499.755C484.58 499.797 484.745 499.839 484.91 499.88L486.872 492.125C486.713 492.085 486.554 492.044 486.396 492.004L484.416 499.755ZM512.887 505.209C513.055 505.231 513.223 505.252 513.391 505.274L514.408 497.339C514.245 497.318 514.083 497.297 513.92 497.276L512.887 505.209ZM541.817 507.203C541.988 507.204 542.158 507.205 542.329 507.206L542.358 499.206C542.194 499.205 542.029 499.204 541.865 499.203L541.817 507.203ZM570.862 505.272C571.032 505.247 571.202 505.222 571.371 505.196L570.176 497.286C570.015 497.31 569.854 497.335 569.692 497.358L570.862 505.272ZM599.306 497.788C599.385 497.756 599.464 497.723 599.543 497.69L596.457 490.309C596.385 490.339 596.313 490.369 596.242 490.399L599.306 497.788ZM599.543 497.69C599.622 497.657 599.701 497.624 599.78 497.59L596.669 490.22C596.598 490.25 596.527 490.28 596.457 490.309L599.543 497.69ZM624.602 482.904C624.739 482.804 624.876 482.704 625.013 482.604L620.292 476.146C620.16 476.242 620.028 476.339 619.895 476.435L624.602 482.904ZM647.1 464.838C647.226 464.729 647.352 464.621 647.478 464.512L642.256 458.452C642.131 458.559 642.007 458.666 641.882 458.773L647.1 464.838ZM668.499 445.854C668.623 445.742 668.747 445.63 668.871 445.518L663.509 439.58C663.386 439.692 663.262 439.804 663.138 439.916L668.499 445.854ZM689.677 426.786C689.801 426.675 689.925 426.564 690.05 426.454L684.732 420.477C684.607 420.589 684.481 420.7 684.356 420.811L689.677 426.786ZM711.13 408.168C711.257 408.062 711.384 407.955 711.511 407.848L706.371 401.719C706.242 401.826 706.114 401.934 705.985 402.042L711.13 408.168ZM733.228 390.452C733.36 390.352 733.492 390.252 733.624 390.152L728.791 383.776C728.657 383.878 728.523 383.98 728.389 384.081L733.228 390.452ZM756.264 374.123C756.402 374.033 756.54 373.942 756.678 373.852L752.304 367.154C752.163 367.246 752.021 367.338 751.88 367.431L756.264 374.123ZM780.461 359.768C780.606 359.692 780.752 359.615 780.897 359.538L777.169 352.46C777.019 352.539 776.869 352.618 776.719 352.697L780.461 359.768ZM805.94 348.106C806.093 348.047 806.246 347.988 806.399 347.93L803.544 340.457C803.385 340.517 803.227 340.578 803.068 340.639L805.94 348.106ZM832.633 339.957C832.712 339.94 832.792 339.922 832.872 339.904L831.128 332.096C831.045 332.115 830.962 332.133 830.878 332.152L832.633 339.957ZM832.872 339.904C832.95 339.886 833.029 339.869 833.107 339.851L831.376 332.041C831.293 332.059 831.211 332.078 831.128 332.096L832.872 339.904ZM860.341 335.851C860.504 335.837 860.667 335.823 860.83 335.81L860.164 327.837C859.996 327.851 859.828 327.865 859.66 327.88L860.341 335.851ZM888.548 334.745C888.714 334.746 888.88 334.746 889.046 334.746L889.066 326.746C888.896 326.746 888.727 326.746 888.558 326.745L888.548 334.745ZM916.866 335.695C917.031 335.705 917.197 335.716 917.362 335.726L917.873 327.743C917.705 327.732 917.537 327.721 917.369 327.711L916.866 335.695ZM945.149 338.195C945.314 338.213 945.479 338.232 945.644 338.25L946.543 330.301C946.376 330.282 946.209 330.263 946.042 330.245L945.149 338.195ZM973.311 341.982C973.475 342.007 973.639 342.033 973.802 342.059L975.043 334.155C974.878 334.129 974.713 334.104 974.547 334.078L973.311 341.982ZM1001.27 346.991C1001.43 347.025 1001.6 347.058 1001.76 347.092L1003.37 339.255C1003.2 339.221 1003.04 339.187 1002.87 339.153L1001.27 346.991ZM1028.48 353.707C1028.55 353.73 1028.62 353.753 1028.68 353.775L1031.32 346.224C1031.25 346.197 1031.17 346.171 1031.09 346.144L1028.48 353.707Z" fill="#E5E5E5" fill-opacity="0.8"/>
</svg>
