<svg width="154" height="76" viewBox="0 0 154 76" fill="none" xmlns="http://www.w3.org/2000/svg">
<path d="M0 0.0806224L5.93754 76L146.262 63.3423L154 0L0 0.0806224Z" fill="#B12326"/>
<path d="M74.0985 44.5572C74.0716 44.5841 74.0448 44.611 74.0448 44.6379C73.991 44.6916 73.9373 44.7722 73.8836 44.826C73.8567 44.8797 73.803 44.9066 73.7492 44.9335C73.7224 44.9604 73.6955 45.0141 73.6418 45.041C73.3731 45.2829 73.0507 45.4172 72.7014 45.4441C72.6477 45.4441 72.5671 45.471 72.5134 45.471C70.176 45.4978 69.2893 41.0636 69.2625 37.7581C69.2356 34.587 69.8804 30.6633 72.2178 30.6096C72.3522 30.6096 72.4596 30.6365 72.5671 30.6633L72.6746 30.6902C72.7283 30.6902 72.7552 30.7171 72.782 30.7171C72.9701 30.7977 73.1582 30.8783 73.3462 30.9858C73.3462 30.9858 73.3462 31.0127 73.3731 31.0127C73.4806 31.0933 73.5612 31.1471 73.6418 31.2277L73.588 31.2008C74.7433 32.2758 75.3881 34.7213 75.4687 37.7043C75.5493 40.2036 75.2 43.1329 74.0985 44.5572ZM72.3253 26.6322C66.8982 26.686 62.2234 30.5827 62.304 38.4299C62.3577 45.8203 66.7102 50.0127 72.4596 49.9589C78.639 49.9052 82.7764 45.041 82.5078 37.8118C82.266 32.2758 79.1226 26.5785 72.3253 26.6322Z" fill="white"/>
<path d="M105.076 33.4584C105.076 32.2221 105.049 30.2335 102.685 28.7285C102.201 28.3791 100.885 27.546 97.2845 27.3848C96.0218 27.2773 94.759 27.4117 93.55 27.761C92.5291 28.0298 91.5082 28.1642 90.4604 28.1373C88.9558 28.1373 87.4513 27.8685 86.0542 27.3311C86.0274 34.5602 86.0274 41.7893 86.0005 48.9916C86.0274 49.7709 86.2154 50.0666 86.9677 50.0666H91.6694C92.3948 50.0128 92.7709 49.9322 92.7709 49.126L92.7978 34.4527C92.7978 33.1627 92.8515 30.9591 95.565 30.9591C96.1292 30.9322 96.6934 31.0666 97.2039 31.3622L97.2576 31.389C97.3382 31.4428 97.6606 31.6578 97.7412 31.7115C98.386 32.4103 98.386 33.0821 98.386 34.4527L98.3323 49.0185C98.3323 49.7978 98.601 50.0397 99.2726 50.0397L103.974 50.0666C104.861 50.0666 105.076 49.7978 105.076 48.9916V33.4584Z" fill="white"/>
<path d="M39.3866 46.2772C39.3866 45.5785 39.1448 45.471 38.4731 45.471H35.1148V45.4979L31.3266 45.471H30.7086V26.8204C30.7086 25.1542 29.3653 23.8105 27.7264 23.7836C27.2428 23.7836 26.7592 23.9179 26.2756 23.9179C25.2815 23.9179 24.3143 23.9448 23.4009 23.5955C23.4009 32.1414 23.4009 40.6605 23.4009 49.1796C23.4546 49.7977 23.6158 50.0665 24.3681 50.0665H38.4731C39.1448 50.0665 39.3866 49.8783 39.3866 49.2602V46.2772Z" fill="white"/>
<path d="M49.5691 30.6096C49.6228 30.6096 49.7034 30.6096 49.784 30.6096H49.7303C50.1601 30.6365 50.59 30.744 50.9661 30.959C51.6915 31.3889 52.4438 32.3295 52.6319 34.4257L48.6287 35.0438L47.1779 35.2857H47.1242L46.7749 35.3394L46.1033 35.4469C46.1033 33.0283 47.0973 30.6096 49.5691 30.6096ZM57.9783 40.8486C57.3873 40.8486 57.1455 41.0905 56.3126 42.0311C55.6947 42.6761 54.9424 43.1598 54.1364 43.5092C51.5303 44.6379 48.5213 43.5629 47.2317 41.0368C46.8824 40.3112 46.6406 39.5587 46.5331 38.7525L57.2798 37.0863L57.441 37.0594C58.1127 36.925 59.1873 36.7369 59.1605 34.9095C59.1336 32.8133 57.441 26.4979 50.6706 26.5516C46.4257 26.5785 41.6434 29.239 40.9448 36.2263L39.3597 36.4682C38.4731 36.6025 37.9895 37.4356 37.9895 38.3762C37.9895 39.3168 38.9836 39.908 39.8702 39.7737L40.918 39.6124C41.3747 44.9604 44.1151 49.9858 50.993 49.9321C57.8171 49.8783 59.3217 43.751 59.3217 42.4342C59.2679 41.3592 58.65 40.8218 57.9783 40.8486Z" fill="white"/>
<path d="M119.476 30.6096C119.53 30.6096 119.611 30.6096 119.691 30.6096L119.638 30.5827C120.067 30.5827 120.497 30.7171 120.873 30.9321C121.599 31.3621 122.351 32.3027 122.539 34.3988L118.536 35.017L117.085 35.2588H117.031L116.682 35.3126L116.011 35.4201C115.984 33.0283 116.978 30.6096 119.476 30.6096ZM127.859 40.8486C127.268 40.8486 127.026 41.0905 126.193 42.0311C125.575 42.6761 124.85 43.1598 124.017 43.5092C123.345 43.8048 122.62 43.966 121.867 43.9392C119.852 43.966 117.999 42.8373 117.112 41.0368C116.763 40.3112 116.521 39.5318 116.414 38.7525L127.16 37.0863L127.321 37.0594C127.993 36.925 129.068 36.7369 129.041 34.9095C129.041 32.8133 127.321 26.4979 120.524 26.5516C116.279 26.6054 111.497 29.239 110.798 36.2263L109.213 36.4682C108.327 36.6025 107.816 37.4356 107.843 38.3762C107.87 39.3168 108.837 39.908 109.724 39.7468L110.798 39.5856C111.228 44.9335 113.996 49.959 120.873 49.9052C127.698 49.8515 129.202 43.7242 129.202 42.4073C129.202 41.3592 128.557 40.8218 127.859 40.8486Z" fill="white"/>
</svg>
