<svg width="38" height="20" viewBox="0 0 38 20" fill="none" xmlns="http://www.w3.org/2000/svg">
<path d="M1.4844 11.4844L32.9204 11.4844L27.7129 16.6666C27.1318 17.2449 27.1296 18.1848 27.7079 18.7658C28.2862 19.347 29.2261 19.3491 29.8072 18.7709L37.5633 11.0521C37.5638 11.0517 37.5642 11.0512 37.5647 11.0507C38.1442 10.4724 38.1461 9.52954 37.5648 8.9493C37.5643 8.94885 37.5639 8.94834 37.5635 8.94789L29.8073 1.22915C29.2263 0.650983 28.2864 0.652986 27.708 1.23419C27.1297 1.81525 27.132 2.75508 27.713 3.33339L32.9204 8.51564L1.4844 8.51564C0.664578 8.51564 2.37644e-05 9.18019 2.36927e-05 10C2.36211e-05 10.8198 0.664578 11.4844 1.4844 11.4844Z" fill="white"/>
</svg>
