<svg width="35" height="75" viewBox="0 0 35 75" fill="none" xmlns="http://www.w3.org/2000/svg">
<g clip-path="url(#clip0)">
<path d="M33.7056 24.8718C33.026 22.7617 31.233 21.3742 28.7025 20.9695C29.3966 19.7121 29.8737 17.7898 29.252 15.6363C28.2109 12.023 24.755 11.9796 22.8752 11.9652C23.6705 10.4332 24.4514 8.01949 23.9019 5.62027C23.5259 3.97262 22.2969 1.80465 18.6096 0.879647C16.4118 0.330428 14.0982 0.417147 12.9125 0.503865C12.3341 0.547225 11.8569 0.995272 11.7991 1.5734C11.7268 2.15152 12.0738 2.68629 12.6378 2.85972C13.4909 3.13433 14.5754 3.72691 14.8501 4.94097C15.1971 6.42965 14.7055 8.5398 7.73592 11.5894C5.37898 12.63 3.93301 14.0898 3.44138 15.9253C2.86299 18.0933 3.77396 20.2324 4.67046 21.6921C3.93301 21.8945 3.07989 22.2558 2.31352 22.7906C0.809713 23.8457 0.0144288 25.3199 -3.09219e-05 27.0687C-0.0144906 29.2367 0.708495 30.682 1.56162 31.6359C1.43148 31.8961 1.34472 32.1996 1.34472 32.5175V33.9195C1.34472 36.4921 3.09435 38.6601 5.46574 39.3105L7.01293 45.0629L12.0594 63.8953L14.344 72.3793C14.6766 73.6078 15.7466 74.4316 17.0191 74.4316C18.2915 74.4316 19.376 73.6078 19.6941 72.3793L28.5724 39.2961C30.9438 38.6457 32.6934 36.4777 32.6934 33.905V32.5031C32.6934 32.1996 32.6211 31.9105 32.491 31.6504C33.7345 30.4218 34.8045 28.2828 33.7056 24.8718ZM17.6119 71.83C17.4962 72.2347 17.1637 72.2781 17.0335 72.2781C16.9034 72.2781 16.5563 72.2347 16.4551 71.83L14.7489 65.514C16.1081 66.0777 17.4818 66.6269 18.8699 67.1183L17.6119 71.83ZM21.2558 58.2152C20.9376 58.0996 20.6195 57.9695 20.3014 57.8539C19.7375 57.6371 19.1157 57.9117 18.8988 58.4753C18.6819 59.039 18.9567 59.6605 19.5206 59.8773C19.911 60.0218 20.3014 60.1664 20.6918 60.3109L19.4338 65.0226C17.5974 64.3578 15.79 63.6351 14.0259 62.8402L12.3775 56.6832C13.1583 57.0878 13.9536 57.4636 14.7344 57.8394C14.879 57.9117 15.0381 57.9406 15.1971 57.9406C15.602 57.9406 15.9924 57.7093 16.1804 57.3191C16.4407 56.7699 16.1949 56.1339 15.6598 55.8738C14.3006 55.2379 12.9414 54.5441 11.6111 53.8359L9.84704 47.2742C13.7945 49.7746 18.0312 51.8847 22.4993 53.5613L21.2558 58.2152ZM23.0777 51.4511C18.0457 49.5578 13.3318 47.0863 9.00837 44.1089L7.7793 39.4984H10.5411C14.72 42.5046 19.3326 44.9761 24.3068 46.8695L23.0777 51.4511ZM24.8707 44.7738C21.169 43.3429 17.6553 41.5796 14.4018 39.4984H26.2877L24.8707 44.7738ZM30.4232 30.6097H12.1317C11.5388 30.6097 11.0472 31.1011 11.0472 31.6937C11.0472 32.2863 11.5388 32.7777 12.1317 32.7777H30.5244V33.9195C30.5244 35.6539 29.2375 37.0847 27.5602 37.3015C27.4879 37.316 27.4011 37.316 27.3288 37.3304C27.3288 37.3304 27.3288 37.3304 27.3144 37.3304C27.2421 37.3304 27.1698 37.3449 27.0975 37.3449H6.94063C6.86834 37.3449 6.79604 37.3449 6.72374 37.3304C6.72374 37.3304 6.72374 37.3304 6.70928 37.3304C6.63698 37.3304 6.56468 37.316 6.47792 37.3015C4.81506 37.0847 3.51368 35.6539 3.51368 33.9195V32.7777H7.04185C7.6347 32.7777 8.12633 32.2863 8.12633 31.6937C8.12633 31.1011 7.6347 30.6097 7.04185 30.6097H3.6149C2.6461 29.8437 2.15447 28.6586 2.16893 27.0976C2.18339 24.6261 4.97411 23.7734 5.95737 23.6578C6.00075 23.6578 6.04413 23.6433 6.08751 23.6289C6.5213 24.1636 7.02739 24.7418 7.40335 25.1031C7.60578 25.3054 7.88052 25.3921 8.14079 25.3921C8.42999 25.3921 8.71918 25.2765 8.93608 25.0453C9.34095 24.6117 9.32649 23.9179 8.8927 23.5132C8.29985 22.964 7.20091 21.5476 6.8105 21.0273C6.14535 20.0734 5.07533 18.18 5.52358 16.489C5.82724 15.3183 6.86834 14.3355 8.58904 13.5839C13.0137 11.6472 17.9734 8.84332 16.9468 4.44957C16.7732 3.72691 16.4696 3.13433 16.0936 2.64293C18.4506 2.84527 21.2124 3.61129 21.7763 6.08277C22.239 8.0773 21.4148 10.1296 20.793 11.1992C20.3737 11.8929 19 13.8007 17.6119 14.4367C17.0624 14.6824 16.8311 15.3328 17.0914 15.882C17.2793 16.2722 17.6697 16.5035 18.0746 16.5035C18.2337 16.5035 18.3783 16.4746 18.5373 16.4023C19.6796 15.8675 20.6774 14.8992 21.4148 14.0175C21.4437 14.0175 21.4727 14.032 21.5016 14.032C21.892 14.0753 22.3402 14.0898 22.8174 14.0898C25.0153 14.1043 26.6059 14.2632 27.1553 16.2C27.618 17.8187 27.1698 19.2351 26.7215 20.0011C26.4902 20.3046 25.2466 21.9378 23.6416 23.2675C23.1789 23.6433 23.1066 24.3371 23.497 24.7996C23.7139 25.0597 24.0176 25.1898 24.3357 25.1898C24.5815 25.1898 24.8273 25.1031 25.0297 24.9441C25.8395 24.2793 26.548 23.5566 27.1264 22.9351C27.2132 22.9496 27.3144 22.964 27.4156 22.9785C28.9917 23.0363 31.0161 23.5277 31.6523 25.4933C32.3753 27.8203 31.9704 29.4824 30.4232 30.6097Z" fill="white"/>
</g>
<defs>
<clipPath id="clip0">
<rect width="34.1539" height="74" fill="white" transform="translate(0 0.446777)"/>
</clipPath>
</defs>
</svg>
