<svg width="338" height="182" viewBox="0 0 338 182" fill="none" xmlns="http://www.w3.org/2000/svg">
<g clip-path="url(#clip0)">
<rect width="81.2186" height="81.2186" transform="translate(257.189) rotate(6.49636)" fill="white"/>
<path d="M331.458 30.8904L321.251 29.7282L322.683 17.1545C322.928 15.0005 321.375 13.0483 319.221 12.803L260.45 6.11068C258.296 5.86539 256.344 7.41832 256.099 9.57255L250.812 56.0054C250.694 57.0382 251.205 58.0311 252.115 58.5351C252.416 58.7022 252.74 58.8038 253.069 58.8412C253.729 58.9164 254.407 58.7316 254.95 58.2993L263.963 51.1295L265.641 51.3207L264.21 63.8944C263.964 66.0485 265.517 68.0007 267.671 68.246L292.279 71.0482C292.932 71.1225 293.522 70.6535 293.596 70.0007C293.67 69.3479 293.201 68.7583 292.549 68.684L267.941 65.8818C267.09 65.785 266.477 65.0143 266.574 64.1637L268.006 51.5899L314.205 56.8507C316.359 57.096 318.311 55.5431 318.557 53.3888L319.513 44.9891C319.588 44.3362 319.119 43.7467 318.466 43.6724C317.813 43.598 317.223 44.067 317.149 44.7199L316.193 53.1196C316.096 53.9701 315.325 54.5834 314.474 54.4865L263.742 48.7096C263.429 48.6739 263.114 48.7642 262.867 48.9607L253.469 56.4373C253.44 56.4598 253.374 56.5127 253.268 56.454C253.162 56.3949 253.172 56.3106 253.176 56.2745L258.463 9.84176C258.56 8.99129 259.331 8.37801 260.181 8.47485L318.952 15.1671C319.802 15.264 320.415 16.0347 320.319 16.8853L317.741 39.5199C317.667 40.1728 318.136 40.7623 318.789 40.8366C319.441 40.911 320.031 40.442 320.105 39.7891L320.982 32.0925L331.188 33.2548C332.039 33.3516 332.652 34.1223 332.555 34.9728L327.268 81.4056C327.264 81.4417 327.254 81.526 327.138 81.5594C327.021 81.5929 326.969 81.5264 326.946 81.498L319.469 72.0997C319.273 71.8528 318.986 71.694 318.673 71.6583L297.748 69.2756C297.096 69.2013 296.506 69.6703 296.432 70.3231C296.357 70.9759 296.826 71.5655 297.479 71.6398L317.914 73.9667L325.084 82.9792C325.516 83.5228 326.134 83.855 326.795 83.9302C327.123 83.9676 327.462 83.9415 327.794 83.8464C328.793 83.5598 329.514 82.7073 329.632 81.6745L334.919 35.242C335.165 33.0879 333.612 31.1357 331.458 30.8904Z" fill="#B12326"/>
<path d="M287.629 43.8321C287.048 44.0514 286.451 44.258 285.852 44.446C285.311 44.1281 284.775 43.7925 284.258 43.4482C281.653 41.711 279.398 39.6628 277.556 37.36C277.145 36.8471 276.396 36.7639 275.884 37.1744C275.371 37.5849 275.287 38.3336 275.698 38.8466C277.694 41.3404 280.13 43.5546 282.938 45.4277C283.508 45.8078 284.1 46.1777 284.697 46.5268C284.97 46.687 285.272 46.7858 285.581 46.8211C285.891 46.8563 286.207 46.8278 286.509 46.7334C287.17 46.5271 287.83 46.2998 288.47 46.0577C298.53 42.2545 304.436 34.6199 305.071 29.0437C305.758 23.0112 301.685 17.5759 295.992 16.9276C293.419 16.6346 290.846 17.368 288.754 18.958C287.073 16.9384 284.731 15.6452 282.158 15.3522C276.464 14.7039 271.273 19.0843 270.586 25.1168C270.291 27.7077 271.07 31.0468 272.723 34.2781C273.023 34.8631 273.74 35.0947 274.324 34.7954C274.909 34.496 275.141 33.7792 274.842 33.1943C273.396 30.3692 272.707 27.5231 272.95 25.3859C273.489 20.6569 277.498 17.2163 281.889 17.7162C284.187 17.978 286.251 19.2985 287.553 21.3394C287.745 21.6421 288.065 21.8414 288.421 21.882C288.778 21.9226 289.133 21.8001 289.39 21.5486C291.116 19.8525 293.425 19.0299 295.723 19.2916C300.113 19.7914 303.246 24.0454 302.707 28.7744C302.277 32.5552 297.803 39.9861 287.629 43.8321Z" fill="#B12326"/>
<path d="M321.16 62.7511C321.813 62.8255 322.403 62.3565 322.477 61.7036C322.551 61.0508 322.082 60.4613 321.429 60.3869L307.276 58.7753C306.623 58.7009 306.034 59.1699 305.959 59.8227C305.885 60.4756 306.354 61.0651 307.007 61.1394L321.16 62.7511Z" fill="#B12326"/>
<path d="M301.918 59.3625C301.992 58.7097 301.523 58.1202 300.871 58.0458L273.341 54.911C272.688 54.8367 272.099 55.3057 272.024 55.9585C271.95 56.6113 272.419 57.2008 273.072 57.2752L300.601 60.41C301.254 60.4843 301.844 60.0153 301.918 59.3625Z" fill="#B12326"/>
<path d="M287.406 63.6581L320.626 67.4409C321.279 67.5152 321.869 67.0462 321.943 66.3934C322.017 65.7406 321.548 65.1511 320.895 65.0767L287.675 61.2939C287.022 61.2195 286.433 61.6885 286.358 62.3414C286.284 62.9942 286.753 63.5837 287.406 63.6581Z" fill="#B12326"/>
<path d="M272.807 59.6008C272.154 59.5265 271.565 59.9954 271.49 60.6483C271.416 61.3011 271.885 61.8906 272.538 61.965L280.958 62.9238C281.611 62.9981 282.2 62.5291 282.275 61.8763C282.349 61.2234 281.88 60.6339 281.227 60.5596L272.807 59.6008Z" fill="#B12326"/>
<path d="M300.965 48.5727L302.909 48.794C303.561 48.8683 304.151 48.3994 304.225 47.7465C304.3 47.0937 303.831 46.5042 303.178 46.4298L301.234 46.2085C300.581 46.1342 299.992 46.6031 299.917 47.256C299.843 47.9088 300.312 48.4983 300.965 48.5727Z" fill="#B12326"/>
</g>
<g clip-path="url(#clip1)">
<path d="M50.5061 91.0968C48.9292 90.1656 46.935 90.5854 45.8674 92.0734L40.5713 99.455L39.4834 98.6745L39.5865 98.5308C40.3428 97.4768 40.1005 96.004 39.0466 95.2478L36.3964 93.3464C35.3425 92.5902 33.8697 92.8325 33.1134 93.8865L17.5254 115.613C17.1862 116.085 17.2944 116.743 17.7672 117.083C18.24 117.422 18.8981 117.314 19.2373 116.841L34.8253 95.1148C34.9043 95.0046 35.0581 94.9792 35.1682 95.0583L37.8183 96.9597C37.9284 97.0387 37.9536 97.1925 37.8746 97.3026L14.9142 129.304C14.8352 129.414 14.6814 129.44 14.5713 129.361L11.9212 127.459C11.8111 127.38 11.7859 127.226 11.8649 127.116L16.3579 120.854C16.697 120.381 16.5889 119.723 16.116 119.384C15.6432 119.045 14.9851 119.153 14.646 119.626L10.153 125.888C9.39672 126.942 9.63899 128.415 10.6929 129.171L13.343 131.072C14.397 131.829 15.8698 131.586 16.6261 130.532L16.7292 130.389L17.817 131.169L12.5208 138.551C11.4532 140.039 11.6943 142.062 13.0815 143.258C13.2629 143.414 17.6002 147.109 24.065 148.885C29.9799 150.511 38.794 150.828 47.6552 143.424C49.8603 142.79 51.9629 141.769 53.849 140.377L54.8692 140.457C56.7977 140.607 58.6957 141.317 60.3579 142.509C61.3733 143.238 62.2491 144.111 62.9609 145.106L64.2947 146.969L62.8666 148.959C61.4011 151.002 61.8706 153.856 63.9133 155.322L65.7063 156.608L63.4713 159.723C62.8405 160.602 63.0427 161.831 63.9218 162.462L67.9424 165.346C68.8215 165.977 70.0499 165.775 70.6807 164.896L89.4545 138.73C90.0852 137.85 89.8832 136.622 89.0041 135.991L84.9834 133.107C84.1043 132.476 82.8758 132.678 82.2451 133.557L80.01 136.672L78.217 135.386C76.1743 133.92 73.32 134.39 71.8545 136.432L70.4263 138.423L68.2341 137.756C67.0645 137.4 65.9564 136.85 64.9409 136.122C63.2788 134.929 61.9984 133.359 61.2382 131.58L60.8362 130.639C61.5502 128.406 61.8442 126.088 61.7379 123.796C65.9141 113.029 62.7902 104.781 59.3555 99.6988C55.6015 94.1438 50.7124 91.2185 50.5061 91.0968ZM34.2619 142.488C31.6228 143.012 28.892 142.905 26.083 142.156C24.1311 141.636 22.1917 140.82 20.3173 139.732L23.5233 135.263L30.8743 140.537C31.9562 141.314 33.0915 141.963 34.2619 142.488ZM24.6235 146.854C18.611 145.201 14.6238 141.805 14.4571 141.662C13.9022 141.184 13.8058 140.374 14.2328 139.779L19.529 132.397L21.8115 134.035L18.5547 138.574C18.2229 139.037 18.1005 139.621 18.2188 140.178C18.3373 140.735 18.6874 141.219 19.1793 141.507C21.24 142.713 23.3802 143.616 25.5404 144.192C29.8065 145.329 33.9011 145.153 37.7848 143.678C39.5182 144.083 41.2875 144.245 43.042 144.171C36.0223 148.528 29.3221 148.145 24.6235 146.854ZM83.8726 134.903L87.6583 137.619L69.053 163.55L65.2674 160.834L83.8726 134.903ZM73.5663 137.66C74.3546 136.562 75.89 136.309 76.9888 137.098L78.7818 138.384L66.9346 154.896L65.1415 153.61C64.0427 152.821 63.7902 151.286 64.5785 150.187L73.5663 137.66ZM67.6211 139.772L69.1293 140.23L65.5916 145.161L64.6739 143.879C63.8278 142.697 62.7889 141.661 61.5861 140.798C59.9024 139.59 58.0069 138.8 56.0518 138.481C56.7904 137.741 57.4797 136.934 58.1085 136.058C58.7372 135.181 59.2813 134.27 59.7451 133.333C60.6734 135.083 62.029 136.626 63.7126 137.834C64.9157 138.697 66.2306 139.349 67.6211 139.772ZM56.3965 134.829C50.8004 142.629 39.9021 144.422 32.1026 138.826L17.9574 128.677L38.2552 100.386L52.4003 110.535C60.2 116.131 61.9926 127.03 56.3965 134.829ZM57.6099 100.879C60.3383 104.916 62.848 111.141 60.9688 119.187C60.4753 117.498 59.7537 115.871 58.8123 114.356C58.9415 110.789 58.1158 107.379 56.3295 104.156C56.0476 103.647 55.4062 103.464 54.8975 103.746C54.3889 104.028 54.2048 104.669 54.4869 105.178C55.5928 107.173 56.2854 109.254 56.5662 111.412C55.6924 110.47 54.7126 109.601 53.6288 108.823L46.2778 103.549L49.4838 99.0807C50.3034 99.7977 51.0752 100.566 51.7791 101.365C52.1638 101.802 52.8295 101.844 53.266 101.459C53.7028 101.075 53.7448 100.409 53.3601 99.9722C52.5761 99.0822 51.715 98.2283 50.801 97.4339C50.3708 97.06 49.7997 96.8836 49.2339 96.9498C48.6688 97.016 48.1545 97.3191 47.8227 97.7816L44.5659 102.321L42.2834 100.683L47.5796 93.3015C48.0066 92.7063 48.8043 92.5384 49.4351 92.9109C49.6243 93.023 54.1185 95.7123 57.6099 100.879Z" fill="#B12326"/>
<path d="M42.2954 116.186L40.1777 118.385C40.0854 118.48 39.952 118.525 39.8209 118.503L36.8093 118.005C35.8596 117.848 34.9209 118.236 34.3597 119.018C33.7985 119.8 33.7313 120.814 34.1843 121.663L35.6208 124.357C35.6834 124.474 35.6843 124.615 35.6231 124.733L34.2188 127.443C33.7758 128.298 33.855 129.31 34.4255 130.086C34.9961 130.861 35.9393 131.239 36.8872 131.07L39.8925 130.536C40.0235 130.513 40.1573 130.556 40.2508 130.65L42.3945 132.824C43.0706 133.509 44.0581 133.746 44.972 133.443C45.8855 133.14 46.5359 132.36 46.6688 131.406L47.0897 128.383C47.108 128.251 47.1898 128.137 47.3088 128.078L50.038 126.71C50.4124 126.523 50.7244 126.253 50.9569 125.929C51.2591 125.508 51.4274 124.995 51.424 124.451C51.4183 123.488 50.8769 122.628 50.0112 122.208L47.2658 120.873C47.1461 120.815 47.0628 120.702 47.043 120.57L46.5861 117.552C46.442 116.6 45.7825 115.827 44.8652 115.535C43.9479 115.243 42.9631 115.493 42.2954 116.186ZM44.503 117.867L44.9599 120.886C45.0837 121.703 45.6012 122.406 46.3446 122.768L49.09 124.103C49.2864 124.198 49.3167 124.37 49.3173 124.463C49.318 124.557 49.29 124.729 49.0944 124.827L46.3651 126.194C45.9957 126.379 45.6835 126.649 45.4496 126.975C45.2157 127.301 45.0599 127.683 45.0029 128.093L44.5821 131.116C44.5521 131.332 44.3981 131.414 44.309 131.444C44.22 131.473 44.0479 131.5 43.8943 131.344L41.7506 129.171C41.1701 128.582 40.3378 128.317 39.5239 128.462L36.5186 128.996C36.3035 129.034 36.1781 128.913 36.1226 128.838C36.067 128.762 35.9888 128.607 36.0893 128.413L37.4936 125.702C37.8738 124.968 37.8687 124.095 37.4798 123.366L36.0432 120.672C35.9404 120.479 36.0168 120.323 36.0714 120.247C36.126 120.171 36.2499 120.048 36.4654 120.084L39.4771 120.582C40.2924 120.717 41.1216 120.442 41.695 119.846L43.8127 117.648C43.9643 117.491 44.1368 117.515 44.2261 117.543C44.3156 117.571 44.4703 117.652 44.503 117.867Z" fill="#B12326"/>
</g>
<g clip-path="url(#clip2)">
<rect width="83.1021" height="82.2273" transform="translate(96 17.8418) rotate(-12.3977)" fill="white"/>
<path d="M132.998 37.7725L130.292 38.3672L130.881 41.0442L133.586 40.4495L132.998 37.7725Z" fill="#B12326"/>
<path d="M134.174 43.1264L131.469 43.7211L132.057 46.3981L134.763 45.8034L134.174 43.1264Z" fill="#B12326"/>
<path d="M135.351 48.4804L132.646 49.0751L133.234 51.7521L135.94 51.1574L135.351 48.4804Z" fill="#B12326"/>
<path d="M136.528 53.8344L133.823 54.4292L134.411 57.1062L137.117 56.5114L136.528 53.8344Z" fill="#B12326"/>
<path d="M138.409 36.583L135.703 37.1777L136.292 39.8547L138.997 39.26L138.409 36.583Z" fill="#B12326"/>
<path d="M139.585 41.937L136.88 42.5317L137.468 45.2087L140.174 44.614L139.585 41.937Z" fill="#B12326"/>
<path d="M140.762 47.2909L138.057 47.8857L138.645 50.5627L141.351 49.9679L140.762 47.2909Z" fill="#B12326"/>
<path d="M141.939 52.645L139.234 53.2397L139.822 55.9167L142.528 55.322L141.939 52.645Z" fill="#B12326"/>
<path d="M143.819 35.3936L141.114 35.9883L141.702 38.6653L144.408 38.0706L143.819 35.3936Z" fill="#B12326"/>
<path d="M144.996 40.7475L142.291 41.3423L142.879 44.0192L145.585 43.4245L144.996 40.7475Z" fill="#B12326"/>
<path d="M146.173 46.1015L143.468 46.6963L144.056 49.3733L146.762 48.7785L146.173 46.1015Z" fill="#B12326"/>
<path d="M147.35 51.4555L144.645 52.0503L145.233 54.7272L147.939 54.1325L147.35 51.4555Z" fill="#B12326"/>
<path d="M149.23 34.2041L146.525 34.7989L147.113 37.4759L149.819 36.8811L149.23 34.2041Z" fill="#B12326"/>
<path d="M137.232 31.229L134.526 31.8237L135.115 34.5007L137.82 33.906L137.232 31.229Z" fill="#B12326"/>
<path d="M142.643 30.0395L139.937 30.6342L140.526 33.3112L143.231 32.7165L142.643 30.0395Z" fill="#B12326"/>
<path d="M148.054 28.8501L145.348 29.4449L145.937 32.1219L148.642 31.5271L148.054 28.8501Z" fill="#B12326"/>
<path d="M150.407 39.558L147.702 40.1527L148.29 42.8297L150.996 42.235L150.407 39.558Z" fill="#B12326"/>
<path d="M151.584 44.912L148.879 45.5067L149.467 48.1837L152.173 47.589L151.584 44.912Z" fill="#B12326"/>
<path d="M152.761 50.2661L150.056 50.8608L150.644 53.5378L153.35 52.943L152.761 50.2661Z" fill="#B12326"/>
<path d="M154.641 33.0147L151.936 33.6094L152.524 36.2864L155.23 35.6917L154.641 33.0147Z" fill="#B12326"/>
<path d="M155.818 38.3686L153.113 38.9633L153.701 41.6403L156.407 41.0456L155.818 38.3686Z" fill="#B12326"/>
<path d="M156.995 43.7226L154.29 44.3174L154.878 46.9944L157.584 46.3996L156.995 43.7226Z" fill="#B12326"/>
<path d="M158.172 49.0766L155.467 49.6714L156.055 52.3483L158.761 51.7536L158.172 49.0766Z" fill="#B12326"/>
<path d="M180.226 20.3746C180.226 20.3747 180.225 20.3749 180.225 20.375L159.934 24.8354L155.815 6.09641C155.653 5.35745 154.916 4.8913 154.169 5.05494C154.169 5.05505 154.168 5.05516 154.168 5.05527L118.997 12.7867C118.25 12.9503 117.776 13.6821 117.938 14.421C117.938 14.4215 117.938 14.422 117.938 14.4225L122.057 33.1615L101.766 37.6219C101.019 37.7856 100.545 38.5173 100.707 39.2563C100.707 39.2568 100.708 39.2573 100.708 39.2578L111.3 87.4437C111.462 88.1827 112.199 88.6488 112.945 88.4852C112.946 88.4851 112.946 88.485 112.947 88.4848L115.775 87.8632C115.793 88.3225 115.851 88.7793 115.947 89.2286L117.418 95.9211C117.58 96.6601 118.316 97.1262 119.063 96.9626C119.064 96.9625 119.064 96.9624 119.065 96.9622L189.407 81.4995C190.154 81.3358 190.628 80.6041 190.466 79.8651C190.466 79.8646 190.466 79.8641 190.466 79.8636L188.994 73.1711C188.893 72.723 188.754 72.2842 188.578 71.8595L191.406 71.2379C192.153 71.0743 192.626 70.3425 192.465 69.6035C192.464 69.603 192.464 69.6025 192.464 69.602L181.872 21.4161C181.71 20.6771 180.973 20.211 180.226 20.3746ZM166.82 62.6107C167.145 64.0892 166.197 65.5539 164.703 65.8824C163.208 66.2109 161.734 65.2787 161.409 63.8001C161.084 62.3216 162.031 60.8569 163.526 60.5284C165.02 60.202 166.493 61.1334 166.82 62.6107ZM133.765 67.0704C135.26 66.7419 136.734 67.6741 137.059 69.1526C137.384 70.6312 136.437 72.0959 134.942 72.4244C133.448 72.7528 131.973 71.8206 131.648 70.3421C131.325 68.864 132.272 67.4005 133.765 67.0704ZM130.651 91.609L119.829 93.9879L118.652 88.6339C118.002 85.677 119.898 82.7474 122.886 82.0905C125.875 81.4336 128.824 83.2981 129.474 86.255L130.651 91.609ZM119.004 77.3312C118.679 75.8526 119.627 74.3879 121.121 74.0595C122.615 73.731 124.09 74.6632 124.415 76.1417C124.74 77.6203 123.792 79.085 122.298 79.4135C120.804 79.7399 119.33 78.8085 119.004 77.3312ZM128.407 80.4251C127.79 80.0504 127.126 79.7572 126.432 79.5529C128.025 76.9604 127.2 73.5889 124.59 72.0223C121.979 70.4558 118.571 71.2877 116.978 73.8802C115.437 76.3877 116.153 79.6435 118.603 81.2736C117.468 82.2665 116.624 83.5445 116.162 84.9716L113.711 85.5103L103.707 40.0015L122.646 35.8385L129.525 67.1353C128.121 69.6061 128.872 72.723 131.248 74.2846C129.463 75.8411 128.43 78.0748 128.407 80.4251ZM144.178 88.6354L133.356 91.0143L131.297 81.6448C130.647 78.6879 132.542 75.7583 135.531 75.1013C138.519 74.4444 141.469 76.309 142.119 79.2659L144.178 88.6354ZM160.411 85.0671L146.884 88.0407L144.824 78.6712C144.012 74.9751 146.381 71.313 150.117 70.4919C153.852 69.6708 157.539 72.0015 158.352 75.6976L160.411 85.0671ZM144.587 64.6915C144.1 62.4737 145.522 60.2766 147.763 59.7839C150.004 59.2912 152.216 60.6896 152.704 62.9073C153.191 65.125 151.77 67.3222 149.528 67.8149C147.287 68.305 145.077 66.9077 144.587 64.6915ZM158.815 70.7714C157.562 69.3905 155.931 68.3992 154.119 67.917C156.452 64.9077 155.889 60.6053 152.862 58.3072C149.834 56.0091 145.487 56.5857 143.153 59.5948C140.82 62.6041 141.383 66.9065 144.41 69.2046C144.723 69.4416 145.055 69.6517 145.404 69.8326C143.961 71.0305 142.896 72.6142 142.338 74.3935C141.406 73.5459 140.291 72.9202 139.076 72.5638C140.689 70.0086 139.91 66.6516 137.338 65.066C135.681 64.0448 133.598 63.9745 131.866 64.8808L120.938 15.1663L153.403 8.02963L164.332 57.7441C163.864 57.7207 163.396 57.7568 162.937 57.8514C159.955 58.4987 158.057 61.4156 158.697 64.3666C158.997 65.7474 159.825 66.9574 161.008 67.7427C160.055 68.5755 159.305 69.6112 158.815 70.7714ZM172.762 76.7395L173.939 82.0934L163.117 84.4723L161.057 75.1028C160.407 72.1459 162.303 69.2163 165.291 68.5594C168.279 67.9025 171.229 69.767 171.879 72.724L172.762 76.7395ZM187.466 79.1198L176.644 81.4987L175.467 76.1447C174.817 73.1878 176.713 70.2582 179.701 69.6013C182.69 68.9444 185.639 70.8089 186.289 73.7658L187.466 79.1198ZM175.819 64.842C175.494 63.3635 176.441 61.8988 177.936 61.5703C179.43 61.2418 180.905 62.174 181.23 63.6526C181.555 65.1311 180.607 66.5958 179.113 66.9243C177.619 67.2507 176.145 66.3193 175.819 64.842ZM189.465 68.8583L187.014 69.397C185.995 68.2954 184.694 67.489 183.247 67.0637C184.84 64.4713 184.015 61.0997 181.405 59.5332C178.794 57.9668 175.386 58.7985 173.793 61.391C172.252 63.8986 172.968 67.1543 175.418 68.7844C174.874 69.2611 174.393 69.8058 173.991 70.4048C172.985 68.2805 171.11 66.6861 168.837 66.0217C170.339 63.6076 169.713 60.463 167.402 58.8089L160.523 27.5123L179.461 23.3493L189.465 68.8582L189.465 68.8583Z" fill="#B12326"/>
<path d="M169.051 34.0566L166.346 34.6513L171.054 56.0673L173.759 55.4726L169.051 34.0566Z" fill="#B12326"/>
<path d="M177.168 32.2724L174.462 32.8671L179.17 54.2831L181.876 53.6884L177.168 32.2724Z" fill="#B12326"/>
<path d="M112.236 46.5458L109.531 47.1405L114.239 68.5565L116.944 67.9617L112.236 46.5458Z" fill="#B12326"/>
<path d="M120.353 44.7616L117.647 45.3563L122.355 66.7722L125.061 66.1775L120.353 44.7616Z" fill="#B12326"/>
<path d="M145.877 12.4905C145.876 12.4906 145.876 12.4907 145.875 12.4908L129.643 16.0591C128.896 16.2228 128.422 16.9545 128.584 17.6935C128.584 17.694 128.584 17.6945 128.584 17.695L130.938 28.403C131.1 29.1419 131.837 29.6081 132.583 29.4445C132.584 29.4443 132.584 29.4442 132.585 29.4441L148.818 25.8758C149.565 25.7121 150.039 24.9804 149.877 24.2414C149.877 24.2409 149.876 24.2404 149.876 24.2399L147.522 13.5319C147.361 12.793 146.624 12.3268 145.877 12.4905ZM146.877 23.4962L133.349 26.4698L131.584 18.4388L145.111 15.4652L146.877 23.4962Z" fill="#B12326"/>
</g>
<defs>
<clipPath id="clip0">
<rect width="81.2186" height="81.2186" fill="white" transform="translate(257.189) rotate(6.49636)"/>
</clipPath>
<clipPath id="clip1">
<rect width="71.9189" height="71.9189" fill="white" transform="translate(0.67041 139.104) rotate(-54.3413)"/>
</clipPath>
<clipPath id="clip2">
<rect width="83.1021" height="82.2273" fill="white" transform="translate(96 17.8418) rotate(-12.3977)"/>
</clipPath>
</defs>
</svg>
