<svg width="3982" height="621" viewBox="0 0 3982 621" fill="none" xmlns="http://www.w3.org/2000/svg">
<path d="M990.5 601.37L989.762 605.302L990.5 601.37ZM1280 585.159L1281.34 588.926L1280 585.159ZM1679 150.561L1676.38 147.54L1676.38 147.54L1679 150.561ZM2309 134.626L2312.98 134.266L2309 134.626ZM2103 334.541L2104.16 338.37L2103 334.541ZM1946 540.25L1949.38 538.115L1946 540.25ZM2264 498.238L2265.11 502.08L2264 498.238ZM2719 334.541L2718.28 330.606L2719 334.541ZM3068 540.25L3066.11 536.725C3065.96 536.807 3065.81 536.898 3065.67 536.998L3068 540.25ZM3540 392.09L3540.05 396.09L3540 392.09ZM3978 458.634C3980.21 458.634 3982 456.843 3982 454.634C3982 452.425 3980.21 450.634 3978 450.634V458.634ZM558 499.537L558.064 503.536L558 499.537ZM4 581.159C1.79086 581.159 0 582.95 0 585.159C0 587.368 1.79086 589.159 4 589.159V581.159ZM4.23776 589.159C6.4469 589.155 8.23449 587.36 8.23046 585.151C8.22642 582.942 6.4323 581.155 4.22316 581.159L4.23776 589.159ZM31.2422 579.195C29.0487 579.458 27.4838 581.449 27.7468 583.642C28.0098 585.836 30.0011 587.401 32.1945 587.138L31.2422 579.195ZM32.7008 587.077C34.8939 586.811 36.4566 584.818 36.191 582.625C35.9255 580.432 33.9323 578.869 31.7392 579.135L32.7008 587.077ZM58.7691 575.194C56.5895 575.554 55.114 577.613 55.4737 579.792C55.8333 581.972 57.8918 583.447 60.0715 583.088L58.7691 575.194ZM60.5531 583.008C62.7325 582.647 64.2069 580.588 63.8462 578.409C63.4854 576.229 61.4262 574.755 59.2467 575.116L60.5531 583.008ZM86.328 570.305C84.1567 570.712 82.7266 572.802 83.1338 574.973C83.541 577.145 85.6312 578.575 87.8025 578.167L86.328 570.305ZM88.2827 578.077C90.4539 577.67 91.8834 575.579 91.4757 573.408C91.0679 571.237 88.9773 569.807 86.8061 570.215L88.2827 578.077ZM113.884 564.953C111.717 565.385 110.312 567.492 110.744 569.658C111.177 571.825 113.284 573.23 115.45 572.798L113.884 564.953ZM115.926 572.703C118.092 572.27 119.497 570.163 119.064 567.997C118.632 565.83 116.525 564.425 114.358 564.858L115.926 572.703ZM141.344 559.374C139.18 559.819 137.787 561.935 138.233 564.098C138.678 566.262 140.793 567.655 142.957 567.21L141.344 559.374ZM143.445 567.109C145.608 566.664 147.001 564.548 146.556 562.385C146.11 560.221 143.995 558.828 141.831 559.274L143.445 567.109ZM168.812 553.679C166.649 554.129 165.261 556.248 165.711 558.41C166.162 560.573 168.28 561.961 170.443 561.511L168.812 553.679ZM170.923 561.411C173.086 560.96 174.474 558.842 174.024 556.679C173.573 554.516 171.455 553.128 169.292 553.579L170.923 561.411ZM196.325 547.949C194.162 548.398 192.773 550.516 193.223 552.679C193.672 554.842 195.79 556.231 197.953 555.781L196.325 547.949ZM198.44 555.68C200.603 555.23 201.992 553.113 201.542 550.95C201.092 548.787 198.975 547.398 196.812 547.847L198.44 555.68ZM223.807 542.267C221.643 542.711 220.249 544.825 220.693 546.989C221.137 549.153 223.251 550.548 225.415 550.103L223.807 542.267ZM225.896 550.005C228.06 549.56 229.455 547.446 229.01 545.282C228.566 543.118 226.452 541.724 224.288 542.168L225.896 550.005ZM251.34 536.671C249.174 537.106 247.771 539.215 248.206 541.381C248.641 543.547 250.75 544.95 252.916 544.515L251.34 536.671ZM253.4 544.417C255.566 543.982 256.969 541.874 256.535 539.708C256.1 537.542 253.991 536.139 251.825 536.574L253.4 544.417ZM278.912 531.214C276.744 531.636 275.328 533.736 275.751 535.905C276.173 538.073 278.273 539.488 280.441 539.066L278.912 531.214ZM280.923 538.973C283.091 538.55 284.507 536.45 284.085 534.282C283.663 532.114 281.563 530.698 279.394 531.12L280.923 538.973ZM306.504 525.943C304.333 526.349 302.902 528.439 303.308 530.61C303.714 532.782 305.804 534.213 307.975 533.806L306.504 525.943ZM308.459 533.716C310.63 533.31 312.062 531.221 311.656 529.049C311.25 526.878 309.161 525.446 306.989 525.852L308.459 533.716ZM334.165 520.895C331.99 521.281 330.54 523.358 330.926 525.533C331.313 527.708 333.389 529.158 335.564 528.771L334.165 520.895ZM336.049 528.685C338.225 528.299 339.675 526.223 339.289 524.047C338.903 521.872 336.826 520.422 334.651 520.808L336.049 528.685ZM361.872 516.119C359.693 516.483 358.221 518.544 358.584 520.723C358.947 522.902 361.008 524.374 363.187 524.011L361.872 516.119ZM363.672 523.93C365.851 523.567 367.324 521.506 366.961 519.327C366.598 517.148 364.537 515.676 362.358 516.038L363.672 523.93ZM389.641 511.665C387.458 512.001 385.96 514.043 386.296 516.226C386.632 518.41 388.674 519.908 390.857 519.572L389.641 511.665ZM391.343 519.497C393.527 519.162 395.025 517.12 394.69 514.936C394.354 512.753 392.312 511.255 390.129 511.59L391.343 519.497ZM417.467 507.587C415.279 507.891 413.752 509.911 414.056 512.099C414.36 514.287 416.38 515.815 418.568 515.511L417.467 507.587ZM419.054 515.444C421.242 515.14 422.77 513.12 422.466 510.932C422.163 508.744 420.143 507.216 417.955 507.519L419.054 515.444ZM445.382 503.946C443.189 504.212 441.628 506.206 441.894 508.399C442.161 510.592 444.155 512.154 446.348 511.887L445.382 503.946ZM446.836 511.828C449.029 511.562 450.592 509.568 450.326 507.375C450.06 505.182 448.066 503.62 445.873 503.886L446.836 511.828ZM473.363 500.819C471.165 501.042 469.564 503.004 469.787 505.202C470.01 507.4 471.972 509.001 474.17 508.778L473.363 500.819ZM474.657 508.729C476.855 508.507 478.457 506.545 478.235 504.347C478.013 502.149 476.051 500.547 473.853 500.769L474.657 508.729ZM501.394 498.298C499.191 498.469 497.545 500.394 497.716 502.596C497.888 504.799 499.812 506.445 502.014 506.274L501.394 498.298ZM502.507 506.235C504.71 506.065 506.357 504.141 506.187 501.939C506.016 499.736 504.092 498.089 501.89 498.259L502.507 506.235ZM529.551 496.489C527.344 496.599 525.645 498.477 525.755 500.683C525.865 502.889 527.743 504.589 529.949 504.479L529.551 496.489ZM530.438 504.455C532.645 504.346 534.345 502.469 534.237 500.262C534.128 498.056 532.251 496.355 530.044 496.464L530.438 504.455ZM557.691 495.541C555.482 495.578 553.721 497.398 553.757 499.606C553.793 501.815 555.613 503.576 557.822 503.54L557.691 495.541ZM558.307 503.532C560.516 503.498 562.279 501.679 562.244 499.471C562.21 497.262 560.392 495.499 558.183 495.533L558.307 503.532ZM585.809 495.917C583.602 495.824 581.737 497.537 581.643 499.744C581.549 501.951 583.262 503.816 585.469 503.91L585.809 495.917ZM585.954 503.931C588.161 504.027 590.028 502.316 590.124 500.109C590.22 497.902 588.508 496.035 586.301 495.939L585.954 503.931ZM613.84 497.877C611.641 497.665 609.686 499.276 609.474 501.475C609.262 503.673 610.873 505.628 613.072 505.84L613.84 497.877ZM613.555 505.887C615.754 506.101 617.71 504.492 617.924 502.293C618.138 500.094 616.529 498.138 614.33 497.924L613.555 505.887ZM641.713 501.252C639.526 500.935 637.497 502.451 637.18 504.637C636.863 506.823 638.379 508.852 640.565 509.169L641.713 501.252ZM641.046 509.239C643.232 509.558 645.263 508.044 645.581 505.858C645.9 503.672 644.386 501.641 642.2 501.323L641.046 509.239ZM669.384 505.871C667.213 505.462 665.122 506.891 664.714 509.063C664.305 511.234 665.734 513.325 667.905 513.733L669.384 505.871ZM668.383 513.823C670.554 514.233 672.646 512.805 673.056 510.634C673.466 508.464 672.038 506.372 669.867 505.962L668.383 513.823ZM696.832 511.562C694.677 511.076 692.536 512.428 692.049 514.583C691.563 516.738 692.915 518.879 695.07 519.366L696.832 511.562ZM695.545 519.473C697.699 519.961 699.842 518.61 700.329 516.455C700.817 514.301 699.466 512.159 697.312 511.671L695.545 519.473ZM724.053 518.161C721.914 517.609 719.733 518.895 719.18 521.034C718.628 523.173 719.915 525.355 722.054 525.907L724.053 518.161ZM722.526 526.029C724.664 526.582 726.847 525.297 727.4 523.158C727.953 521.02 726.668 518.837 724.529 518.284L722.526 526.029ZM751.059 525.507C748.935 524.901 746.722 526.133 746.116 528.257C745.511 530.382 746.742 532.595 748.867 533.2L751.059 525.507ZM749.336 533.334C751.461 533.941 753.674 532.71 754.28 530.586C754.887 528.461 753.656 526.248 751.532 525.641L749.336 533.334ZM777.873 533.443C775.761 532.797 773.524 533.985 772.878 536.097C772.231 538.21 773.42 540.446 775.532 541.093L777.873 533.443ZM776 541.236C778.112 541.883 780.349 540.696 780.996 538.583C781.643 536.471 780.456 534.234 778.343 533.587L776 541.236ZM804.53 541.818C802.427 541.142 800.174 542.299 799.498 544.403C798.823 546.506 799.98 548.759 802.083 549.434L804.53 541.818ZM802.55 549.584C804.653 550.26 806.906 549.103 807.582 547C808.258 544.897 807.101 542.644 804.998 541.968L802.55 549.584ZM831.072 550.475C828.974 549.782 826.712 550.922 826.02 553.02C825.327 555.118 826.467 557.379 828.565 558.072L831.072 550.475ZM829.031 558.226C831.129 558.918 833.391 557.779 834.083 555.681C834.776 553.583 833.636 551.321 831.539 550.629L829.031 558.226ZM857.549 559.252C855.452 558.556 853.189 559.692 852.493 561.789C851.797 563.886 852.933 566.149 855.03 566.845L857.549 559.252ZM855.497 567C857.593 567.695 859.857 566.56 860.553 564.463C861.248 562.366 860.112 560.102 858.016 559.407L855.497 567ZM884.019 567.972C881.918 567.288 879.661 568.436 878.977 570.536C878.293 572.637 879.441 574.894 881.542 575.578L884.019 567.972ZM882.01 575.731C884.111 576.415 886.368 575.266 887.052 573.165C887.735 571.065 886.587 568.807 884.486 568.124L882.01 575.731ZM910.543 576.429C908.434 575.774 906.192 576.954 905.537 579.064C904.883 581.173 906.062 583.415 908.172 584.07L910.543 576.429ZM908.642 584.216C910.752 584.87 912.993 583.69 913.648 581.58C914.302 579.47 913.122 577.229 911.012 576.574L908.642 584.216ZM937.184 584.378C935.059 583.773 932.847 585.006 932.243 587.131C931.639 589.256 932.872 591.468 934.996 592.073L937.184 584.378ZM935.47 592.207C937.595 592.81 939.807 591.576 940.41 589.451C941.013 587.326 939.779 585.114 937.654 584.511L935.47 592.207ZM963.995 591.503C961.849 590.978 959.683 592.292 959.158 594.437C958.633 596.583 959.946 598.748 962.092 599.274L963.995 591.503ZM962.569 599.39C964.715 599.914 966.88 598.599 967.403 596.452C967.927 594.306 966.612 592.142 964.465 591.618L962.569 599.39ZM991.002 597.395C988.831 596.986 986.74 598.414 986.331 600.585C985.922 602.756 987.351 604.848 989.522 605.256L991.002 597.395ZM990.016 605.349C992.188 605.757 994.278 604.328 994.686 602.157C995.094 599.985 993.664 597.895 991.493 597.487L990.016 605.349ZM1019.92 602.798C1017.74 602.403 1015.66 603.846 1015.27 606.019C1014.87 608.193 1016.32 610.275 1018.49 610.669L1019.92 602.798ZM1019 610.762C1021.17 611.156 1023.25 609.713 1023.65 607.539C1024.04 605.365 1022.6 603.284 1020.43 602.89L1019 610.762ZM1048.84 607.636C1046.66 607.311 1044.62 608.819 1044.3 611.004C1043.97 613.189 1045.48 615.224 1047.66 615.549L1048.84 607.636ZM1048.18 615.625C1050.36 615.948 1052.4 614.439 1052.72 612.253C1053.04 610.068 1051.53 608.034 1049.35 607.711L1048.18 615.625ZM1077.85 611.189C1075.65 610.984 1073.71 612.601 1073.5 614.801C1073.3 617.001 1074.91 618.95 1077.11 619.154L1077.85 611.189ZM1077.63 619.202C1079.83 619.405 1081.78 617.785 1081.98 615.585C1082.18 613.385 1080.56 611.438 1078.36 611.236L1077.63 619.202ZM1106.98 612.899C1104.77 612.849 1102.94 614.598 1102.89 616.807C1102.84 619.016 1104.59 620.847 1106.8 620.897L1106.98 612.899ZM1107.32 620.909C1109.53 620.956 1111.36 619.204 1111.41 616.995C1111.46 614.787 1109.7 612.958 1107.49 612.91L1107.32 620.909ZM1136.11 612.463C1133.9 612.58 1132.21 614.463 1132.32 616.669C1132.44 618.875 1134.32 620.569 1136.53 620.452L1136.11 612.463ZM1137.05 620.424C1139.26 620.305 1140.95 618.419 1140.83 616.214C1140.71 614.008 1138.82 612.316 1136.62 612.436L1137.05 620.424ZM1165.14 609.843C1162.95 610.121 1161.4 612.123 1161.67 614.315C1161.95 616.506 1163.95 618.057 1166.15 617.779L1165.14 609.843ZM1166.66 617.713C1168.86 617.432 1170.4 615.428 1170.12 613.237C1169.84 611.045 1167.84 609.497 1165.65 609.778L1166.66 617.713ZM1193.94 605.186C1191.78 605.61 1190.36 607.711 1190.78 609.879C1191.21 612.047 1193.31 613.461 1195.48 613.038L1193.94 605.186ZM1195.99 612.938C1198.16 612.512 1199.57 610.41 1199.14 608.242C1198.72 606.074 1196.61 604.662 1194.45 605.088L1195.99 612.938ZM1222.46 598.733C1220.32 599.282 1219.03 601.461 1219.57 603.601C1220.12 605.741 1222.3 607.031 1224.44 606.483L1222.46 598.733ZM1224.94 606.355C1227.08 605.804 1228.37 603.624 1227.82 601.484C1227.27 599.345 1225.09 598.057 1222.95 598.607L1224.94 606.355ZM1250.59 590.758C1248.48 591.411 1247.3 593.652 1247.95 595.762C1248.6 597.872 1250.84 599.053 1252.95 598.4L1250.59 590.758ZM1253.45 598.245C1255.56 597.59 1256.74 595.348 1256.09 593.238C1255.43 591.129 1253.19 589.95 1251.08 590.605L1253.45 598.245ZM1278.41 581.479C1276.33 582.221 1275.24 584.509 1275.98 586.59C1276.73 588.671 1279.01 589.757 1281.1 589.015L1278.41 581.479ZM1281.59 588.839C1283.67 588.096 1284.75 585.807 1284.01 583.727C1283.26 581.646 1280.97 580.563 1278.89 581.306L1281.59 588.839ZM1304.82 571.004C1302.79 571.893 1301.88 574.253 1302.76 576.275C1303.65 578.298 1306.01 579.217 1308.04 578.328L1304.82 571.004ZM1308.5 578.122C1310.52 577.231 1311.44 574.87 1310.55 572.848C1309.66 570.827 1307.3 569.911 1305.27 570.803L1308.5 578.122ZM1330.26 558.651C1328.32 559.692 1327.58 562.115 1328.62 564.064C1329.66 566.012 1332.08 566.749 1334.03 565.708L1330.26 558.651ZM1334.48 565.471C1336.42 564.428 1337.16 562.004 1336.11 560.056C1335.07 558.109 1332.65 557.376 1330.7 558.419L1334.48 565.471ZM1354.66 544.372C1352.8 545.562 1352.25 548.036 1353.44 549.897C1354.63 551.758 1357.11 552.301 1358.97 551.111L1354.66 544.372ZM1359.4 550.835C1361.26 549.642 1361.8 547.168 1360.6 545.309C1359.41 543.449 1356.94 542.909 1355.08 544.102L1359.4 550.835ZM1377.88 528.192C1376.11 529.525 1375.77 532.034 1377.1 533.795C1378.43 535.557 1380.94 535.904 1382.7 534.571L1377.88 528.192ZM1383.11 534.265C1384.87 532.929 1385.21 530.42 1383.87 528.661C1382.54 526.901 1380.03 526.557 1378.27 527.893L1383.11 534.265ZM1399.76 510.27C1398.1 511.733 1397.95 514.261 1399.41 515.916C1400.87 517.571 1403.4 517.727 1405.06 516.264L1399.76 510.27ZM1405.44 515.927C1407.09 514.462 1407.24 511.934 1405.78 510.281C1404.31 508.627 1401.78 508.475 1400.13 509.94L1405.44 515.927ZM1420.3 490.766C1418.75 492.342 1418.77 494.875 1420.35 496.423C1421.92 497.972 1424.46 497.949 1426 496.374L1420.3 490.766ZM1426.36 496.013C1427.91 494.435 1427.88 491.903 1426.3 490.356C1424.73 488.81 1422.19 488.835 1420.65 490.412L1426.36 496.013ZM1439.51 469.918C1438.07 471.588 1438.25 474.114 1439.92 475.561C1441.59 477.008 1444.11 476.827 1445.56 475.158L1439.51 469.918ZM1445.89 474.775C1447.34 473.105 1447.15 470.579 1445.48 469.133C1443.81 467.688 1441.29 467.871 1439.84 469.542L1445.89 474.775ZM1457.52 447.961C1456.16 449.705 1456.48 452.218 1458.22 453.574C1459.96 454.93 1462.48 454.616 1463.83 452.872L1457.52 447.961ZM1464.14 452.473C1465.5 450.728 1465.18 448.215 1463.44 446.861C1461.69 445.506 1459.18 445.822 1457.82 447.567L1464.14 452.473ZM1474.46 425.128C1473.19 426.929 1473.61 429.426 1475.41 430.706C1477.21 431.986 1479.71 431.563 1480.99 429.763L1474.46 425.128ZM1481.28 429.351C1482.56 427.55 1482.13 425.053 1480.33 423.774C1478.53 422.496 1476.03 422.92 1474.75 424.721L1481.28 429.351ZM1490.56 401.63C1489.34 403.472 1489.85 405.954 1491.69 407.174C1493.53 408.394 1496.01 407.891 1497.23 406.049L1490.56 401.63ZM1497.51 405.629C1498.73 403.787 1498.22 401.305 1496.38 400.086C1494.54 398.867 1492.06 399.372 1490.84 401.214L1497.51 405.629ZM1506.03 377.668C1504.85 379.537 1505.41 382.007 1507.28 383.186C1509.14 384.364 1511.61 383.805 1512.79 381.937L1506.03 377.668ZM1513.06 381.511C1514.24 379.642 1513.68 377.172 1511.81 375.994C1509.94 374.816 1507.47 375.376 1506.29 377.245L1513.06 381.511ZM1521.1 353.404C1519.95 355.287 1520.54 357.75 1522.42 358.906C1524.3 360.062 1526.76 359.473 1527.92 357.591L1521.1 353.404ZM1528.18 357.163C1529.34 355.28 1528.75 352.817 1526.87 351.661C1524.98 350.505 1522.52 351.095 1521.36 352.977L1528.18 357.163ZM1536.02 329.001C1534.87 330.886 1535.47 333.348 1537.35 334.5C1539.24 335.652 1541.7 335.057 1542.85 333.172L1536.02 329.001ZM1543.11 332.744C1544.26 330.859 1543.67 328.397 1541.78 327.245C1539.9 326.093 1537.44 326.687 1536.29 328.572L1543.11 332.744ZM1551.03 304.605C1549.87 306.481 1550.44 308.948 1552.32 310.114C1554.19 311.28 1556.66 310.704 1557.83 308.828L1551.03 304.605ZM1558.09 308.402C1559.26 306.526 1558.68 304.06 1556.81 302.893C1554.93 301.727 1552.46 302.302 1551.3 304.178L1558.09 308.402ZM1566.36 280.362C1565.16 282.218 1565.7 284.694 1567.55 285.892C1569.41 287.091 1571.88 286.557 1573.08 284.701L1566.36 280.362ZM1573.35 284.28C1574.55 282.425 1574.02 279.949 1572.17 278.75C1570.31 277.551 1567.83 278.084 1566.64 279.939L1573.35 284.28ZM1582.24 256.434C1580.99 258.258 1581.46 260.747 1583.28 261.994C1585.1 263.241 1587.59 262.773 1588.84 260.95L1582.24 256.434ZM1589.12 260.537C1590.37 258.714 1589.9 256.225 1588.08 254.977C1586.26 253.729 1583.77 254.195 1582.52 256.018L1589.12 260.537ZM1598.87 232.975C1597.56 234.753 1597.94 237.257 1599.72 238.568C1601.49 239.879 1604 239.501 1605.31 237.723L1598.87 232.975ZM1605.61 237.321C1606.92 235.543 1606.54 233.039 1604.76 231.727C1602.99 230.414 1600.48 230.791 1599.17 232.568L1605.61 237.321ZM1616.44 210.185C1615.05 211.904 1615.32 214.422 1617.04 215.811C1618.76 217.199 1621.28 216.932 1622.66 215.214L1616.44 210.185ZM1622.98 214.826C1624.37 213.109 1624.1 210.59 1622.39 209.2C1620.67 207.81 1618.15 208.075 1616.76 209.792L1622.98 214.826ZM1635.13 188.23C1633.65 189.874 1633.79 192.403 1635.43 193.879C1637.08 195.356 1639.61 195.22 1641.08 193.577L1635.13 188.23ZM1641.41 193.208C1642.89 191.566 1642.76 189.037 1641.12 187.559C1639.47 186.081 1636.95 186.214 1635.47 187.856L1641.41 193.208ZM1655.01 167.359C1653.43 168.912 1653.42 171.445 1654.97 173.016C1656.53 174.586 1659.06 174.601 1660.63 173.047L1655.01 167.359ZM1660.98 172.697C1662.56 171.146 1662.57 168.613 1661.02 167.041C1659.47 165.468 1656.94 165.451 1655.37 167.003L1660.98 172.697ZM1676.19 147.708C1674.52 149.157 1674.34 151.683 1675.79 153.351C1677.24 155.018 1679.77 155.195 1681.43 153.746L1676.19 147.708ZM1681.81 153.417C1683.48 151.97 1683.66 149.444 1682.21 147.774C1680.77 146.105 1678.24 145.925 1676.57 147.373L1681.81 153.417ZM1698.76 129.186C1697.02 130.54 1696.7 133.052 1698.05 134.798C1699.4 136.545 1701.92 136.863 1703.66 135.51L1698.76 129.186ZM1704.06 135.202C1705.81 133.85 1706.13 131.338 1704.78 129.59C1703.43 127.843 1700.92 127.522 1699.17 128.873L1704.06 135.202ZM1722.31 111.934C1720.5 113.192 1720.04 115.684 1721.3 117.5C1722.56 119.316 1725.05 119.769 1726.87 118.511L1722.31 111.934ZM1727.28 118.224C1729.1 116.968 1729.55 114.476 1728.3 112.659C1727.04 110.842 1724.55 110.387 1722.73 111.643L1727.28 118.224ZM1746.72 95.94C1744.85 97.1034 1744.27 99.569 1745.43 101.447C1746.59 103.325 1749.06 103.904 1750.94 102.74L1746.72 95.94ZM1751.37 102.475C1753.25 101.313 1753.83 98.8478 1752.67 96.9688C1751.5 95.0899 1749.04 94.5086 1747.16 95.6704L1751.37 102.475ZM1771.9 81.1883C1769.96 82.2586 1769.27 84.6929 1770.34 86.6255C1771.41 88.558 1773.84 89.257 1775.77 88.1867L1771.9 81.1883ZM1776.22 87.9421C1778.15 86.8734 1778.85 84.4397 1777.78 82.5063C1776.71 80.5728 1774.28 79.8718 1772.35 80.9404L1776.22 87.9421ZM1797.74 67.6633C1795.76 68.6415 1794.95 71.0402 1795.93 73.021C1796.91 75.0018 1799.31 75.8145 1801.29 74.8364L1797.74 67.6633ZM1801.74 74.6127C1803.72 73.6361 1804.54 71.2381 1803.56 69.2565C1802.58 67.2749 1800.18 66.4602 1798.2 67.4368L1801.74 74.6127ZM1824.18 55.3506C1822.16 56.2376 1821.24 58.5968 1822.13 60.6201C1823.01 62.6433 1825.37 63.5645 1827.4 62.6775L1824.18 55.3506ZM1827.86 62.4747C1829.88 61.5893 1830.81 59.2308 1829.92 57.2068C1829.04 55.1829 1826.68 54.2599 1824.65 55.1452L1827.86 62.4747ZM1851.15 44.2395C1849.09 45.0358 1848.06 47.3518 1848.86 49.4125C1849.65 51.4731 1851.97 52.498 1854.03 51.7017L1851.15 44.2395ZM1854.5 51.5195C1856.56 50.7248 1857.59 48.4096 1856.8 46.3484C1856 44.2871 1853.69 43.2604 1851.63 44.0551L1854.5 51.5195ZM1878.57 34.3247C1876.48 35.0305 1875.35 37.2996 1876.06 39.393C1876.76 41.4863 1879.03 42.6112 1881.13 41.9054L1878.57 34.3247ZM1881.61 41.7441C1883.7 41.0399 1884.83 38.7716 1884.12 36.6777C1883.42 34.5838 1881.15 33.4572 1879.06 34.1614L1881.61 41.7441ZM1906.4 25.6082C1904.27 26.2229 1903.05 28.4414 1903.67 30.5633C1904.28 32.6852 1906.5 33.907 1908.62 33.2922L1906.4 25.6082ZM1909.11 33.1518C1911.23 32.5386 1912.45 30.3211 1911.84 28.1987C1911.23 26.0764 1909.01 24.8529 1906.89 25.4661L1909.11 33.1518ZM1934.57 18.101C1932.43 18.6234 1931.11 20.787 1931.63 22.9335C1932.15 25.08 1934.32 26.3965 1936.46 25.874L1934.57 18.101ZM1936.95 25.7548C1939.1 25.2339 1940.42 23.0713 1939.9 20.9245C1939.38 18.7776 1937.21 17.4595 1935.07 17.9803L1936.95 25.7548ZM1963.04 11.8249C1960.88 12.253 1959.47 14.3569 1959.89 16.5242C1960.32 18.6915 1962.43 20.1013 1964.59 19.6732L1963.04 11.8249ZM1965.09 19.5758C1967.26 19.1494 1968.67 17.0465 1968.24 14.8789C1967.81 12.7113 1965.71 11.2998 1963.54 11.7262L1965.09 19.5758ZM1991.76 6.81512C1989.58 7.1456 1988.07 9.18423 1988.4 11.3685C1988.74 13.5528 1990.77 15.0556 1992.96 14.7251L1991.76 6.81512ZM1993.46 14.6501C1995.64 14.3214 1997.14 12.2839 1996.82 10.0994C1996.49 7.91485 1994.45 6.41043 1992.26 6.73918L1993.46 14.6501ZM2020.67 3.12297C2018.47 3.35128 2016.88 5.31763 2017.11 7.51494C2017.33 9.71225 2019.3 11.3084 2021.5 11.0801L2020.67 3.12297ZM2021.99 11.0286C2024.19 10.8021 2025.79 8.83712 2025.56 6.63962C2025.34 4.44212 2023.37 2.84429 2021.17 3.07077L2021.99 11.0286ZM2049.78 0.815846C2047.57 0.935409 2045.88 2.82057 2046 5.02647C2046.12 7.23237 2048 8.92368 2050.21 8.80412L2049.78 0.815846ZM2050.72 8.77678C2052.92 8.65921 2054.62 6.77558 2054.5 4.56957C2054.38 2.36356 2052.5 0.67055 2050.29 0.788119L2050.72 8.77678ZM2078.99 0.000226816C2076.79 0.00226637 2075 1.79478 2075 4.00392C2075 6.21306 2076.79 8.00226 2079 8.00022L2078.99 0.000226816ZM2079.51 8C2081.72 8.00013 2083.51 6.20937 2083.51 4.00023C2083.51 1.79109 2081.72 0.000127443 2079.51 3.58148e-06L2079.51 8ZM2108.21 0.812933C2106 0.685815 2104.11 2.37066 2103.99 4.57614C2103.86 6.78162 2105.54 8.67256 2107.75 8.79968L2108.21 0.812933ZM2108.25 8.82889C2110.46 8.9584 2112.35 7.2756 2112.48 5.07026C2112.61 2.86492 2110.93 0.972155 2108.72 0.84265L2108.25 8.82889ZM2137.29 3.42996C2135.1 3.15818 2133.1 4.71511 2132.83 6.90747C2132.56 9.09983 2134.12 11.0974 2136.31 11.3692L2137.29 3.42996ZM2136.8 11.4307C2138.99 11.7051 2140.99 10.1507 2141.27 7.95863C2141.54 5.76661 2139.99 3.76713 2137.8 3.49267L2136.8 11.4307ZM2166.22 8.11141C2164.05 7.67339 2161.94 9.07361 2161.5 11.2389C2161.07 13.4042 2162.47 15.5146 2164.63 15.9526L2166.22 8.11141ZM2165.13 16.0537C2167.29 16.4949 2169.41 15.0978 2169.85 12.9332C2170.29 10.7685 2168.89 8.65608 2166.73 8.21488L2165.13 16.0537ZM2194.72 15.1968C2192.6 14.5638 2190.37 15.7664 2189.74 17.8829C2189.11 19.9994 2190.31 22.2284 2192.43 22.8614L2194.72 15.1968ZM2192.9 23.0046C2195.02 23.6414 2197.25 22.4426 2197.89 20.3272C2198.52 18.2119 2197.32 15.9808 2195.21 15.3441L2192.9 23.0046ZM2222.36 25.115C2220.33 24.2498 2217.98 25.1962 2217.12 27.2289C2216.25 29.2616 2217.2 31.6108 2219.23 32.476L2222.36 25.115ZM2219.7 32.6751C2221.73 33.5449 2224.08 32.6037 2224.95 30.573C2225.82 28.5422 2224.88 26.191 2222.85 25.3212L2219.7 32.6751ZM2248.7 38.5156C2246.81 37.3711 2244.35 37.975 2243.21 39.8645C2242.07 41.7541 2242.67 44.2137 2244.56 45.3582L2248.7 38.5156ZM2244.98 45.6135C2246.87 46.7634 2249.33 46.1663 2250.48 44.28C2251.63 42.3937 2251.03 39.9324 2249.14 38.7826L2244.98 45.6135ZM2272.65 56.0619C2271 54.5924 2268.47 54.7382 2267 56.3877C2265.53 58.0372 2265.67 60.5656 2267.32 62.0352L2272.65 56.0619ZM2267.69 62.3645C2269.34 63.84 2271.87 63.7033 2273.34 62.0592C2274.82 60.4151 2274.68 57.8861 2273.04 56.4106L2267.69 62.3645ZM2292.56 78.2376C2291.29 76.4308 2288.79 75.9964 2286.99 77.2674C2285.18 78.5384 2284.74 81.0336 2286.02 82.8404L2292.56 78.2376ZM2286.3 83.2433C2287.56 85.0558 2290.05 85.5012 2291.87 84.2382C2293.68 82.9752 2294.12 80.482 2292.86 78.6695L2286.3 83.2433ZM2306.45 104.743C2305.69 102.668 2303.4 101.599 2301.32 102.357C2299.25 103.114 2298.18 105.41 2298.94 107.485L2306.45 104.743ZM2299.1 107.943C2299.85 110.022 2302.14 111.101 2304.22 110.353C2306.3 109.606 2307.38 107.314 2306.63 105.236L2299.1 107.943ZM2312.96 133.998C2312.76 131.799 2310.81 130.181 2308.61 130.385C2306.41 130.588 2304.79 132.537 2304.99 134.737L2312.96 133.998ZM2305.04 135.221C2305.23 137.422 2307.17 139.049 2309.37 138.855C2311.57 138.662 2313.2 136.721 2313.01 134.52L2305.04 135.221ZM2311.58 162.891C2311.98 160.719 2310.55 158.632 2308.37 158.229C2306.2 157.827 2304.11 159.262 2303.71 161.434L2311.58 162.891ZM2303.62 161.898C2303.21 164.068 2304.64 166.162 2306.81 166.574C2308.98 166.986 2311.07 165.561 2311.48 163.39L2303.62 161.898ZM2303.02 190.352C2303.9 188.328 2302.98 185.97 2300.96 185.085C2298.93 184.199 2296.57 185.122 2295.69 187.146L2303.02 190.352ZM2295.5 187.578C2294.61 189.599 2295.52 191.961 2297.54 192.853C2299.56 193.746 2301.92 192.831 2302.82 190.81L2295.5 187.578ZM2289.21 215.354C2290.44 213.517 2289.94 211.033 2288.11 209.805C2286.27 208.578 2283.78 209.071 2282.56 210.908L2289.21 215.354ZM2282.29 211.305C2281.06 213.138 2281.54 215.623 2283.38 216.856C2285.21 218.089 2287.7 217.602 2288.93 215.769L2282.29 211.305ZM2271.77 237.805C2273.23 236.153 2273.08 233.625 2271.43 232.158C2269.78 230.691 2267.25 230.841 2265.79 232.493L2271.77 237.805ZM2265.47 232.852C2264 234.501 2264.14 237.029 2265.79 238.5C2267.44 239.97 2269.97 239.826 2271.44 238.177L2265.47 232.852ZM2251.79 257.891C2253.43 256.409 2253.55 253.88 2252.07 252.241C2250.59 250.602 2248.06 250.475 2246.42 251.956L2251.79 257.891ZM2246.06 252.279C2244.42 253.758 2244.29 256.287 2245.77 257.928C2247.25 259.57 2249.78 259.702 2251.42 258.223L2246.06 252.279ZM2229.95 275.845C2231.72 274.519 2232.08 272.012 2230.75 270.245C2229.42 268.478 2226.92 268.12 2225.15 269.446L2229.95 275.845ZM2224.76 269.734C2222.99 271.058 2222.63 273.564 2223.96 275.333C2225.28 277.102 2227.79 277.464 2229.56 276.141L2224.76 269.734ZM2206.71 291.85C2208.58 290.669 2209.13 288.198 2207.95 286.331C2206.77 284.464 2204.3 283.908 2202.43 285.089L2206.71 291.85ZM2202.02 285.349C2200.15 286.528 2199.6 288.998 2200.77 290.866C2201.95 292.735 2204.42 293.294 2206.29 292.115L2202.02 285.349ZM2182.36 306.039C2184.31 304.996 2185.04 302.571 2184 300.624C2182.95 298.677 2180.53 297.945 2178.58 298.989L2182.36 306.039ZM2178.15 299.218C2176.21 300.259 2175.47 302.683 2176.51 304.631C2177.55 306.579 2179.98 307.314 2181.93 306.273L2178.15 299.218ZM2157.09 318.503C2159.1 317.593 2160 315.223 2159.09 313.21C2158.17 311.197 2155.81 310.303 2153.79 311.213L2157.09 318.503ZM2153.35 311.413C2151.34 312.32 2150.44 314.689 2151.35 316.703C2152.26 318.717 2154.62 319.614 2156.64 318.706L2153.35 311.413ZM2131.07 329.257C2133.14 328.48 2134.18 326.174 2133.41 324.106C2132.63 322.038 2130.32 320.991 2128.25 321.768L2131.07 329.257ZM2127.8 321.938C2125.73 322.713 2124.68 325.018 2125.46 327.087C2126.23 329.156 2128.54 330.205 2130.6 329.431L2127.8 321.938ZM2104.39 338.299C2106.51 337.658 2107.7 335.425 2107.06 333.311C2106.42 331.196 2104.19 330.002 2102.07 330.642L2104.39 338.299ZM2101.59 330.788C2099.48 331.429 2098.28 333.663 2098.93 335.777C2099.57 337.891 2101.8 339.085 2103.91 338.444L2101.59 330.788ZM2077.11 347.966C2079.15 347.131 2080.13 344.796 2079.3 342.75C2078.46 340.705 2076.13 339.724 2074.08 340.56L2077.11 347.966ZM2073.6 340.757C2071.56 341.595 2070.58 343.932 2071.42 345.976C2072.26 348.02 2074.6 348.997 2076.64 348.158L2073.6 340.757ZM2050.84 360.153C2052.8 359.131 2053.56 356.714 2052.54 354.756C2051.51 352.798 2049.1 352.039 2047.14 353.062L2050.84 360.153ZM2046.68 353.304C2044.72 354.329 2043.97 356.747 2044.99 358.704C2046.02 360.66 2048.43 361.415 2050.39 360.389L2046.68 353.304ZM2025.86 374.75C2027.71 373.545 2028.23 371.067 2027.03 369.216C2025.82 367.364 2023.34 366.841 2021.49 368.046L2025.86 374.75ZM2021.05 368.332C2019.2 369.541 2018.68 372.019 2019.89 373.869C2021.1 375.718 2023.58 376.238 2025.43 375.029L2021.05 368.332ZM2002.45 391.735C2004.17 390.345 2004.44 387.827 2003.05 386.109C2001.66 384.392 1999.14 384.126 1997.42 385.516L2002.45 391.735ZM1997.02 385.843C1995.3 387.236 1995.04 389.755 1996.43 391.469C1997.83 393.184 2000.35 393.445 2002.06 392.052L1997.02 385.843ZM1981.1 411.14C1982.64 409.558 1982.61 407.025 1981.03 405.483C1979.44 403.941 1976.91 403.974 1975.37 405.556L1981.1 411.14ZM1975.01 405.929C1973.47 407.514 1973.51 410.046 1975.09 411.585C1976.68 413.123 1979.21 413.085 1980.75 411.5L1975.01 405.929ZM1962.52 433.05C1963.82 431.263 1963.42 428.761 1961.63 427.463C1959.85 426.164 1957.34 426.56 1956.05 428.347L1962.52 433.05ZM1955.73 428.778C1954.44 430.569 1954.84 433.069 1956.63 434.363C1958.43 435.656 1960.93 435.253 1962.22 433.462L1955.73 428.778ZM1947.88 457.571C1948.81 455.57 1947.95 453.189 1945.95 452.252C1943.95 451.315 1941.57 452.178 1940.63 454.178L1947.88 457.571ZM1940.41 454.659C1939.48 456.664 1940.35 459.042 1942.36 459.971C1944.36 460.9 1946.74 460.028 1947.67 458.024L1940.41 454.659ZM1939.19 484.382C1939.57 482.206 1938.12 480.134 1935.94 479.754C1933.77 479.374 1931.69 480.83 1931.31 483.006L1939.19 484.382ZM1931.22 483.538C1930.85 485.716 1932.32 487.781 1934.5 488.149C1936.68 488.517 1938.74 487.049 1939.11 484.871L1931.22 483.538ZM1939.13 512.152C1938.73 509.979 1936.65 508.542 1934.48 508.942C1932.3 509.342 1930.87 511.427 1931.27 513.6L1939.13 512.152ZM1931.37 514.131C1931.78 516.301 1933.88 517.724 1936.05 517.31C1938.21 516.895 1939.64 514.8 1939.22 512.63L1931.37 514.131ZM1949.25 537.904C1948.08 536.032 1945.61 535.466 1943.74 536.639C1941.86 537.812 1941.3 540.28 1942.47 542.152L1949.25 537.904ZM1942.76 542.612C1943.95 544.475 1946.42 545.022 1948.28 543.835C1950.15 542.647 1950.7 540.174 1949.51 538.311L1942.76 542.612ZM1968.19 555.252C1966.23 554.228 1963.82 554.985 1962.79 556.943C1961.77 558.9 1962.53 561.317 1964.49 562.341L1968.19 555.252ZM1964.95 562.583C1966.92 563.591 1969.33 562.814 1970.34 560.848C1971.35 558.883 1970.57 556.472 1968.6 555.464L1964.95 562.583ZM1993.7 562.788C1991.51 562.499 1989.5 564.04 1989.21 566.23C1988.92 568.42 1990.46 570.43 1992.65 570.719L1993.7 562.788ZM1993.15 570.783C1995.34 571.063 1997.34 569.513 1997.62 567.321C1997.9 565.13 1996.35 563.127 1994.16 562.847L1993.15 570.783ZM2021 563.563C2018.79 563.685 2017.1 565.572 2017.22 567.778C2017.35 569.984 2019.23 571.673 2021.44 571.551L2021 563.563ZM2021.95 571.522C2024.16 571.395 2025.84 569.504 2025.71 567.298C2025.59 565.093 2023.7 563.408 2021.49 563.536L2021.95 571.522ZM2048.45 560.432C2046.27 560.79 2044.79 562.848 2045.15 565.028C2045.51 567.208 2047.57 568.684 2049.75 568.326L2048.45 560.432ZM2050.24 568.244C2052.42 567.883 2053.89 565.823 2053.53 563.644C2053.17 561.464 2051.11 559.991 2048.93 560.352L2050.24 568.244ZM2075.76 554.909C2073.61 555.415 2072.28 557.569 2072.78 559.719C2073.29 561.87 2075.44 563.202 2077.59 562.696L2075.76 554.909ZM2078.08 562.581C2080.23 562.073 2081.56 559.918 2081.05 557.768C2080.54 555.618 2078.39 554.288 2076.24 554.796L2078.08 562.581ZM2102.76 547.851C2100.63 548.455 2099.4 550.668 2100 552.793C2100.61 554.917 2102.82 556.15 2104.95 555.545L2102.76 547.851ZM2105.42 555.41C2107.55 554.804 2108.78 552.591 2108.17 550.466C2107.57 548.342 2105.35 547.111 2103.23 547.717L2105.42 555.41ZM2129.54 539.747C2127.44 540.417 2126.27 542.667 2126.95 544.772C2127.62 546.877 2129.87 548.04 2131.97 547.369L2129.54 539.747ZM2132.44 547.219C2134.55 546.547 2135.71 544.297 2135.04 542.192C2134.37 540.088 2132.12 538.926 2130.01 539.597L2132.44 547.219ZM2156.15 530.945C2154.06 531.658 2152.95 533.931 2153.66 536.022C2154.37 538.113 2156.65 539.229 2158.74 538.516L2156.15 530.945ZM2159.2 538.357C2161.29 537.642 2162.41 535.369 2161.7 533.278C2160.98 531.188 2158.71 530.072 2156.62 530.786L2159.2 538.357ZM2182.65 521.716C2180.57 522.453 2179.48 524.738 2180.21 526.821C2180.95 528.904 2183.23 529.995 2185.32 529.259L2182.65 521.716ZM2185.79 529.093C2187.87 528.356 2188.96 526.071 2188.22 523.988C2187.49 521.905 2185.2 520.814 2183.12 521.551L2185.79 529.093ZM2209.16 512.303C2207.08 513.041 2205.99 515.327 2206.73 517.409C2207.46 519.492 2209.75 520.581 2211.83 519.843L2209.16 512.303ZM2212.3 519.679C2214.38 518.941 2215.47 516.655 2214.73 514.572C2213.99 512.49 2211.71 511.4 2209.63 512.138L2212.3 519.679ZM2235.72 503.051C2233.62 503.76 2232.5 506.031 2233.21 508.123C2233.92 510.216 2236.19 511.337 2238.28 510.628L2235.72 503.051ZM2238.76 510.467C2240.85 509.759 2241.97 507.489 2241.27 505.396C2240.56 503.303 2238.29 502.181 2236.2 502.889L2238.76 510.467ZM2262.65 494.464C2260.53 495.08 2259.31 497.3 2259.93 499.421C2260.55 501.542 2262.77 502.762 2264.89 502.146L2262.65 494.464ZM2265.34 502.013C2267.46 501.397 2268.68 499.177 2268.07 497.056C2267.45 494.934 2265.23 493.715 2263.11 494.332L2265.34 502.013ZM2289.45 485.786C2287.36 486.513 2286.26 488.794 2286.99 490.88C2287.71 492.966 2289.99 494.068 2292.08 493.341L2289.45 485.786ZM2292.57 493.172C2294.65 492.444 2295.75 490.163 2295.02 488.077C2294.3 485.991 2292.02 484.891 2289.93 485.619L2292.57 493.172ZM2316.19 476.095C2314.12 476.868 2313.07 479.173 2313.84 481.242C2314.61 483.312 2316.92 484.363 2318.99 483.59L2316.19 476.095ZM2319.45 483.419C2321.52 482.645 2322.57 480.34 2321.79 478.271C2321.02 476.202 2318.71 475.151 2316.65 475.925L2319.45 483.419ZM2342.75 465.98C2340.69 466.777 2339.67 469.093 2340.47 471.154C2341.26 473.214 2343.58 474.238 2345.64 473.442L2342.75 465.98ZM2346.1 473.264C2348.16 472.467 2349.18 470.151 2348.39 468.09C2347.59 466.03 2345.27 465.006 2343.21 465.803L2346.1 473.264ZM2369.24 455.629C2367.19 456.439 2366.18 458.762 2366.99 460.817C2367.8 462.872 2370.12 463.882 2372.17 463.072L2369.24 455.629ZM2372.65 462.886C2374.7 462.076 2375.71 459.753 2374.9 457.698C2374.09 455.642 2371.77 454.633 2369.71 455.443L2372.65 462.886ZM2395.67 445.154C2393.62 445.971 2392.62 448.297 2393.44 450.349C2394.25 452.402 2396.58 453.404 2398.63 452.587L2395.67 445.154ZM2399.1 452.401C2401.15 451.584 2402.15 449.258 2401.33 447.206C2400.52 445.153 2398.19 444.152 2396.14 444.969L2399.1 452.401ZM2422.13 434.603C2420.08 435.422 2419.08 437.749 2419.9 439.801C2420.72 441.852 2423.04 442.851 2425.1 442.032L2422.13 434.603ZM2425.56 441.847C2427.61 441.028 2428.61 438.701 2427.79 436.649C2426.97 434.598 2424.64 433.599 2422.59 434.418L2425.56 441.847ZM2448.59 424.039C2446.54 424.857 2445.54 427.184 2446.36 429.236C2447.18 431.288 2449.5 432.288 2451.56 431.47L2448.59 424.039ZM2452.02 431.284C2454.08 430.466 2455.08 428.14 2454.26 426.088C2453.44 424.035 2451.11 423.035 2449.06 423.853L2452.02 431.284ZM2475.05 413.518C2473 414.332 2472 416.656 2472.81 418.71C2473.62 420.764 2475.95 421.769 2478 420.955L2475.05 413.518ZM2478.47 420.771C2480.52 419.957 2481.53 417.633 2480.71 415.579C2479.9 413.525 2477.57 412.52 2475.52 413.334L2478.47 420.771ZM2501.56 403.063C2499.51 403.87 2498.49 406.191 2499.3 408.248C2500.11 410.304 2502.43 411.318 2504.48 410.511L2501.56 403.063ZM2504.95 410.329C2507.01 409.522 2508.02 407.201 2507.21 405.144C2506.41 403.088 2504.09 402.074 2502.03 402.881L2504.95 410.329ZM2528.12 392.722C2526.06 393.517 2525.04 395.833 2525.83 397.894C2526.63 399.955 2528.94 400.98 2531 400.184L2528.12 392.722ZM2531.47 400.005C2533.53 399.209 2534.56 396.893 2533.76 394.832C2532.96 392.771 2530.65 391.746 2528.59 392.542L2531.47 400.005ZM2554.75 382.538C2552.69 383.319 2551.64 385.628 2552.43 387.694C2553.21 389.76 2555.52 390.802 2557.58 390.021L2554.75 382.538ZM2558.05 389.844C2560.12 389.062 2561.16 386.754 2560.38 384.688C2559.6 382.621 2557.29 381.579 2555.22 382.36L2558.05 389.844ZM2581.44 372.579C2579.37 373.341 2578.31 375.64 2579.07 377.713C2579.83 379.787 2582.13 380.85 2584.2 380.088L2581.44 372.579ZM2584.67 379.918C2586.74 379.156 2587.81 376.858 2587.04 374.784C2586.28 372.71 2583.98 371.647 2581.91 372.408L2584.67 379.918ZM2608.31 362.888C2606.23 363.624 2605.14 365.909 2605.87 367.992C2606.61 370.075 2608.9 371.167 2610.98 370.432L2608.31 362.888ZM2611.45 370.267C2613.53 369.531 2614.62 367.247 2613.89 365.163C2613.15 363.08 2610.87 361.987 2608.78 362.722L2611.45 370.267ZM2635.32 353.6C2633.23 354.299 2632.09 356.565 2632.79 358.661C2633.49 360.756 2635.76 361.888 2637.85 361.189L2635.32 353.6ZM2638.33 361.031C2640.42 360.333 2641.55 358.068 2640.86 355.972C2640.16 353.876 2637.89 352.743 2635.8 353.442L2638.33 361.031ZM2662.54 344.876C2660.42 345.522 2659.24 347.758 2659.88 349.871C2660.53 351.983 2662.76 353.172 2664.88 352.527L2662.54 344.876ZM2665.35 352.38C2667.47 351.736 2668.66 349.5 2668.01 347.387C2667.37 345.274 2665.13 344.084 2663.02 344.729L2665.35 352.38ZM2690.09 337.004C2687.95 337.565 2686.67 339.752 2687.23 341.888C2687.79 344.025 2689.98 345.303 2692.12 344.743L2690.09 337.004ZM2692.59 344.617C2694.73 344.059 2696.01 341.873 2695.45 339.736C2694.9 337.599 2692.71 336.319 2690.57 336.877L2692.59 344.617ZM2718.04 330.65C2715.87 331.048 2714.43 333.132 2714.83 335.305C2715.23 337.478 2717.31 338.917 2719.49 338.519L2718.04 330.65ZM2719.96 338.432C2722.14 338.039 2723.58 335.958 2723.19 333.784C2722.79 331.61 2720.71 330.167 2718.54 330.56L2719.96 338.432ZM2746.56 327.922C2744.35 327.923 2742.56 329.715 2742.56 331.924C2742.56 334.133 2744.36 335.923 2746.57 335.922L2746.56 327.922ZM2747.04 335.923C2749.25 335.93 2751.04 334.145 2751.05 331.936C2751.06 329.727 2749.27 327.93 2747.06 327.923L2747.04 335.923ZM2774.94 331.085C2772.78 330.583 2770.63 331.919 2770.13 334.071C2769.63 336.222 2770.96 338.373 2773.12 338.876L2774.94 331.085ZM2773.58 338.985C2775.73 339.497 2777.88 338.17 2778.4 336.021C2778.91 333.872 2777.58 331.714 2775.43 331.202L2773.58 338.985ZM2801.82 341.081C2799.86 340.057 2797.45 340.814 2796.42 342.771C2795.4 344.729 2796.15 347.146 2798.11 348.17L2801.82 341.081ZM2798.53 348.389C2800.48 349.422 2802.9 348.676 2803.94 346.723C2804.97 344.77 2804.22 342.35 2802.27 341.317L2798.53 348.389ZM2825.48 357.209C2823.8 355.774 2821.27 355.974 2819.84 357.654C2818.4 359.334 2818.6 361.859 2820.28 363.293L2825.48 357.209ZM2820.64 363.599C2822.32 365.039 2824.84 364.849 2826.28 363.174C2827.72 361.498 2827.53 358.973 2825.86 357.533L2820.64 363.599ZM2845.37 377.501C2843.95 375.806 2841.43 375.581 2839.74 376.999C2838.04 378.416 2837.82 380.938 2839.24 382.633L2845.37 377.501ZM2839.54 383.003C2840.96 384.701 2843.48 384.932 2845.18 383.518C2846.87 382.105 2847.11 379.583 2845.69 377.885L2839.54 383.003ZM2862.13 400.199C2860.91 398.355 2858.43 397.847 2856.59 399.064C2854.74 400.281 2854.24 402.762 2855.45 404.606L2862.13 400.199ZM2855.72 405.009C2856.93 406.855 2859.41 407.367 2861.26 406.153C2863.1 404.939 2863.62 402.458 2862.4 400.613L2855.72 405.009ZM2876.69 424.201C2875.6 422.277 2873.16 421.596 2871.24 422.68C2869.31 423.765 2868.63 426.204 2869.72 428.129L2876.69 424.201ZM2869.95 428.551C2871.04 430.476 2873.48 431.159 2875.4 430.077C2877.33 428.994 2878.01 426.555 2876.93 424.629L2869.95 428.551ZM2889.9 448.825C2888.89 446.863 2886.48 446.095 2884.51 447.11C2882.55 448.125 2881.78 450.538 2882.8 452.5L2889.9 448.825ZM2883.02 452.933C2884.04 454.895 2886.45 455.664 2888.41 454.65C2890.37 453.636 2891.14 451.222 2890.13 449.26L2883.02 452.933ZM2902.55 473.575C2901.55 471.609 2899.14 470.83 2897.17 471.836C2895.2 472.843 2894.43 475.253 2895.43 477.219L2902.55 473.575ZM2895.66 477.658C2896.66 479.625 2899.07 480.403 2901.04 479.396C2903.01 478.389 2903.78 475.979 2902.78 474.012L2895.66 477.658ZM2915.46 498.059C2914.39 496.124 2911.96 495.421 2910.03 496.488C2908.09 497.555 2907.39 499.988 2908.46 501.923L2915.46 498.059ZM2908.69 502.348C2909.76 504.281 2912.19 504.982 2914.13 503.913C2916.06 502.844 2916.76 500.411 2915.69 498.477L2908.69 502.348ZM2929.57 521.625C2928.35 519.784 2925.87 519.282 2924.03 520.503C2922.19 521.725 2921.69 524.207 2922.91 526.048L2929.57 521.625ZM2923.18 526.454C2924.4 528.293 2926.89 528.79 2928.72 527.565C2930.56 526.34 2931.06 523.856 2929.83 522.018L2923.18 526.454ZM2946.16 542.985C2944.65 541.376 2942.12 541.299 2940.51 542.813C2938.9 544.327 2938.82 546.858 2940.34 548.467L2946.16 542.985ZM2940.68 548.831C2942.2 550.433 2944.73 550.5 2946.34 548.98C2947.94 547.459 2948 544.928 2946.48 543.325L2940.68 548.831ZM2966.86 559.393C2964.91 558.347 2962.48 559.077 2961.44 561.024C2960.39 562.97 2961.12 565.395 2963.07 566.44L2966.86 559.393ZM2963.53 566.683C2965.48 567.715 2967.9 566.967 2968.93 565.013C2969.96 563.059 2969.21 560.64 2967.26 559.608L2963.53 566.683ZM2991.65 566.295C2989.45 566.191 2987.58 567.896 2987.47 570.103C2987.37 572.309 2989.07 574.182 2991.28 574.286L2991.65 566.295ZM2991.81 574.308C2994.02 574.395 2995.87 572.676 2995.96 570.468C2996.05 568.261 2994.33 566.401 2992.12 566.315L2991.81 574.308ZM3017.68 562.578C3015.57 563.232 3014.39 565.473 3015.04 567.583C3015.7 569.693 3017.94 570.873 3020.05 570.219L3017.68 562.578ZM3020.56 570.06C3022.66 569.395 3023.83 567.149 3023.17 565.042C3022.5 562.935 3020.26 561.766 3018.15 562.43L3020.56 570.06ZM3042.18 551.925C3040.25 552.985 3039.53 555.415 3040.59 557.354C3041.65 559.292 3044.09 560.004 3046.02 558.944L3042.18 551.925ZM3046.47 558.701C3048.4 557.635 3049.11 555.203 3048.04 553.268C3046.98 551.332 3044.54 550.627 3042.61 551.692L3046.47 558.701ZM3065.46 537.148C3063.66 538.433 3063.25 540.932 3064.54 542.728C3065.82 544.525 3068.32 544.94 3070.12 543.654L3065.46 537.148ZM3070.1 543.662C3072.05 542.617 3072.78 540.192 3071.73 538.245C3070.69 536.299 3068.26 535.568 3066.32 536.613L3070.1 543.662ZM3090.31 523.717C3088.37 524.76 3087.63 527.184 3088.67 529.131C3089.72 531.079 3092.14 531.813 3094.09 530.77L3090.31 523.717ZM3094.52 530.539C3096.47 529.496 3097.2 527.072 3096.16 525.125C3095.12 523.177 3092.7 522.443 3090.75 523.485L3094.52 530.539ZM3114.94 510.682C3112.98 511.705 3112.22 514.121 3113.24 516.08C3114.27 518.038 3116.68 518.796 3118.64 517.774L3114.94 510.682ZM3119.07 517.552C3121.02 516.53 3121.78 514.114 3120.76 512.156C3119.74 510.197 3117.32 509.438 3115.36 510.46L3119.07 517.552ZM3139.68 497.99C3137.71 498.982 3136.91 501.387 3137.91 503.361C3138.9 505.334 3141.3 506.129 3143.28 505.136L3139.68 497.99ZM3143.71 504.92C3145.68 503.927 3146.48 501.523 3145.49 499.549C3144.49 497.575 3142.09 496.78 3140.12 497.772L3143.71 504.92ZM3164.67 485.697C3162.68 486.654 3161.84 489.043 3162.8 491.035C3163.75 493.026 3166.14 493.865 3168.14 492.908L3164.67 485.697ZM3168.57 492.699C3170.56 491.743 3171.4 489.354 3170.45 487.362C3169.49 485.37 3167.1 484.531 3165.11 485.487L3168.57 492.699ZM3189.91 473.887C3187.9 474.802 3187.01 477.174 3187.93 479.184C3188.84 481.195 3191.22 482.083 3193.23 481.168L3189.91 473.887ZM3193.67 480.968C3195.68 480.054 3196.57 477.682 3195.65 475.671C3194.74 473.66 3192.37 472.771 3190.36 473.685L3193.67 480.968ZM3215.42 462.619C3213.39 463.489 3212.45 465.84 3213.32 467.871C3214.19 469.901 3216.54 470.843 3218.57 469.974L3215.42 462.619ZM3219.01 469.784C3221.04 468.916 3221.99 466.565 3221.12 464.534C3220.25 462.502 3217.9 461.56 3215.87 462.428L3219.01 469.784ZM3241.17 451.962C3239.12 452.782 3238.12 455.11 3238.94 457.161C3239.76 459.212 3242.09 460.211 3244.14 459.392L3241.17 451.962ZM3244.59 459.21C3246.64 458.392 3247.64 456.065 3246.82 454.013C3246 451.961 3243.68 450.961 3241.63 451.78L3244.59 459.21ZM3267.18 441.958C3265.1 442.724 3264.05 445.025 3264.81 447.097C3265.58 449.169 3267.88 450.228 3269.95 449.462L3267.18 441.958ZM3270.41 449.293C3272.48 448.528 3273.54 446.228 3272.77 444.156C3272.01 442.083 3269.71 441.023 3267.64 441.788L3270.41 449.293ZM3293.47 432.644C3291.38 433.353 3290.26 435.623 3290.96 437.716C3291.67 439.808 3293.94 440.93 3296.04 440.221L3293.47 432.644ZM3296.49 440.066C3298.59 439.359 3299.71 437.089 3299 434.996C3298.3 432.903 3296.03 431.78 3293.93 432.488L3296.49 440.066ZM3320.03 424.076C3317.91 424.724 3316.73 426.961 3317.37 429.073C3318.02 431.185 3320.26 432.372 3322.37 431.725L3320.03 424.076ZM3322.84 431.582C3324.95 430.936 3326.14 428.7 3325.49 426.587C3324.85 424.475 3322.61 423.286 3320.5 423.932L3322.84 431.582ZM3346.81 416.311C3344.67 416.893 3343.42 419.093 3344 421.224C3344.58 423.355 3346.78 424.61 3348.92 424.028L3346.81 416.311ZM3349.38 423.9C3351.51 423.319 3352.77 421.12 3352.19 418.989C3351.61 416.857 3349.41 415.601 3347.28 416.182L3349.38 423.9ZM3373.86 409.379C3371.71 409.892 3370.38 412.051 3370.9 414.199C3371.41 416.348 3373.57 417.673 3375.72 417.159L3373.86 409.379ZM3376.19 417.047C3378.33 416.535 3379.66 414.377 3379.15 412.228C3378.64 410.08 3376.48 408.753 3374.33 409.266L3376.19 417.047ZM3401.09 403.345C3398.92 403.787 3397.53 405.899 3397.97 408.064C3398.41 410.228 3400.52 411.625 3402.69 411.184L3401.09 403.345ZM3403.16 411.087C3405.33 410.647 3406.73 408.535 3406.29 406.371C3405.85 404.206 3403.73 402.807 3401.57 403.247L3403.16 411.087ZM3428.55 398.243C3426.37 398.608 3424.9 400.67 3425.26 402.849C3425.63 405.028 3427.69 406.498 3429.87 406.133L3428.55 398.243ZM3430.35 406.053C3432.52 405.689 3434 403.628 3433.63 401.449C3433.27 399.27 3431.21 397.798 3429.03 398.162L3430.35 406.053ZM3456.15 394.127C3453.96 394.413 3452.42 396.42 3452.7 398.611C3452.99 400.801 3455 402.346 3457.19 402.06L3456.15 394.127ZM3457.67 401.997C3459.86 401.713 3461.4 399.707 3461.12 397.516C3460.83 395.325 3458.83 393.78 3456.64 394.064L3457.67 401.997ZM3483.92 391.035C3481.72 391.238 3480.1 393.185 3480.3 395.385C3480.51 397.585 3482.45 399.204 3484.65 399.001L3483.92 391.035ZM3485.13 398.957C3487.33 398.756 3488.95 396.809 3488.75 394.609C3488.55 392.409 3486.61 390.789 3484.41 390.99L3485.13 398.957ZM3511.76 389.013C3509.56 389.13 3507.86 391.013 3507.98 393.219C3508.1 395.425 3509.98 397.118 3512.18 397.002L3511.76 389.013ZM3512.67 396.976C3514.88 396.861 3516.57 394.979 3516.45 392.773C3516.34 390.567 3514.46 388.872 3512.25 388.987L3512.67 396.976ZM3539.7 388.094C3537.5 388.122 3535.73 389.935 3535.76 392.144C3535.78 394.353 3537.6 396.121 3539.81 396.093L3539.7 388.094ZM3540.29 396.087C3542.5 396.06 3544.27 394.248 3544.24 392.039C3544.22 389.83 3542.41 388.061 3540.2 388.088L3540.29 396.087ZM3567.6 388.239C3565.39 388.188 3563.56 389.937 3563.51 392.146C3563.46 394.355 3565.21 396.186 3567.42 396.236L3567.6 388.239ZM3567.9 396.248C3570.11 396.3 3571.94 394.551 3571.99 392.343C3572.04 390.134 3570.3 388.302 3568.09 388.25L3567.9 396.248ZM3595.43 389.358C3593.22 389.231 3591.33 390.917 3591.2 393.122C3591.08 395.328 3592.76 397.218 3594.97 397.344L3595.43 389.358ZM3595.45 397.372C3597.66 397.5 3599.55 395.816 3599.68 393.61C3599.81 391.405 3598.12 389.514 3595.92 389.386L3595.45 397.372ZM3623.18 391.409C3620.98 391.211 3619.03 392.833 3618.84 395.033C3618.64 397.234 3620.26 399.178 3622.46 399.377L3623.18 391.409ZM3622.94 399.42C3625.14 399.62 3627.09 397.998 3627.29 395.798C3627.49 393.598 3625.86 391.653 3623.66 391.453L3622.94 399.42ZM3650.89 394.343C3648.69 394.077 3646.7 395.639 3646.43 397.833C3646.17 400.026 3647.73 402.019 3649.92 402.285L3650.89 394.343ZM3650.4 402.343C3652.6 402.61 3654.59 401.048 3654.86 398.855C3655.12 396.662 3653.56 394.668 3651.37 394.401L3650.4 402.343ZM3678.47 398.083C3676.28 397.756 3674.25 399.262 3673.92 401.447C3673.59 403.632 3675.1 405.668 3677.29 405.995L3678.47 398.083ZM3677.76 406.066C3679.95 406.394 3681.99 404.889 3682.31 402.704C3682.64 400.519 3681.14 398.483 3678.95 398.155L3677.76 406.066ZM3705.92 402.541C3703.75 402.161 3701.67 403.617 3701.29 405.793C3700.91 407.969 3702.37 410.041 3704.55 410.421L3705.92 402.541ZM3705.03 410.505C3707.2 410.886 3709.27 409.431 3709.66 407.255C3710.04 405.079 3708.58 403.006 3706.4 402.625L3705.03 410.505ZM3733.25 407.612C3731.09 407.188 3728.98 408.601 3728.56 410.769C3728.13 412.937 3729.55 415.039 3731.72 415.463L3733.25 407.612ZM3732.19 415.557C3734.36 415.982 3736.46 414.569 3736.89 412.401C3737.31 410.233 3735.9 408.131 3733.73 407.706L3732.19 415.557ZM3760.47 413.173C3758.31 412.715 3756.19 414.095 3755.73 416.256C3755.27 418.418 3756.65 420.541 3758.81 420.999L3760.47 413.173ZM3759.29 421.1C3761.45 421.559 3763.57 420.179 3764.03 418.018C3764.49 415.857 3763.11 413.733 3760.95 413.275L3759.29 421.1ZM3787.59 419.079C3785.44 418.599 3783.3 419.959 3782.82 422.115C3782.34 424.272 3783.7 426.409 3785.86 426.888L3787.59 419.079ZM3786.33 426.994C3788.49 427.474 3790.63 426.115 3791.11 423.959C3791.59 421.802 3790.23 419.665 3788.07 419.185L3786.33 426.994ZM3814.65 425.16C3812.5 424.673 3810.36 426.026 3809.87 428.181C3809.38 430.336 3810.74 432.477 3812.89 432.963L3814.65 425.16ZM3813.37 433.071C3815.52 433.557 3817.67 432.205 3818.15 430.05C3818.64 427.895 3817.29 425.754 3815.13 425.267L3813.37 433.071ZM3841.69 431.214C3839.53 430.738 3837.4 432.101 3836.92 434.258C3836.45 436.415 3837.81 438.55 3839.97 439.026L3841.69 431.214ZM3840.44 439.131C3842.6 439.606 3844.74 438.243 3845.21 436.086C3845.69 433.928 3844.32 431.794 3842.17 431.319L3840.44 439.131ZM3868.74 436.999C3866.58 436.555 3864.46 437.949 3864.02 440.113C3863.58 442.277 3864.97 444.391 3867.13 444.836L3868.74 436.999ZM3867.61 444.934C3869.78 445.377 3871.89 443.982 3872.33 441.818C3872.78 439.654 3871.38 437.54 3869.22 437.097L3867.61 444.934ZM3895.85 442.224C3893.68 441.837 3891.6 443.286 3891.21 445.461C3890.83 447.636 3892.28 449.713 3894.45 450.1L3895.85 442.224ZM3894.93 450.185C3897.11 450.571 3899.18 449.121 3899.57 446.946C3899.95 444.77 3898.5 442.694 3896.33 442.308L3894.93 450.185ZM3923.06 446.535C3920.87 446.237 3918.85 447.769 3918.55 449.958C3918.25 452.147 3919.79 454.163 3921.98 454.462L3923.06 446.535ZM3922.46 454.528C3924.65 454.825 3926.67 453.291 3926.97 451.102C3927.26 448.913 3925.73 446.898 3923.54 446.601L3922.46 454.528ZM3950.4 449.508C3948.19 449.336 3946.27 450.982 3946.1 453.185C3945.92 455.387 3947.57 457.312 3949.77 457.484L3950.4 449.508ZM3950.26 457.522C3952.47 457.692 3954.39 456.043 3954.56 453.841C3954.73 451.638 3953.08 449.715 3950.88 449.546L3950.26 457.522ZM3977.76 450.634C3975.55 450.632 3973.76 452.421 3973.76 454.631C3973.76 456.84 3975.55 458.632 3977.76 458.634L3977.76 450.634ZM4 589.159C4.07911 589.159 4.15836 589.159 4.23776 589.159L4.22316 581.159C4.1486 581.159 4.07421 581.159 4 581.159V589.159ZM32.1945 587.138C32.363 587.118 32.5317 587.097 32.7008 587.077L31.7392 579.135C31.5732 579.155 31.4075 579.175 31.2422 579.195L32.1945 587.138ZM60.0715 583.088C60.2318 583.061 60.3923 583.035 60.5531 583.008L59.2467 575.116C59.0873 575.142 58.9281 575.168 58.7691 575.194L60.0715 583.088ZM87.8025 578.167C87.9625 578.137 88.1225 578.107 88.2827 578.077L86.8061 570.215C86.6466 570.245 86.4872 570.275 86.328 570.305L87.8025 578.167ZM115.45 572.798C115.608 572.766 115.767 572.735 115.926 572.703L114.358 564.858C114.2 564.89 114.042 564.921 113.884 564.953L115.45 572.798ZM142.957 567.21C143.119 567.176 143.282 567.143 143.445 567.109L141.831 559.274C141.668 559.307 141.506 559.341 141.344 559.374L142.957 567.21ZM170.443 561.511C170.603 561.477 170.763 561.444 170.923 561.411L169.292 553.579C169.132 553.612 168.972 553.645 168.812 553.679L170.443 561.511ZM197.953 555.781C198.115 555.747 198.277 555.714 198.44 555.68L196.812 547.847C196.649 547.881 196.487 547.915 196.325 547.949L197.953 555.781ZM225.415 550.103C225.576 550.07 225.736 550.037 225.896 550.005L224.288 542.168C224.127 542.201 223.967 542.234 223.807 542.267L225.415 550.103ZM252.916 544.515C253.077 544.482 253.239 544.45 253.4 544.417L251.825 536.574C251.664 536.606 251.502 536.639 251.34 536.671L252.916 544.515ZM280.441 539.066C280.602 539.035 280.762 539.004 280.923 538.973L279.394 531.12C279.233 531.151 279.073 531.182 278.912 531.214L280.441 539.066ZM307.975 533.806C308.136 533.776 308.298 533.746 308.459 533.716L306.989 525.852C306.828 525.882 306.666 525.913 306.504 525.943L307.975 533.806ZM335.564 528.771C335.726 528.742 335.888 528.714 336.049 528.685L334.651 520.808C334.489 520.837 334.327 520.866 334.165 520.895L335.564 528.771ZM363.187 524.011C363.349 523.984 363.51 523.957 363.672 523.93L362.358 516.038C362.196 516.065 362.034 516.092 361.872 516.119L363.187 524.011ZM390.857 519.572C391.019 519.547 391.181 519.522 391.343 519.497L390.129 511.59C389.966 511.615 389.804 511.64 389.641 511.665L390.857 519.572ZM418.568 515.511C418.73 515.488 418.892 515.466 419.054 515.444L417.955 507.519C417.793 507.542 417.63 507.564 417.467 507.587L418.568 515.511ZM446.348 511.887C446.511 511.867 446.673 511.848 446.836 511.828L445.873 503.886C445.71 503.906 445.546 503.926 445.382 503.946L446.348 511.887ZM474.17 508.778C474.332 508.761 474.495 508.745 474.657 508.729L473.853 500.769C473.69 500.786 473.526 500.802 473.363 500.819L474.17 508.778ZM502.014 506.274C502.179 506.261 502.343 506.248 502.507 506.235L501.89 498.259C501.725 498.272 501.559 498.285 501.394 498.298L502.014 506.274ZM529.949 504.479C530.112 504.471 530.275 504.463 530.438 504.455L530.044 496.464C529.88 496.472 529.715 496.481 529.551 496.489L529.949 504.479ZM557.822 503.54C557.903 503.539 557.984 503.538 558.064 503.536L557.936 495.537C557.854 495.539 557.772 495.54 557.691 495.541L557.822 503.54ZM558.064 503.536C558.145 503.535 558.226 503.534 558.307 503.532L558.183 495.533C558.1 495.535 558.018 495.536 557.936 495.537L558.064 503.536ZM585.469 503.91C585.631 503.917 585.792 503.924 585.954 503.931L586.301 495.939C586.137 495.931 585.973 495.924 585.809 495.917L585.469 503.91ZM613.072 505.84C613.233 505.855 613.394 505.871 613.555 505.887L614.33 497.924C614.167 497.908 614.003 497.893 613.84 497.877L613.072 505.84ZM640.565 509.169C640.726 509.193 640.886 509.216 641.046 509.239L642.2 501.323C642.037 501.299 641.875 501.276 641.713 501.252L640.565 509.169ZM667.905 513.733C668.065 513.763 668.224 513.793 668.383 513.823L669.867 505.962C669.706 505.931 669.545 505.901 669.384 505.871L667.905 513.733ZM695.07 519.366C695.228 519.402 695.386 519.438 695.545 519.473L697.312 511.671C697.152 511.635 696.992 511.599 696.832 511.562L695.07 519.366ZM722.054 525.907C722.211 525.948 722.368 525.989 722.526 526.029L724.529 518.284C724.37 518.243 724.212 518.202 724.053 518.161L722.054 525.907ZM748.867 533.2C749.023 533.245 749.18 533.29 749.336 533.334L751.532 525.641C751.374 525.596 751.217 525.552 751.059 525.507L748.867 533.2ZM775.532 541.093C775.688 541.141 775.844 541.188 776 541.236L778.343 533.587C778.187 533.539 778.03 533.491 777.873 533.443L775.532 541.093ZM802.083 549.434C802.239 549.484 802.394 549.534 802.55 549.584L804.998 541.968C804.842 541.918 804.686 541.868 804.53 541.818L802.083 549.434ZM828.565 558.072C828.72 558.123 828.876 558.174 829.031 558.226L831.539 550.629C831.383 550.577 831.227 550.526 831.072 550.475L828.565 558.072ZM855.03 566.845C855.185 566.897 855.341 566.948 855.497 567L858.016 559.407C857.86 559.355 857.705 559.304 857.549 559.252L855.03 566.845ZM881.542 575.578C881.698 575.629 881.854 575.68 882.01 575.731L884.486 568.124C884.33 568.073 884.175 568.022 884.019 567.972L881.542 575.578ZM908.172 584.07C908.329 584.118 908.486 584.167 908.642 584.216L911.012 576.574C910.856 576.526 910.7 576.478 910.543 576.429L908.172 584.07ZM934.996 592.073C935.154 592.117 935.312 592.162 935.47 592.207L937.654 584.511C937.497 584.467 937.341 584.422 937.184 584.378L934.996 592.073ZM962.092 599.274C962.251 599.313 962.41 599.352 962.569 599.39L964.465 591.618C964.309 591.58 964.152 591.542 963.995 591.503L962.092 599.274ZM989.522 605.256C989.602 605.272 989.682 605.287 989.762 605.302L991.238 597.439C991.16 597.424 991.081 597.41 991.002 597.395L989.522 605.256ZM989.762 605.302C989.847 605.318 989.932 605.334 990.016 605.349L991.493 597.487C991.408 597.471 991.323 597.455 991.238 597.439L989.762 605.302ZM1018.49 610.669C1018.66 610.7 1018.83 610.731 1019 610.762L1020.43 602.89C1020.26 602.859 1020.09 602.829 1019.92 602.798L1018.49 610.669ZM1047.66 615.549C1047.84 615.574 1048.01 615.6 1048.18 615.625L1049.35 607.711C1049.18 607.686 1049.01 607.661 1048.84 607.636L1047.66 615.549ZM1077.11 619.154C1077.29 619.171 1077.46 619.187 1077.63 619.202L1078.36 611.236C1078.19 611.22 1078.02 611.205 1077.85 611.189L1077.11 619.154ZM1106.8 620.897C1106.97 620.901 1107.15 620.905 1107.32 620.909L1107.49 612.91C1107.32 612.907 1107.15 612.903 1106.98 612.899L1106.8 620.897ZM1136.53 620.452C1136.7 620.443 1136.88 620.434 1137.05 620.424L1136.62 612.436C1136.45 612.445 1136.28 612.454 1136.11 612.463L1136.53 620.452ZM1166.15 617.779C1166.32 617.757 1166.49 617.735 1166.66 617.713L1165.65 609.778C1165.48 609.8 1165.31 609.821 1165.14 609.843L1166.15 617.779ZM1195.48 613.038C1195.65 613.005 1195.82 612.971 1195.99 612.938L1194.45 605.088C1194.28 605.121 1194.11 605.154 1193.94 605.186L1195.48 613.038ZM1224.44 606.483C1224.61 606.44 1224.77 606.398 1224.94 606.355L1222.95 598.607C1222.78 598.649 1222.62 598.691 1222.46 598.733L1224.44 606.483ZM1252.95 598.4C1253.12 598.348 1253.29 598.297 1253.45 598.245L1251.08 590.605C1250.92 590.656 1250.75 590.707 1250.59 590.758L1252.95 598.4ZM1281.1 589.015C1281.18 588.985 1281.26 588.956 1281.34 588.926L1278.66 581.391C1278.57 581.421 1278.49 581.45 1278.41 581.479L1281.1 589.015ZM1281.34 588.926C1281.43 588.897 1281.51 588.868 1281.59 588.839L1278.89 581.306C1278.81 581.335 1278.74 581.363 1278.66 581.391L1281.34 588.926ZM1308.04 578.328C1308.19 578.26 1308.35 578.191 1308.5 578.122L1305.27 570.803C1305.12 570.87 1304.97 570.937 1304.82 571.004L1308.04 578.328ZM1334.03 565.708C1334.18 565.629 1334.33 565.55 1334.48 565.471L1330.7 558.419C1330.55 558.496 1330.41 558.574 1330.26 558.651L1334.03 565.708ZM1358.97 551.111C1359.11 551.019 1359.25 550.927 1359.4 550.835L1355.08 544.102C1354.94 544.192 1354.8 544.282 1354.66 544.372L1358.97 551.111ZM1382.7 534.571C1382.84 534.469 1382.97 534.367 1383.11 534.265L1378.27 527.893C1378.14 527.993 1378.01 528.092 1377.88 528.192L1382.7 534.571ZM1405.06 516.264C1405.18 516.152 1405.31 516.04 1405.44 515.927L1400.13 509.94C1400.01 510.05 1399.88 510.16 1399.76 510.27L1405.06 516.264ZM1426 496.374C1426.12 496.254 1426.24 496.133 1426.36 496.013L1420.65 490.412C1420.53 490.53 1420.41 490.648 1420.3 490.766L1426 496.374ZM1445.56 475.158C1445.67 475.031 1445.78 474.903 1445.89 474.775L1439.84 469.542C1439.73 469.667 1439.62 469.793 1439.51 469.918L1445.56 475.158ZM1463.83 452.872C1463.94 452.739 1464.04 452.606 1464.14 452.473L1457.82 447.567C1457.72 447.699 1457.62 447.83 1457.52 447.961L1463.83 452.872ZM1480.99 429.763C1481.08 429.625 1481.18 429.488 1481.28 429.351L1474.75 424.721C1474.66 424.857 1474.56 424.993 1474.46 425.128L1480.99 429.763ZM1497.23 406.049C1497.32 405.909 1497.42 405.769 1497.51 405.629L1490.84 401.214C1490.75 401.353 1490.65 401.492 1490.56 401.63L1497.23 406.049ZM1512.79 381.937C1512.88 381.795 1512.97 381.653 1513.06 381.511L1506.29 377.245C1506.21 377.386 1506.12 377.527 1506.03 377.668L1512.79 381.937ZM1527.92 357.591C1528.01 357.448 1528.09 357.305 1528.18 357.163L1521.36 352.977C1521.28 353.12 1521.19 353.262 1521.1 353.404L1527.92 357.591ZM1542.85 333.172C1542.94 333.029 1543.02 332.887 1543.11 332.744L1536.29 328.572C1536.2 328.715 1536.11 328.858 1536.02 329.001L1542.85 333.172ZM1557.83 308.828C1557.91 308.686 1558 308.544 1558.09 308.402L1551.3 304.178C1551.21 304.32 1551.12 304.463 1551.03 304.605L1557.83 308.828ZM1573.08 284.701C1573.17 284.561 1573.26 284.421 1573.35 284.28L1566.64 279.939C1566.54 280.08 1566.45 280.221 1566.36 280.362L1573.08 284.701ZM1588.84 260.95C1588.93 260.812 1589.03 260.675 1589.12 260.537L1582.52 256.018C1582.42 256.157 1582.33 256.295 1582.24 256.434L1588.84 260.95ZM1605.31 237.723C1605.41 237.589 1605.51 237.455 1605.61 237.321L1599.17 232.568C1599.07 232.704 1598.97 232.839 1598.87 232.975L1605.31 237.723ZM1622.66 215.214C1622.77 215.084 1622.87 214.955 1622.98 214.826L1616.76 209.792C1616.65 209.923 1616.55 210.054 1616.44 210.185L1622.66 215.214ZM1641.08 193.577C1641.19 193.454 1641.3 193.331 1641.41 193.208L1635.47 187.856C1635.35 187.981 1635.24 188.106 1635.13 188.23L1641.08 193.577ZM1660.63 173.047C1660.75 172.93 1660.87 172.814 1660.98 172.697L1655.37 167.003C1655.25 167.122 1655.13 167.24 1655.01 167.359L1660.63 173.047ZM1681.43 153.746C1681.5 153.692 1681.56 153.637 1681.62 153.582L1676.38 147.54C1676.31 147.596 1676.25 147.652 1676.19 147.708L1681.43 153.746ZM1681.62 153.582C1681.69 153.527 1681.75 153.472 1681.81 153.417L1676.57 147.373C1676.51 147.429 1676.44 147.484 1676.38 147.54L1681.62 153.582ZM1703.66 135.51C1703.8 135.407 1703.93 135.304 1704.06 135.202L1699.17 128.873C1699.03 128.977 1698.9 129.082 1698.76 129.186L1703.66 135.51ZM1726.87 118.511C1727.01 118.415 1727.14 118.319 1727.28 118.224L1722.73 111.643C1722.59 111.74 1722.45 111.837 1722.31 111.934L1726.87 118.511ZM1750.94 102.74C1751.08 102.652 1751.22 102.563 1751.37 102.475L1747.16 95.6704C1747.01 95.7602 1746.87 95.8501 1746.72 95.94L1750.94 102.74ZM1775.77 88.1867C1775.92 88.1051 1776.07 88.0236 1776.22 87.9421L1772.35 80.9404C1772.2 81.023 1772.05 81.1056 1771.9 81.1883L1775.77 88.1867ZM1801.29 74.8364C1801.44 74.7617 1801.59 74.6872 1801.74 74.6127L1798.2 67.4368C1798.05 67.5123 1797.9 67.5878 1797.74 67.6633L1801.29 74.8364ZM1827.4 62.6775C1827.55 62.6098 1827.71 62.5422 1827.86 62.4747L1824.65 55.1452C1824.5 55.2136 1824.34 55.2821 1824.18 55.3506L1827.4 62.6775ZM1854.03 51.7017C1854.19 51.6409 1854.35 51.5802 1854.5 51.5195L1851.63 44.0551C1851.47 44.1165 1851.31 44.178 1851.15 44.2395L1854.03 51.7017ZM1881.13 41.9054C1881.29 41.8516 1881.45 41.7978 1881.61 41.7441L1879.06 34.1614C1878.89 34.2157 1878.73 34.2702 1878.57 34.3247L1881.13 41.9054ZM1908.62 33.2922C1908.78 33.2453 1908.95 33.1985 1909.11 33.1518L1906.89 25.4661C1906.72 25.5134 1906.56 25.5608 1906.4 25.6082L1908.62 33.2922ZM1936.46 25.874C1936.63 25.8342 1936.79 25.7945 1936.95 25.7548L1935.07 17.9803C1934.9 18.0205 1934.74 18.0607 1934.57 18.101L1936.46 25.874ZM1964.59 19.6732C1964.76 19.6407 1964.92 19.6082 1965.09 19.5758L1963.54 11.7262C1963.38 11.759 1963.21 11.7919 1963.04 11.8249L1964.59 19.6732ZM1992.96 14.7251C1993.12 14.7 1993.29 14.675 1993.46 14.6501L1992.26 6.73918C1992.1 6.76442 1991.93 6.78973 1991.76 6.81512L1992.96 14.7251ZM2021.5 11.0801C2021.66 11.0629 2021.83 11.0457 2021.99 11.0286L2021.17 3.07077C2021.01 3.08809 2020.84 3.1055 2020.67 3.12297L2021.5 11.0801ZM2050.21 8.80412C2050.38 8.79493 2050.55 8.78582 2050.72 8.77678L2050.29 0.788119C2050.12 0.797281 2049.95 0.806524 2049.78 0.815846L2050.21 8.80412ZM2079 8.00022C2079.17 8.00007 2079.34 7.99999 2079.51 8L2079.51 3.58148e-06C2079.34 -6.03512e-06 2079.17 6.83755e-05 2078.99 0.000226816L2079 8.00022ZM2107.75 8.79968C2107.92 8.80933 2108.08 8.81907 2108.25 8.82889L2108.72 0.84265C2108.55 0.832655 2108.38 0.82275 2108.21 0.812933L2107.75 8.79968ZM2136.31 11.3692C2136.47 11.3896 2136.64 11.4101 2136.8 11.4307L2137.8 3.49267C2137.63 3.47167 2137.46 3.45077 2137.29 3.42996L2136.31 11.3692ZM2164.63 15.9526C2164.8 15.9862 2164.96 16.0199 2165.13 16.0537L2166.73 8.21488C2166.56 8.18028 2166.39 8.14579 2166.22 8.11141L2164.63 15.9526ZM2192.43 22.8614C2192.59 22.909 2192.74 22.9568 2192.9 23.0046L2195.21 15.3441C2195.05 15.2949 2194.88 15.2458 2194.72 15.1968L2192.43 22.8614ZM2219.23 32.476C2219.39 32.5422 2219.54 32.6086 2219.7 32.6751L2222.85 25.3212C2222.69 25.2523 2222.52 25.1836 2222.36 25.115L2219.23 32.476ZM2244.56 45.3582C2244.7 45.4432 2244.84 45.5283 2244.98 45.6135L2249.14 38.7826C2249 38.6934 2248.85 38.6045 2248.7 38.5156L2244.56 45.3582ZM2267.32 62.0352C2267.45 62.1448 2267.57 62.2545 2267.69 62.3645L2273.04 56.4106C2272.91 56.2942 2272.78 56.1779 2272.65 56.0619L2267.32 62.0352ZM2286.02 82.8404C2286.11 82.9745 2286.2 83.1088 2286.3 83.2433L2292.86 78.6695C2292.76 78.5254 2292.66 78.3814 2292.56 78.2376L2286.02 82.8404ZM2298.94 107.485C2298.99 107.638 2299.05 107.79 2299.1 107.943L2306.63 105.236C2306.57 105.071 2306.51 104.907 2306.45 104.743L2298.94 107.485ZM2304.99 134.737C2305 134.82 2305.01 134.903 2305.02 134.987L2312.98 134.266C2312.98 134.176 2312.97 134.087 2312.96 133.998L2304.99 134.737ZM2305.02 134.987C2305.02 135.065 2305.03 135.143 2305.04 135.221L2313.01 134.52C2313 134.435 2312.99 134.35 2312.98 134.266L2305.02 134.987ZM2303.71 161.434C2303.68 161.588 2303.65 161.743 2303.62 161.898L2311.48 163.39C2311.52 163.224 2311.55 163.057 2311.58 162.891L2303.71 161.434ZM2295.69 187.146C2295.62 187.29 2295.56 187.434 2295.5 187.578L2302.82 190.81C2302.88 190.658 2302.95 190.505 2303.02 190.352L2295.69 187.146ZM2282.56 210.908C2282.47 211.04 2282.38 211.172 2282.29 211.305L2288.93 215.769C2289.02 215.63 2289.12 215.492 2289.21 215.354L2282.56 210.908ZM2265.79 232.493C2265.68 232.613 2265.57 232.732 2265.47 232.852L2271.44 238.177C2271.55 238.053 2271.66 237.929 2271.77 237.805L2265.79 232.493ZM2246.42 251.956C2246.3 252.064 2246.18 252.172 2246.06 252.279L2251.42 258.223C2251.54 258.112 2251.66 258.001 2251.79 257.891L2246.42 251.956ZM2225.15 269.446C2225.02 269.542 2224.89 269.638 2224.76 269.734L2229.56 276.141C2229.69 276.042 2229.82 275.944 2229.95 275.845L2225.15 269.446ZM2202.43 285.089C2202.3 285.176 2202.16 285.262 2202.02 285.349L2206.29 292.115C2206.43 292.027 2206.57 291.938 2206.71 291.85L2202.43 285.089ZM2178.58 298.989C2178.44 299.065 2178.3 299.141 2178.15 299.218L2181.93 306.273C2182.07 306.195 2182.22 306.117 2182.36 306.039L2178.58 298.989ZM2153.79 311.213C2153.65 311.28 2153.5 311.346 2153.35 311.413L2156.64 318.706C2156.79 318.638 2156.94 318.571 2157.09 318.503L2153.79 311.213ZM2128.25 321.768C2128.1 321.825 2127.95 321.882 2127.8 321.938L2130.6 329.431C2130.76 329.373 2130.91 329.315 2131.07 329.257L2128.25 321.768ZM2102.07 330.642C2102 330.666 2101.92 330.689 2101.84 330.713L2104.16 338.37C2104.24 338.346 2104.32 338.323 2104.39 338.299L2102.07 330.642ZM2101.84 330.713C2101.76 330.738 2101.68 330.763 2101.59 330.788L2103.91 338.444C2104 338.419 2104.08 338.395 2104.16 338.37L2101.84 330.713ZM2074.08 340.56C2073.92 340.625 2073.76 340.691 2073.6 340.757L2076.64 348.158C2076.8 348.094 2076.95 348.03 2077.11 347.966L2074.08 340.56ZM2047.14 353.062C2046.98 353.142 2046.83 353.223 2046.68 353.304L2050.39 360.389C2050.54 360.31 2050.69 360.232 2050.84 360.153L2047.14 353.062ZM2021.49 368.046C2021.34 368.141 2021.2 368.237 2021.05 368.332L2025.43 375.029C2025.57 374.936 2025.71 374.843 2025.86 374.75L2021.49 368.046ZM1997.42 385.516C1997.29 385.625 1997.15 385.734 1997.02 385.843L2002.06 392.052C2002.19 391.946 2002.32 391.84 2002.45 391.735L1997.42 385.516ZM1975.37 405.556C1975.25 405.68 1975.13 405.804 1975.01 405.929L1980.75 411.5C1980.87 411.38 1980.98 411.26 1981.1 411.14L1975.37 405.556ZM1956.05 428.347C1955.94 428.491 1955.84 428.634 1955.73 428.778L1962.22 433.462C1962.32 433.324 1962.42 433.187 1962.52 433.05L1956.05 428.347ZM1940.63 454.178C1940.56 454.339 1940.48 454.499 1940.41 454.659L1947.67 458.024C1947.74 457.873 1947.81 457.722 1947.88 457.571L1940.63 454.178ZM1931.31 483.006C1931.28 483.183 1931.25 483.361 1931.22 483.538L1939.11 484.871C1939.14 484.708 1939.17 484.545 1939.19 484.382L1931.31 483.006ZM1931.27 513.6C1931.3 513.777 1931.33 513.954 1931.37 514.131L1939.22 512.63C1939.19 512.471 1939.16 512.312 1939.13 512.152L1931.27 513.6ZM1942.47 542.152C1942.52 542.229 1942.57 542.307 1942.62 542.384L1949.38 538.115C1949.34 538.045 1949.29 537.974 1949.25 537.904L1942.47 542.152ZM1942.62 542.384C1942.67 542.46 1942.71 542.536 1942.76 542.612L1949.51 538.311C1949.47 538.246 1949.42 538.181 1949.38 538.115L1942.62 542.384ZM1964.49 562.341C1964.64 562.422 1964.8 562.503 1964.95 562.583L1968.6 555.464C1968.47 555.394 1968.33 555.323 1968.19 555.252L1964.49 562.341ZM1992.65 570.719C1992.82 570.741 1992.98 570.762 1993.15 570.783L1994.16 562.847C1994.01 562.828 1993.85 562.808 1993.7 562.788L1992.65 570.719ZM2021.44 571.551C2021.61 571.542 2021.78 571.532 2021.95 571.522L2021.49 563.536C2021.33 563.545 2021.16 563.554 2021 563.563L2021.44 571.551ZM2049.75 568.326C2049.91 568.299 2050.08 568.272 2050.24 568.244L2048.93 560.352C2048.77 560.379 2048.61 560.406 2048.45 560.432L2049.75 568.326ZM2077.59 562.696C2077.75 562.658 2077.92 562.62 2078.08 562.581L2076.24 554.796C2076.08 554.834 2075.92 554.871 2075.76 554.909L2077.59 562.696ZM2104.95 555.545C2105.1 555.5 2105.26 555.455 2105.42 555.41L2103.23 547.717C2103.07 547.761 2102.91 547.806 2102.76 547.851L2104.95 555.545ZM2131.97 547.369C2132.13 547.319 2132.29 547.269 2132.44 547.219L2130.01 539.597C2129.85 539.647 2129.7 539.697 2129.54 539.747L2131.97 547.369ZM2158.74 538.516C2158.89 538.463 2159.05 538.41 2159.2 538.357L2156.62 530.786C2156.46 530.839 2156.31 530.892 2156.15 530.945L2158.74 538.516ZM2185.32 529.259C2185.47 529.204 2185.63 529.148 2185.79 529.093L2183.12 521.551C2182.96 521.606 2182.81 521.661 2182.65 521.716L2185.32 529.259ZM2211.83 519.843C2211.99 519.788 2212.14 519.733 2212.3 519.679L2209.63 512.138C2209.47 512.193 2209.32 512.248 2209.16 512.303L2211.83 519.843ZM2238.28 510.628C2238.44 510.574 2238.6 510.521 2238.76 510.467L2236.2 502.889C2236.04 502.943 2235.88 502.997 2235.72 503.051L2238.28 510.628ZM2264.89 502.146C2264.96 502.124 2265.04 502.102 2265.11 502.08L2262.89 494.396C2262.81 494.419 2262.73 494.441 2262.65 494.464L2264.89 502.146ZM2265.11 502.08C2265.19 502.058 2265.27 502.036 2265.34 502.013L2263.11 494.332C2263.03 494.353 2262.96 494.375 2262.89 494.396L2265.11 502.08ZM2292.08 493.341C2292.24 493.285 2292.4 493.228 2292.57 493.172L2289.93 485.619C2289.77 485.675 2289.61 485.731 2289.45 485.786L2292.08 493.341ZM2318.99 483.59C2319.14 483.533 2319.29 483.476 2319.45 483.419L2316.65 475.925C2316.49 475.982 2316.34 476.039 2316.19 476.095L2318.99 483.59ZM2345.64 473.442C2345.79 473.383 2345.95 473.323 2346.1 473.264L2343.21 465.803C2343.06 465.862 2342.91 465.921 2342.75 465.98L2345.64 473.442ZM2372.17 463.072C2372.33 463.01 2372.49 462.948 2372.65 462.886L2369.71 455.443C2369.55 455.505 2369.4 455.567 2369.24 455.629L2372.17 463.072ZM2398.63 452.587C2398.79 452.525 2398.94 452.463 2399.1 452.401L2396.14 444.969C2395.98 445.03 2395.83 445.092 2395.67 445.154L2398.63 452.587ZM2425.1 442.032C2425.25 441.971 2425.4 441.909 2425.56 441.847L2422.59 434.418C2422.44 434.479 2422.28 434.541 2422.13 434.603L2425.1 442.032ZM2451.56 431.47C2451.71 431.408 2451.87 431.346 2452.02 431.284L2449.06 423.853C2448.91 423.915 2448.75 423.977 2448.59 424.039L2451.56 431.47ZM2478 420.955C2478.16 420.894 2478.31 420.832 2478.47 420.771L2475.52 413.334C2475.36 413.395 2475.21 413.456 2475.05 413.518L2478 420.955ZM2504.48 410.511C2504.64 410.45 2504.79 410.389 2504.95 410.329L2502.03 402.881C2501.87 402.941 2501.72 403.002 2501.56 403.063L2504.48 410.511ZM2531 400.184C2531.16 400.124 2531.31 400.064 2531.47 400.005L2528.59 392.542C2528.43 392.602 2528.28 392.662 2528.12 392.722L2531 400.184ZM2557.58 390.021C2557.74 389.962 2557.89 389.903 2558.05 389.844L2555.22 382.36C2555.06 382.42 2554.91 382.479 2554.75 382.538L2557.58 390.021ZM2584.2 380.088C2584.36 380.031 2584.51 379.975 2584.67 379.918L2581.91 372.408C2581.75 372.465 2581.6 372.522 2581.44 372.579L2584.2 380.088ZM2610.98 370.432C2611.13 370.377 2611.29 370.322 2611.45 370.267L2608.78 362.722C2608.63 362.778 2608.47 362.833 2608.31 362.888L2610.98 370.432ZM2637.85 361.189C2638.01 361.136 2638.17 361.084 2638.33 361.031L2635.8 353.442C2635.64 353.494 2635.48 353.547 2635.32 353.6L2637.85 361.189ZM2664.88 352.527C2665.04 352.478 2665.2 352.429 2665.35 352.38L2663.02 344.729C2662.86 344.778 2662.7 344.827 2662.54 344.876L2664.88 352.527ZM2692.12 344.743C2692.28 344.701 2692.44 344.659 2692.59 344.617L2690.57 336.877C2690.41 336.919 2690.25 336.962 2690.09 337.004L2692.12 344.743ZM2719.49 338.519C2719.56 338.505 2719.64 338.491 2719.72 338.477L2718.28 330.606C2718.2 330.621 2718.12 330.635 2718.04 330.65L2719.49 338.519ZM2719.72 338.477C2719.8 338.462 2719.88 338.447 2719.96 338.432L2718.54 330.56C2718.45 330.575 2718.37 330.591 2718.28 330.606L2719.72 338.477ZM2746.57 335.922C2746.72 335.922 2746.88 335.923 2747.04 335.923L2747.06 327.923C2746.9 327.923 2746.73 327.922 2746.56 327.922L2746.57 335.922ZM2773.12 338.876C2773.27 338.912 2773.42 338.948 2773.58 338.985L2775.43 331.202C2775.27 331.163 2775.1 331.124 2774.94 331.085L2773.12 338.876ZM2798.11 348.17C2798.25 348.243 2798.39 348.316 2798.53 348.389L2802.27 341.317C2802.12 341.238 2801.97 341.159 2801.82 341.081L2798.11 348.17ZM2820.28 363.293C2820.4 363.395 2820.52 363.497 2820.64 363.599L2825.86 357.533C2825.73 357.425 2825.6 357.317 2825.48 357.209L2820.28 363.293ZM2839.24 382.633C2839.34 382.756 2839.44 382.879 2839.54 383.003L2845.69 377.885C2845.59 377.757 2845.48 377.629 2845.37 377.501L2839.24 382.633ZM2855.45 404.606C2855.54 404.74 2855.63 404.874 2855.72 405.009L2862.4 400.613C2862.31 400.475 2862.22 400.337 2862.13 400.199L2855.45 404.606ZM2869.72 428.129C2869.8 428.27 2869.88 428.41 2869.95 428.551L2876.93 424.629C2876.85 424.487 2876.77 424.344 2876.69 424.201L2869.72 428.129ZM2882.8 452.5C2882.87 452.645 2882.95 452.789 2883.02 452.933L2890.13 449.26C2890.05 449.115 2889.98 448.97 2889.9 448.825L2882.8 452.5ZM2895.43 477.219C2895.51 477.366 2895.58 477.512 2895.66 477.658L2902.78 474.012C2902.7 473.867 2902.63 473.721 2902.55 473.575L2895.43 477.219ZM2908.46 501.923C2908.53 502.064 2908.61 502.206 2908.69 502.348L2915.69 498.477C2915.61 498.338 2915.54 498.198 2915.46 498.059L2908.46 501.923ZM2922.91 526.048C2923 526.184 2923.09 526.319 2923.18 526.454L2929.83 522.018C2929.75 521.887 2929.66 521.756 2929.57 521.625L2922.91 526.048ZM2940.34 548.467C2940.45 548.589 2940.57 548.71 2940.68 548.831L2946.48 543.325C2946.38 543.212 2946.27 543.099 2946.16 542.985L2940.34 548.467ZM2963.07 566.44C2963.22 566.522 2963.37 566.603 2963.53 566.683L2967.26 559.608C2967.13 559.537 2966.99 559.465 2966.86 559.393L2963.07 566.44ZM2991.28 574.286C2991.46 574.294 2991.63 574.302 2991.81 574.308L2992.12 566.315C2991.97 566.309 2991.81 566.302 2991.65 566.295L2991.28 574.286ZM3020.05 570.219C3020.22 570.166 3020.39 570.113 3020.56 570.06L3018.15 562.43C3017.99 562.48 3017.84 562.529 3017.68 562.578L3020.05 570.219ZM3046.02 558.944C3046.17 558.863 3046.32 558.782 3046.47 558.701L3042.61 551.692C3042.47 551.77 3042.33 551.848 3042.18 551.925L3046.02 558.944ZM3070.12 543.654C3070.19 543.603 3070.26 543.552 3070.33 543.501L3065.67 536.998C3065.6 537.048 3065.53 537.098 3065.46 537.148L3070.12 543.654ZM3069.89 543.774C3069.96 543.736 3070.03 543.699 3070.1 543.662L3066.32 536.613C3066.25 536.651 3066.18 536.688 3066.11 536.725L3069.89 543.774ZM3094.09 530.77C3094.23 530.693 3094.38 530.616 3094.52 530.539L3090.75 523.485C3090.6 523.562 3090.46 523.64 3090.31 523.717L3094.09 530.77ZM3118.64 517.774C3118.78 517.7 3118.92 517.626 3119.07 517.552L3115.36 510.46C3115.22 510.534 3115.08 510.608 3114.94 510.682L3118.64 517.774ZM3143.28 505.136C3143.42 505.064 3143.57 504.992 3143.71 504.92L3140.12 497.772C3139.97 497.844 3139.83 497.917 3139.68 497.99L3143.28 505.136ZM3168.14 492.908C3168.28 492.838 3168.43 492.769 3168.57 492.699L3165.11 485.487C3164.96 485.557 3164.82 485.627 3164.67 485.697L3168.14 492.908ZM3193.23 481.168C3193.37 481.101 3193.52 481.035 3193.67 480.968L3190.36 473.685C3190.21 473.753 3190.06 473.82 3189.91 473.887L3193.23 481.168ZM3218.57 469.974C3218.72 469.91 3218.86 469.847 3219.01 469.784L3215.87 462.428C3215.72 462.492 3215.57 462.556 3215.42 462.619L3218.57 469.974ZM3244.14 459.392C3244.29 459.331 3244.44 459.271 3244.59 459.21L3241.63 451.78C3241.47 451.841 3241.32 451.902 3241.17 451.962L3244.14 459.392ZM3269.95 449.462C3270.1 449.406 3270.25 449.349 3270.41 449.293L3267.64 441.788C3267.48 441.845 3267.33 441.901 3267.18 441.958L3269.95 449.462ZM3296.04 440.221C3296.19 440.17 3296.34 440.118 3296.49 440.066L3293.93 432.488C3293.78 432.54 3293.62 432.592 3293.47 432.644L3296.04 440.221ZM3322.37 431.725C3322.53 431.677 3322.68 431.63 3322.84 431.582L3320.5 423.932C3320.34 423.98 3320.18 424.028 3320.03 424.076L3322.37 431.725ZM3348.92 424.028C3349.07 423.985 3349.23 423.943 3349.38 423.9L3347.28 416.182C3347.12 416.225 3346.96 416.268 3346.81 416.311L3348.92 424.028ZM3375.72 417.159C3375.87 417.122 3376.03 417.085 3376.19 417.047L3374.33 409.266C3374.17 409.303 3374.01 409.341 3373.86 409.379L3375.72 417.159ZM3402.69 411.184C3402.85 411.152 3403 411.119 3403.16 411.087L3401.57 403.247C3401.41 403.28 3401.25 403.313 3401.09 403.345L3402.69 411.184ZM3429.87 406.133C3430.03 406.106 3430.19 406.079 3430.35 406.053L3429.03 398.162C3428.87 398.189 3428.71 398.216 3428.55 398.243L3429.87 406.133ZM3457.19 402.06C3457.35 402.039 3457.51 402.018 3457.67 401.997L3456.64 394.064C3456.48 394.085 3456.31 394.106 3456.15 394.127L3457.19 402.06ZM3484.65 399.001C3484.81 398.986 3484.97 398.972 3485.13 398.957L3484.41 390.99C3484.24 391.005 3484.08 391.02 3483.92 391.035L3484.65 399.001ZM3512.18 397.002C3512.35 396.993 3512.51 396.985 3512.67 396.976L3512.25 388.987C3512.09 388.996 3511.93 389.004 3511.76 389.013L3512.18 397.002ZM3539.81 396.093C3539.89 396.092 3539.97 396.091 3540.05 396.09L3539.95 388.091C3539.87 388.092 3539.79 388.093 3539.7 388.094L3539.81 396.093ZM3540.05 396.09C3540.13 396.089 3540.21 396.088 3540.29 396.087L3540.2 388.088C3540.11 388.089 3540.03 388.09 3539.95 388.091L3540.05 396.09ZM3567.42 396.236C3567.58 396.24 3567.74 396.244 3567.9 396.248L3568.09 388.25C3567.92 388.246 3567.76 388.242 3567.6 388.239L3567.42 396.236ZM3594.97 397.344C3595.13 397.354 3595.29 397.363 3595.45 397.372L3595.92 389.386C3595.75 389.376 3595.59 389.367 3595.43 389.358L3594.97 397.344ZM3622.46 399.377C3622.62 399.391 3622.78 399.406 3622.94 399.42L3623.66 391.453C3623.5 391.438 3623.34 391.424 3623.18 391.409L3622.46 399.377ZM3649.92 402.285C3650.08 402.304 3650.24 402.323 3650.4 402.343L3651.37 394.401C3651.21 394.382 3651.05 394.362 3650.89 394.343L3649.92 402.285ZM3677.29 405.995C3677.45 406.019 3677.6 406.042 3677.76 406.066L3678.95 398.155C3678.79 398.131 3678.63 398.107 3678.47 398.083L3677.29 405.995ZM3704.55 410.421C3704.71 410.449 3704.87 410.477 3705.03 410.505L3706.4 402.625C3706.24 402.597 3706.08 402.569 3705.92 402.541L3704.55 410.421ZM3731.72 415.463C3731.88 415.494 3732.03 415.525 3732.19 415.557L3733.73 407.706C3733.57 407.675 3733.41 407.643 3733.25 407.612L3731.72 415.463ZM3758.81 420.999C3758.97 421.033 3759.13 421.067 3759.29 421.1L3760.95 413.275C3760.79 413.241 3760.63 413.207 3760.47 413.173L3758.81 420.999ZM3785.86 426.888C3786.02 426.924 3786.17 426.959 3786.33 426.994L3788.07 419.185C3787.91 419.15 3787.75 419.114 3787.59 419.079L3785.86 426.888ZM3812.89 432.963C3813.05 432.999 3813.21 433.035 3813.37 433.071L3815.13 425.267C3814.97 425.232 3814.81 425.196 3814.65 425.16L3812.89 432.963ZM3839.97 439.026C3840.13 439.061 3840.28 439.096 3840.44 439.131L3842.17 431.319C3842.01 431.284 3841.85 431.249 3841.69 431.214L3839.97 439.026ZM3867.13 444.836C3867.29 444.868 3867.45 444.901 3867.61 444.934L3869.22 437.097C3869.06 437.064 3868.9 437.032 3868.74 436.999L3867.13 444.836ZM3894.45 450.1C3894.61 450.129 3894.77 450.157 3894.93 450.185L3896.33 442.308C3896.17 442.28 3896.01 442.252 3895.85 442.224L3894.45 450.1ZM3921.98 454.462C3922.14 454.484 3922.3 454.506 3922.46 454.528L3923.54 446.601C3923.38 446.579 3923.22 446.557 3923.06 446.535L3921.98 454.462ZM3949.77 457.484C3949.94 457.497 3950.1 457.51 3950.26 457.522L3950.88 449.546C3950.72 449.533 3950.56 449.521 3950.4 449.508L3949.77 457.484ZM3977.76 458.634C3977.84 458.634 3977.92 458.634 3978 458.634V450.634C3977.92 450.634 3977.84 450.634 3977.76 450.634L3977.76 458.634Z" fill="#E5E5E5" fill-opacity="0.8"/>
</svg>
