<svg width="3982" height="391" viewBox="0 0 3982 391" fill="none" xmlns="http://www.w3.org/2000/svg">
<path d="M990.5 376.5L990.035 380.473L990.5 376.5ZM1280 366.391L1280.87 370.296L1280 366.391ZM1679 95.3907L1677.1 91.8728L1677.1 91.8728L1679 95.3907ZM2309 85.4541L2312.96 84.8794L2309 85.4541ZM2103 210.114L2103.74 214.045L2103 210.114ZM1946 338.387L1948.81 335.542L1946 338.387ZM2264 312.19L2264.71 316.126L2264 312.19ZM2719 210.114L2718.55 206.14L2719 210.114ZM3068 338.387L3066.73 334.594C3066.61 334.635 3066.49 334.682 3066.37 334.735L3068 338.387ZM3540 246L3540.03 250L3540 246ZM3978 289C3980.21 289 3982 287.209 3982 285C3982 282.791 3980.21 281 3978 281V289ZM558 313L558.04 317L558 313ZM4 362.391C1.79086 362.391 0 364.182 0 366.391C0 368.6 1.79086 370.391 4 370.391V362.391ZM4.23319 370.391C6.44233 370.388 8.23117 368.596 8.22867 366.386C8.22618 364.177 6.4333 362.388 4.22416 362.391L4.23319 370.391ZM31.2448 361.173C29.0418 361.337 27.3889 363.256 27.553 365.459C27.7172 367.662 29.6361 369.315 31.8392 369.151L31.2448 361.173ZM32.3512 369.112C34.5541 368.947 36.2055 367.026 36.0398 364.823C35.874 362.62 33.9538 360.969 31.7509 361.135L32.3512 369.112ZM58.8029 358.681C56.6054 358.907 55.0069 360.871 55.2327 363.069C55.4585 365.266 57.423 366.865 59.6206 366.639L58.8029 358.681ZM60.1011 366.59C62.2986 366.363 63.8964 364.398 63.6699 362.201C63.4434 360.003 61.4784 358.405 59.2809 358.632L60.1011 366.59ZM86.4304 355.627C84.2362 355.883 82.6653 357.87 82.9218 360.064C83.1782 362.258 85.1648 363.829 87.359 363.573L86.4304 355.627ZM87.8398 363.517C90.034 363.26 91.6045 361.273 91.3477 359.079C91.0909 356.885 89.104 355.314 86.9098 355.571L87.8398 363.517ZM114.09 352.278C111.898 352.551 110.342 354.549 110.615 356.742C110.887 358.934 112.886 360.49 115.078 360.217L114.09 352.278ZM115.555 360.157C117.748 359.884 119.303 357.886 119.03 355.694C118.757 353.501 116.759 351.946 114.566 352.219L115.555 360.157ZM141.674 348.784C139.483 349.065 137.935 351.069 138.216 353.261C138.498 355.452 140.502 357 142.693 356.719L141.674 348.784ZM143.183 356.656C145.374 356.374 146.922 354.37 146.641 352.179C146.359 349.988 144.355 348.439 142.164 348.721L143.183 356.656ZM169.275 345.215C167.084 345.5 165.539 347.506 165.824 349.697C166.108 351.888 168.115 353.433 170.305 353.148L169.275 345.215ZM170.788 353.086C172.979 352.801 174.524 350.795 174.24 348.604C173.955 346.413 171.949 344.868 169.758 345.152L170.788 353.086ZM196.925 341.624C194.734 341.908 193.188 343.914 193.472 346.105C193.756 348.296 195.762 349.842 197.953 349.558L196.925 341.624ZM198.442 349.495C200.633 349.211 202.179 347.204 201.895 345.014C201.611 342.823 199.605 341.277 197.414 341.561L198.442 349.495ZM224.527 338.066C222.336 338.347 220.787 340.35 221.068 342.542C221.348 344.733 223.352 346.282 225.543 346.002L224.527 338.066ZM226.026 345.94C228.218 345.659 229.767 343.656 229.486 341.465C229.206 339.273 227.202 337.724 225.011 338.004L226.026 345.94ZM252.176 334.564C249.984 334.838 248.43 336.838 248.704 339.03C248.979 341.222 250.978 342.776 253.17 342.502L252.176 334.564ZM253.657 342.441C255.849 342.167 257.403 340.167 257.129 337.975C256.855 335.783 254.856 334.229 252.663 334.503L253.657 342.441ZM279.836 331.152C277.643 331.418 276.081 333.412 276.347 335.605C276.613 337.798 278.607 339.36 280.8 339.094L279.836 331.152ZM281.283 339.035C283.476 338.769 285.038 336.776 284.772 334.583C284.506 332.39 282.513 330.828 280.32 331.094L281.283 339.035ZM307.5 327.86C305.305 328.116 303.734 330.102 303.989 332.296C304.245 334.491 306.231 336.062 308.425 335.807L307.5 327.86ZM308.91 335.75C311.105 335.495 312.676 333.509 312.421 331.314C312.166 329.12 310.18 327.548 307.985 327.804L308.91 335.75ZM335.204 324.712C333.008 324.955 331.425 326.932 331.668 329.127C331.911 331.323 333.888 332.906 336.083 332.663L335.204 324.712ZM336.57 332.61C338.765 332.367 340.349 330.39 340.106 328.194C339.863 325.999 337.886 324.415 335.691 324.658L336.57 332.61ZM362.918 321.739C360.721 321.967 359.124 323.933 359.352 326.13C359.58 328.328 361.546 329.924 363.744 329.696L362.918 321.739ZM364.229 329.646C366.426 329.418 368.023 327.452 367.795 325.255C367.568 323.058 365.602 321.461 363.405 321.688L364.229 329.646ZM390.662 318.97C388.463 319.18 386.851 321.134 387.061 323.333C387.272 325.532 389.225 327.144 391.424 326.934L390.662 318.97ZM391.91 326.887C394.109 326.677 395.721 324.724 395.511 322.525C395.301 320.326 393.348 318.713 391.149 318.924L391.91 326.887ZM418.425 316.44C416.224 316.63 414.594 318.569 414.784 320.77C414.974 322.97 416.913 324.601 419.114 324.411L418.425 316.44ZM419.599 324.369C421.8 324.179 423.43 322.241 423.24 320.04C423.051 317.839 421.113 316.209 418.912 316.398L419.599 324.369ZM446.238 314.186C444.035 314.352 442.384 316.273 442.55 318.475C442.717 320.678 444.637 322.329 446.84 322.163L446.238 314.186ZM447.327 322.126C449.53 321.96 451.182 320.04 451.016 317.837C450.85 315.634 448.929 313.983 446.726 314.149L447.327 322.126ZM474.07 312.254C471.865 312.393 470.19 314.293 470.329 316.497C470.468 318.702 472.368 320.377 474.573 320.238L474.07 312.254ZM475.058 320.208C477.263 320.069 478.938 318.17 478.8 315.965C478.661 313.76 476.762 312.085 474.557 312.223L475.058 320.208ZM501.917 310.699C499.711 310.806 498.008 312.681 498.115 314.887C498.221 317.094 500.096 318.796 502.303 318.69L501.917 310.699ZM502.793 318.666C505 318.56 506.702 316.686 506.597 314.479C506.491 312.272 504.616 310.57 502.409 310.675L502.793 318.666ZM529.84 309.586C527.632 309.654 525.898 311.5 525.966 313.708C526.034 315.916 527.88 317.65 530.088 317.582L529.84 309.586ZM530.574 317.567C532.783 317.499 534.518 315.655 534.45 313.446C534.383 311.238 532.538 309.503 530.33 309.571L530.574 317.567ZM557.718 309.003C555.509 309.025 553.736 310.834 553.759 313.043C553.781 315.252 555.59 317.025 557.8 317.002L557.718 309.003ZM558.295 316.997C560.504 316.976 562.278 315.168 562.256 312.959C562.235 310.75 560.427 308.976 558.218 308.998L558.295 316.997ZM587.048 309.272C584.84 309.21 582.999 310.95 582.937 313.158C582.875 315.366 584.614 317.207 586.823 317.269L587.048 309.272ZM587.331 317.283C589.54 317.347 591.381 315.609 591.445 313.4C591.509 311.192 589.77 309.35 587.562 309.287L587.331 317.283ZM616.349 310.618C614.144 310.479 612.244 312.154 612.105 314.358C611.965 316.563 613.64 318.463 615.845 318.603L616.349 310.618ZM616.353 318.635C618.558 318.775 620.459 317.102 620.599 314.897C620.74 312.693 619.066 310.791 616.862 310.651L616.353 318.635ZM645.575 312.931C643.375 312.723 641.424 314.338 641.216 316.537C641.008 318.736 642.622 320.688 644.822 320.896L645.575 312.931ZM645.329 320.944C647.528 321.153 649.48 319.539 649.689 317.34C649.899 315.141 648.285 313.189 646.086 312.98L645.329 320.944ZM674.705 316.099C672.513 315.83 670.518 317.39 670.249 319.583C669.981 321.776 671.541 323.771 673.734 324.039L674.705 316.099ZM674.24 324.101C676.433 324.371 678.428 322.811 678.698 320.619C678.967 318.426 677.408 316.43 675.215 316.161L674.24 324.101ZM703.731 320.008C701.545 319.688 699.513 321.201 699.193 323.386C698.873 325.572 700.385 327.604 702.571 327.924L703.731 320.008ZM703.076 327.998C705.261 328.319 707.293 326.807 707.614 324.622C707.935 322.436 706.424 320.404 704.238 320.083L703.076 327.998ZM732.648 324.548C730.469 324.185 728.408 325.656 728.045 327.835C727.681 330.014 729.152 332.076 731.331 332.439L732.648 324.548ZM731.834 332.523C734.013 332.888 736.075 331.417 736.439 329.238C736.804 327.059 735.333 324.997 733.154 324.633L731.834 332.523ZM761.463 329.605C759.291 329.206 757.206 330.645 756.807 332.818C756.409 334.991 757.847 337.075 760.02 337.474L761.463 329.605ZM760.522 337.566C762.695 337.965 764.78 336.527 765.179 334.354C765.578 332.182 764.14 330.097 761.968 329.698L760.522 337.566ZM790.192 335.063C788.024 334.638 785.922 336.052 785.497 338.22C785.073 340.388 786.486 342.489 788.654 342.914L790.192 335.063ZM789.158 343.012C791.325 343.437 793.427 342.025 793.852 339.857C794.277 337.689 792.864 335.587 790.697 335.162L789.158 343.012ZM818.852 340.802C816.687 340.361 814.575 341.758 814.133 343.922C813.692 346.087 815.089 348.199 817.254 348.641L818.852 340.802ZM817.757 348.743C819.921 349.185 822.034 347.788 822.475 345.623C822.917 343.459 821.52 341.346 819.355 340.905L817.757 348.743ZM847.463 346.692C845.3 346.244 843.183 347.635 842.735 349.798C842.288 351.961 843.678 354.078 845.841 354.526L847.463 346.692ZM846.344 354.63C848.507 355.078 850.624 353.687 851.072 351.524C851.52 349.361 850.129 347.244 847.966 346.796L846.344 354.63ZM876.05 352.591C873.885 352.147 871.772 353.543 871.329 355.707C870.886 357.871 872.281 359.985 874.445 360.428L876.05 352.591ZM874.947 360.531C877.112 360.974 879.225 359.578 879.668 357.414C880.111 355.249 878.715 353.136 876.551 352.693L874.947 360.531ZM904.635 358.334C902.467 357.909 900.365 359.322 899.94 361.49C899.515 363.658 900.928 365.76 903.096 366.185L904.635 358.334ZM903.597 366.283C905.765 366.708 907.867 365.294 908.292 363.126C908.716 360.958 907.303 358.857 905.135 358.432L903.597 366.283ZM933.25 363.732C931.076 363.341 928.996 364.787 928.605 366.961C928.214 369.135 929.659 371.215 931.834 371.606L933.25 363.732ZM932.342 371.697C934.517 372.088 936.596 370.642 936.986 368.467C937.376 366.293 935.93 364.214 933.756 363.823L932.342 371.697ZM961.96 368.557C959.777 368.219 957.734 369.716 957.396 371.899C957.059 374.082 958.556 376.126 960.739 376.463L961.96 368.557ZM961.247 376.541C963.431 376.877 965.473 375.38 965.809 373.196C966.145 371.013 964.648 368.97 962.464 368.634L961.247 376.541ZM990.715 372.498C988.521 372.24 986.533 373.81 986.275 376.004C986.018 378.198 987.587 380.185 989.781 380.443L990.715 372.498ZM990.289 380.503C992.484 380.76 994.471 379.189 994.728 376.995C994.985 374.801 993.414 372.814 991.22 372.557L990.289 380.503ZM1019.65 375.869C1017.46 375.621 1015.47 377.199 1015.23 379.394C1014.98 381.589 1016.56 383.57 1018.75 383.819L1019.65 375.869ZM1019.26 383.876C1021.45 384.124 1023.44 382.546 1023.68 380.351C1023.93 378.155 1022.35 376.175 1020.16 375.927L1019.26 383.876ZM1048.56 378.885C1046.36 378.681 1044.41 380.299 1044.2 382.498C1044 384.698 1045.62 386.647 1047.82 386.851L1048.56 378.885ZM1048.33 386.898C1050.53 387.101 1052.48 385.483 1052.68 383.283C1052.88 381.083 1051.26 379.135 1049.06 378.932L1048.33 386.898ZM1077.48 381.099C1075.27 380.97 1073.38 382.654 1073.25 384.859C1073.12 387.065 1074.81 388.957 1077.01 389.085L1077.48 381.099ZM1077.52 389.115C1079.73 389.242 1081.62 387.557 1081.75 385.352C1081.88 383.146 1080.19 381.256 1077.99 381.128L1077.52 389.115ZM1106.43 382.175C1104.22 382.142 1102.41 383.906 1102.37 386.115C1102.34 388.324 1104.1 390.141 1106.31 390.175L1106.43 382.175ZM1106.83 390.182C1109.04 390.214 1110.86 388.448 1110.89 386.239C1110.92 384.03 1109.15 382.214 1106.95 382.183L1106.83 390.182ZM1135.38 381.936C1133.17 382.006 1131.44 383.853 1131.51 386.061C1131.58 388.269 1133.43 390.002 1135.64 389.932L1135.38 381.936ZM1136.15 389.916C1138.36 389.844 1140.09 387.996 1140.02 385.788C1139.94 383.58 1138.1 381.848 1135.89 381.92L1136.15 389.916ZM1164.29 380.351C1162.09 380.522 1160.44 382.446 1160.61 384.648C1160.79 386.851 1162.71 388.498 1164.91 388.327L1164.29 380.351ZM1165.42 388.287C1167.63 388.114 1169.27 386.189 1169.1 383.987C1168.93 381.784 1167 380.139 1164.8 380.312L1165.42 388.287ZM1193.13 377.49C1190.93 377.754 1189.37 379.746 1189.63 381.939C1189.9 384.132 1191.89 385.697 1194.08 385.433L1193.13 377.49ZM1194.59 385.372C1196.78 385.106 1198.35 383.113 1198.08 380.92C1197.82 378.727 1195.82 377.164 1193.63 377.429L1194.59 385.372ZM1221.86 373.474C1219.68 373.82 1218.19 375.869 1218.54 378.051C1218.88 380.233 1220.93 381.721 1223.11 381.375L1221.86 373.474ZM1223.62 381.296C1225.8 380.948 1227.29 378.898 1226.94 376.716C1226.59 374.535 1224.54 373.048 1222.36 373.395L1223.62 381.296ZM1250.41 368.453C1248.24 368.871 1246.82 370.968 1247.24 373.137C1247.66 375.306 1249.76 376.726 1251.93 376.309L1250.41 368.453ZM1252.43 376.211C1254.6 375.793 1256.02 373.695 1255.6 371.526C1255.18 369.357 1253.08 367.938 1250.92 368.356L1252.43 376.211ZM1278.88 362.543C1276.72 363.022 1275.36 365.158 1275.84 367.315C1276.32 369.472 1278.46 370.831 1280.61 370.352L1278.88 362.543ZM1281.12 370.239C1283.28 369.758 1284.64 367.621 1284.16 365.465C1283.68 363.308 1281.54 361.95 1279.38 362.431L1281.12 370.239ZM1306.74 355.613C1304.61 356.203 1303.36 358.407 1303.95 360.536C1304.54 362.665 1306.74 363.913 1308.87 363.323L1306.74 355.613ZM1309.37 363.186C1311.49 362.594 1312.74 360.389 1312.15 358.261C1311.56 356.132 1309.35 354.887 1307.22 355.479L1309.37 363.186ZM1333.97 347.228C1331.88 347.94 1330.76 350.213 1331.47 352.304C1332.19 354.395 1334.46 355.513 1336.55 354.8L1333.97 347.228ZM1337.02 354.639C1339.11 353.924 1340.23 351.65 1339.51 349.56C1338.8 347.47 1336.53 346.354 1334.44 347.069L1337.02 354.639ZM1360.72 337.152C1358.68 337.998 1357.71 340.339 1358.56 342.379C1359.4 344.42 1361.74 345.387 1363.78 344.541L1360.72 337.152ZM1364.25 344.345C1366.29 343.496 1367.26 341.155 1366.41 339.115C1365.56 337.076 1363.22 336.111 1361.18 336.96L1364.25 344.345ZM1386.62 325.333C1384.65 326.32 1383.85 328.723 1384.84 330.699C1385.82 332.675 1388.23 333.476 1390.2 332.488L1386.62 325.333ZM1390.66 332.258C1392.64 331.268 1393.43 328.864 1392.44 326.889C1391.45 324.914 1389.05 324.116 1387.08 325.107L1390.66 332.258ZM1411.6 311.685C1409.7 312.815 1409.08 315.269 1410.21 317.168C1411.34 319.066 1413.79 319.689 1415.69 318.559L1411.6 311.685ZM1416.14 318.294C1418.03 317.162 1418.65 314.706 1417.52 312.809C1416.39 310.913 1413.93 310.293 1412.04 311.425L1416.14 318.294ZM1435.55 296.216C1433.74 297.481 1433.29 299.974 1434.56 301.786C1435.82 303.597 1438.32 304.04 1440.13 302.775L1435.55 296.216ZM1440.54 302.485C1442.35 301.218 1442.79 298.724 1441.53 296.914C1440.26 295.105 1437.76 294.665 1435.95 295.932L1440.54 302.485ZM1458.37 279.095C1456.64 280.478 1456.37 282.995 1457.75 284.718C1459.13 286.441 1461.65 286.716 1463.37 285.333L1458.37 279.095ZM1463.77 285.016C1465.49 283.631 1465.76 281.113 1464.38 279.392C1462.99 277.671 1460.47 277.398 1458.75 278.783L1463.77 285.016ZM1480.12 260.573C1478.47 262.05 1478.34 264.579 1479.81 266.222C1481.29 267.865 1483.82 268 1485.46 266.524L1480.12 260.573ZM1485.84 266.184C1487.48 264.706 1487.62 262.177 1486.14 260.535C1484.66 258.893 1482.13 258.76 1480.49 260.238L1485.84 266.184ZM1501 240.98C1499.42 242.521 1499.39 245.054 1500.93 246.637C1502.47 248.22 1505 248.254 1506.58 246.713L1501 240.98ZM1506.95 246.359C1508.53 244.817 1508.56 242.285 1507.02 240.703C1505.48 239.12 1502.95 239.087 1501.37 240.629L1506.95 246.359ZM1521.34 220.705C1519.79 222.279 1519.8 224.812 1521.38 226.362C1522.95 227.912 1525.48 227.893 1527.04 226.32L1521.34 220.705ZM1527.39 225.959C1528.94 224.385 1528.92 221.852 1527.35 220.302C1525.77 218.752 1523.24 218.772 1521.69 220.346L1527.39 225.959ZM1541.5 200.151C1539.95 201.727 1539.97 204.259 1541.54 205.808C1543.12 207.357 1545.65 207.335 1547.2 205.76L1541.5 200.151ZM1547.55 205.4C1549.1 203.825 1549.08 201.293 1547.51 199.744C1545.93 198.195 1543.4 198.216 1541.85 199.791L1547.55 205.4ZM1561.89 179.723C1560.31 181.27 1560.29 183.802 1561.83 185.38C1563.38 186.958 1565.91 186.983 1567.49 185.437L1561.89 179.723ZM1567.85 185.085C1569.43 183.539 1569.45 181.007 1567.91 179.428C1566.36 177.85 1563.83 177.823 1562.25 179.369L1567.85 185.085ZM1582.89 159.818C1581.26 161.306 1581.14 163.836 1582.63 165.469C1584.12 167.101 1586.65 167.218 1588.28 165.73L1582.89 159.818ZM1588.65 165.392C1590.28 163.904 1590.4 161.375 1588.92 159.741C1587.43 158.107 1584.9 157.989 1583.27 159.476L1588.65 165.392ZM1604.78 140.809C1603.07 142.214 1602.83 144.734 1604.23 146.44C1605.64 148.145 1608.16 148.389 1609.86 146.984L1604.78 140.809ZM1610.25 146.666C1611.96 145.263 1612.2 142.743 1610.8 141.036C1609.4 139.329 1606.88 139.083 1605.17 140.486L1610.25 146.666ZM1627.72 123.023C1625.93 124.322 1625.54 126.824 1626.83 128.61C1628.13 130.397 1630.64 130.792 1632.42 129.493L1627.72 123.023ZM1632.83 129.199C1634.61 127.902 1635.01 125.401 1633.71 123.613C1632.42 121.824 1629.92 121.427 1628.13 122.724L1632.83 129.199ZM1651.76 106.704C1649.89 107.883 1649.34 110.354 1650.51 112.222C1651.69 114.09 1654.16 114.648 1656.03 113.468L1651.76 106.704ZM1656.45 113.203C1658.32 112.025 1658.88 109.556 1657.71 107.686C1656.53 105.817 1654.06 105.256 1652.19 106.434L1656.45 113.203ZM1676.87 91.9963C1674.93 93.0489 1674.2 95.4767 1675.26 97.4189C1676.31 99.3612 1678.74 100.082 1680.68 99.0297L1676.87 91.9963ZM1681.12 98.7937C1683.06 97.7431 1683.78 95.3161 1682.73 93.3727C1681.68 91.4293 1679.26 90.7056 1677.31 91.7561L1681.12 98.7937ZM1702.04 79.2003C1700.04 80.1516 1699.2 82.5391 1700.15 84.5329C1701.1 86.5267 1703.49 87.3718 1705.48 86.4205L1702.04 79.2003ZM1705.92 86.2115C1707.92 85.2619 1708.76 82.8751 1707.81 80.8805C1706.86 78.8859 1704.48 78.0388 1702.48 78.9884L1705.92 86.2115ZM1727.78 67.6412C1725.75 68.5009 1724.8 70.8475 1725.65 72.8825C1726.51 74.9175 1728.86 75.8704 1730.9 75.0107L1727.78 67.6412ZM1731.35 74.8212C1733.38 73.9631 1734.34 71.6172 1733.48 69.5815C1732.62 67.5458 1730.27 66.5912 1728.24 67.4493L1731.35 74.8212ZM1754 57.2042C1751.93 57.98 1750.88 60.2857 1751.66 62.3541C1752.43 64.4225 1754.74 65.4705 1756.81 64.6947L1754 57.2042ZM1757.26 64.5231C1759.33 63.7488 1760.38 61.4438 1759.61 59.3748C1758.83 57.3058 1756.53 56.2563 1754.46 57.0307L1757.26 64.5231ZM1780.59 47.7983C1778.5 48.4967 1777.36 50.7619 1778.06 52.8577C1778.76 54.9536 1781.02 56.0864 1783.12 55.3881L1780.59 47.7983ZM1783.59 55.2333C1785.68 54.5363 1786.82 52.2718 1786.12 50.1756C1785.42 48.0793 1783.16 46.945 1781.06 47.642L1783.59 55.2333ZM1807.49 39.349C1805.38 39.9752 1804.17 42.2002 1804.79 44.3188C1805.42 46.4373 1807.64 47.6471 1809.76 47.0209L1807.49 39.349ZM1810.23 46.882C1812.35 46.2571 1813.56 44.0327 1812.94 41.9138C1812.31 39.7949 1810.09 38.5839 1807.97 39.2088L1810.23 46.882ZM1834.65 31.7959C1832.52 32.3541 1831.24 34.5393 1831.8 36.6768C1832.35 38.8142 1834.54 40.0945 1836.68 39.5363L1834.65 31.7959ZM1837.15 39.4125C1839.29 38.8555 1840.57 36.671 1840.01 34.5332C1839.46 32.3954 1837.27 31.114 1835.13 31.671L1837.15 39.4125ZM1862.03 25.0915C1859.87 25.5848 1858.53 27.7304 1859.02 29.8837C1859.52 32.0371 1861.66 33.3828 1863.81 32.8895L1862.03 25.0915ZM1864.29 32.7801C1866.45 32.2879 1867.79 30.143 1867.3 27.9894C1866.81 25.8358 1864.66 24.489 1862.51 24.9812L1864.29 32.7801ZM1889.58 19.2001C1887.41 19.6309 1886.01 21.7367 1886.44 23.9034C1886.87 26.0701 1888.97 27.4773 1891.14 27.0465L1889.58 19.2001ZM1891.62 26.951C1893.79 26.5213 1895.2 24.4163 1894.77 22.2493C1894.34 20.0824 1892.23 18.6741 1890.06 19.1039L1891.62 26.951ZM1917.28 14.0969C1915.1 14.4667 1913.64 16.5321 1914.01 18.7101C1914.38 20.888 1916.44 22.3538 1918.62 21.984L1917.28 14.0969ZM1919.1 21.9022C1921.28 21.5334 1922.75 19.4688 1922.38 17.2906C1922.01 15.1125 1919.95 13.6457 1917.77 14.0144L1919.1 21.9022ZM1945.11 9.76758C1942.92 10.0771 1941.4 12.1011 1941.71 14.2885C1942.02 16.4758 1944.04 17.9982 1946.23 17.6887L1945.11 9.76758ZM1946.71 17.6202C1948.9 17.3118 1950.42 15.2884 1950.11 13.1009C1949.81 10.9134 1947.78 9.39014 1945.6 9.69856L1946.71 17.6202ZM1973.05 6.20617C1970.86 6.45512 1969.28 8.43639 1969.53 10.6315C1969.78 12.8265 1971.76 14.4042 1973.95 14.1552L1973.05 6.20617ZM1974.44 14.0998C1976.64 13.8519 1978.22 11.8714 1977.97 9.67623C1977.72 7.48105 1975.74 5.90244 1973.55 6.15032L1974.44 14.0998ZM2001.1 3.42166C1998.9 3.60897 1997.26 5.54524 1997.45 7.74642C1997.64 9.9476 1999.57 11.5802 2001.77 11.3928L2001.1 3.42166ZM2002.27 11.3512C2004.47 11.165 2006.1 9.22954 2005.91 7.02826C2005.73 4.82699 2003.79 3.19345 2001.59 3.37967L2002.27 11.3512ZM2029.22 1.43559C2027.01 1.55909 2025.32 3.44727 2025.45 5.65295C2025.57 7.85864 2027.46 9.54658 2029.66 9.42307L2029.22 1.43559ZM2030.15 9.39569C2032.36 9.27334 2034.05 7.38604 2033.93 5.18029C2033.8 2.97454 2031.92 1.28562 2029.71 1.40797L2030.15 9.39569ZM2057.39 0.284185C2055.18 0.340405 2053.43 2.17626 2053.49 4.38469C2053.55 6.59311 2055.38 8.33781 2057.59 8.28159L2057.39 0.284185ZM2058.08 8.26924C2060.29 8.21424 2062.03 6.37935 2061.98 4.1709C2061.92 1.96244 2060.09 0.216722 2057.88 0.271721L2058.08 8.26924ZM2085.58 0.0222843C2083.37 0.00608236 2081.56 1.78376 2081.55 3.99284C2081.53 6.20192 2083.31 8.00587 2085.52 8.02207L2085.58 0.0222843ZM2086.01 8.0258C2088.22 8.04332 2090.02 6.26673 2090.04 4.05766C2090.06 1.84859 2088.28 0.0435754 2086.07 0.0260485L2086.01 8.0258ZM2113.74 0.728454C2111.54 0.632449 2109.67 2.34379 2109.57 4.55084C2109.48 6.75789 2111.19 8.62489 2113.39 8.7209L2113.74 0.728454ZM2113.88 8.74211C2116.09 8.83959 2117.95 7.12949 2118.05 4.9225C2118.15 2.71551 2116.44 0.847377 2114.23 0.749901L2113.88 8.74211ZM2141.87 2.51777C2139.67 2.33121 2137.74 3.96444 2137.55 6.16568C2137.36 8.36693 2139 10.3026 2141.2 10.4892L2141.87 2.51777ZM2141.69 10.5314C2143.9 10.7197 2145.83 9.08799 2146.02 6.8869C2146.21 4.6858 2144.58 2.7488 2142.38 2.5605L2141.69 10.5314ZM2170.04 5.575C2167.85 5.28163 2165.84 6.8188 2165.54 9.00837C2165.25 11.1979 2166.79 13.2108 2168.98 13.5041L2170.04 5.575ZM2169.46 13.5695C2171.65 13.8649 2173.67 12.3297 2173.96 10.1404C2174.26 7.95107 2172.72 5.93679 2170.53 5.64136L2169.46 13.5695ZM2197.92 10.1297C2195.75 9.70597 2193.65 11.1201 2193.23 13.2882C2192.8 15.4563 2194.22 17.5574 2196.39 17.9812L2197.92 10.1297ZM2196.86 18.0733C2199.02 18.4996 2201.13 17.088 2201.55 14.9203C2201.98 12.7527 2200.57 10.6499 2198.4 10.2237L2196.86 18.0733ZM2225.59 16.6187C2223.46 16.0257 2221.25 17.2702 2220.66 19.3983C2220.07 21.5263 2221.31 23.7322 2223.44 24.3251L2225.59 16.6187ZM2223.91 24.457C2226.04 25.0534 2228.24 23.8126 2228.84 21.6855C2229.44 19.5584 2228.2 17.3505 2226.07 16.7541L2223.91 24.457ZM2252.5 25.6521C2250.45 24.8261 2248.12 25.8175 2247.29 27.8664C2246.47 29.9154 2247.46 32.2459 2249.51 33.0719L2252.5 25.6521ZM2249.97 33.2589C2252.02 34.0899 2254.35 33.1044 2255.18 31.0575C2256.01 29.0106 2255.03 26.6776 2252.98 25.8466L2249.97 33.2589ZM2278.16 38.5126C2276.29 37.3372 2273.82 37.9007 2272.65 39.7712C2271.47 41.6417 2272.04 44.1109 2273.91 45.2863L2278.16 38.5126ZM2274.33 45.5502C2276.19 46.7335 2278.66 46.1805 2279.85 44.315C2281.03 42.4495 2280.48 39.9779 2278.61 38.7946L2274.33 45.5502ZM2300.47 57.5354C2299.07 55.8274 2296.55 55.5786 2294.84 56.9797C2293.13 58.3807 2292.88 60.9011 2294.28 62.6091L2300.47 57.5354ZM2294.58 62.9708C2295.96 64.6896 2298.48 64.9579 2300.2 63.57C2301.92 62.1822 2302.19 59.6637 2300.8 57.945L2294.58 62.9708ZM2312.92 84.613C2312.59 82.4285 2310.55 80.9241 2308.37 81.2528C2306.18 81.5815 2304.68 83.6189 2305.01 85.8035L2312.92 84.613ZM2305.07 86.2519C2305.38 88.4401 2307.4 89.9684 2309.58 89.6654C2311.77 89.3624 2313.3 87.3428 2313 85.1545L2305.07 86.2519ZM2306.96 114.537C2308.01 112.595 2307.29 110.167 2305.35 109.113C2303.41 108.06 2300.98 108.781 2299.92 110.723L2306.96 114.537ZM2299.7 111.136C2298.63 113.069 2299.33 115.503 2301.26 116.573C2303.2 117.642 2305.63 116.941 2306.7 115.008L2299.7 111.136ZM2288.32 137.607C2289.94 136.105 2290.03 133.574 2288.53 131.954C2287.03 130.334 2284.5 130.238 2282.88 131.74L2288.32 137.607ZM2282.52 132.068C2280.89 133.564 2280.79 136.094 2282.29 137.72C2283.78 139.346 2286.31 139.452 2287.94 137.956L2282.52 132.068ZM2265.22 155.374C2267.07 154.166 2267.59 151.687 2266.38 149.837C2265.17 147.988 2262.69 147.469 2260.84 148.678L2265.22 155.374ZM2260.43 148.945C2258.58 150.149 2258.06 152.627 2259.26 154.479C2260.47 156.331 2262.94 156.856 2264.8 155.651L2260.43 148.945ZM2240.16 169.805C2242.13 168.8 2242.91 166.39 2241.9 164.423C2240.89 162.456 2238.48 161.676 2236.52 162.682L2240.16 169.805ZM2236.07 162.909C2234.11 163.911 2233.32 166.32 2234.32 168.288C2235.33 170.257 2237.74 171.04 2239.7 170.038L2236.07 162.909ZM2214 181.876C2216.04 181.025 2217 178.682 2216.15 176.644C2215.3 174.605 2212.96 173.642 2210.92 174.493L2214 181.876ZM2210.46 174.685C2208.42 175.533 2207.45 177.875 2208.3 179.914C2209.15 181.954 2211.49 182.92 2213.53 182.071L2210.46 174.685ZM2187.15 192.095C2189.24 191.371 2190.34 189.093 2189.62 187.005C2188.9 184.918 2186.62 183.813 2184.53 184.536L2187.15 192.095ZM2184.06 184.7C2181.97 185.421 2180.86 187.699 2181.58 189.787C2182.31 191.875 2184.58 192.982 2186.67 192.261L2184.06 184.7ZM2159.79 200.758C2161.92 200.146 2163.14 197.929 2162.53 195.807C2161.92 193.684 2159.7 192.46 2157.58 193.072L2159.79 200.758ZM2157.1 193.209C2154.98 193.819 2153.75 196.035 2154.36 198.159C2154.97 200.282 2157.19 201.508 2159.31 200.898L2157.1 193.209ZM2132.05 208.032C2134.2 207.523 2135.52 205.368 2135.02 203.218C2134.51 201.068 2132.35 199.738 2130.2 200.248L2132.05 208.032ZM2129.72 200.362C2127.57 200.869 2126.24 203.023 2126.74 205.173C2127.25 207.323 2129.41 208.655 2131.56 208.148L2129.72 200.362ZM2103.99 213.998C2106.16 213.588 2107.59 211.496 2107.18 209.325C2106.77 207.155 2104.67 205.727 2102.5 206.138L2103.99 213.998ZM2102 206.233C2099.83 206.643 2098.4 208.736 2098.81 210.906C2099.22 213.077 2101.32 214.504 2103.49 214.093L2102 206.233ZM2075.27 220.391C2077.4 219.839 2078.69 217.657 2078.14 215.518C2077.59 213.379 2075.41 212.092 2073.27 212.644L2075.27 220.391ZM2072.76 212.775C2070.62 213.33 2069.34 215.513 2069.89 217.651C2070.45 219.79 2072.63 221.074 2074.77 220.519L2072.76 212.775ZM2047.06 228.724C2049.15 228.023 2050.28 225.756 2049.58 223.661C2048.88 221.566 2046.61 220.437 2044.52 221.138L2047.06 228.724ZM2044.02 221.305C2041.93 222.009 2040.8 224.277 2041.51 226.371C2042.21 228.465 2044.48 229.592 2046.57 228.888L2044.02 221.305ZM2019.6 239.126C2021.63 238.259 2022.57 235.909 2021.71 233.877C2020.84 231.845 2018.49 230.901 2016.46 231.768L2019.6 239.126ZM2015.98 231.974C2013.95 232.844 2013 235.195 2013.87 237.226C2014.74 239.257 2017.1 240.197 2019.13 239.327L2015.98 231.974ZM1993.26 251.876C1995.2 250.811 1995.9 248.378 1994.84 246.443C1993.77 244.508 1991.34 243.803 1989.41 244.868L1993.26 251.876ZM1988.93 245.128C1987 246.198 1986.3 248.632 1987.37 250.565C1988.44 252.497 1990.88 253.197 1992.81 252.128L1988.93 245.128ZM1968.75 267.588C1970.51 266.255 1970.86 263.746 1969.53 261.985C1968.19 260.223 1965.68 259.876 1963.92 261.209L1968.75 267.588ZM1963.5 261.528C1961.74 262.867 1961.41 265.377 1962.74 267.134C1964.08 268.891 1966.59 269.23 1968.35 267.892L1963.5 261.528ZM1948.11 287.321C1949.46 285.574 1949.14 283.062 1947.39 281.709C1945.65 280.356 1943.14 280.675 1941.78 282.421L1948.11 287.321ZM1941.44 282.861C1940.1 284.617 1940.44 287.127 1942.19 288.468C1943.95 289.809 1946.46 289.472 1947.8 287.717L1941.44 282.861ZM1937.93 311.958C1937.97 309.75 1936.21 307.926 1934 307.884C1931.79 307.843 1929.97 309.6 1929.93 311.809L1937.93 311.958ZM1929.92 312.397C1929.92 314.606 1931.7 316.401 1933.91 316.406C1936.12 316.411 1937.92 314.624 1937.92 312.415L1929.92 312.397ZM1948.63 335.365C1947.07 333.805 1944.54 333.807 1942.98 335.371C1941.42 336.935 1941.42 339.468 1942.98 341.028L1948.63 335.365ZM1943.39 341.431C1944.97 342.973 1947.51 342.94 1949.05 341.358C1950.59 339.776 1950.56 337.243 1948.97 335.701L1943.39 341.431ZM1972.82 347.661C1970.68 347.117 1968.5 348.411 1967.95 350.552C1967.41 352.693 1968.7 354.87 1970.85 355.414L1972.82 347.661ZM1971.37 355.546C1973.51 356.079 1975.68 354.773 1976.21 352.629C1976.75 350.485 1975.44 348.315 1973.3 347.782L1971.37 355.546ZM2001.35 351.406C1999.15 351.315 1997.28 353.031 1997.19 355.238C1997.1 357.445 1998.82 359.308 2001.03 359.399L2001.35 351.406ZM2001.57 359.42C2003.77 359.506 2005.63 357.785 2005.72 355.578C2005.8 353.37 2004.08 351.512 2001.87 351.426L2001.57 359.42ZM2030.56 350.959C2028.35 351.095 2026.67 352.992 2026.81 355.197C2026.94 357.402 2028.84 359.08 2031.05 358.944L2030.56 350.959ZM2031.58 358.911C2033.78 358.773 2035.46 356.873 2035.32 354.668C2035.18 352.463 2033.28 350.788 2031.08 350.927L2031.58 358.911ZM2059.8 348.202C2057.6 348.47 2056.04 350.466 2056.31 352.658C2056.58 354.851 2058.58 356.411 2060.77 356.142L2059.8 348.202ZM2061.29 356.078C2063.48 355.808 2065.04 353.811 2064.77 351.618C2064.5 349.426 2062.5 347.868 2060.31 348.138L2061.29 356.078ZM2088.99 343.999C2086.81 344.354 2085.33 346.41 2085.68 348.59C2086.04 350.77 2088.09 352.25 2090.27 351.896L2088.99 343.999ZM2090.79 351.812C2092.97 351.456 2094.45 349.4 2094.09 347.219C2093.73 345.039 2091.68 343.56 2089.5 343.917L2090.79 351.812ZM2118.05 338.846C2115.88 339.259 2114.46 341.353 2114.87 343.523C2115.28 345.693 2117.38 347.118 2119.55 346.705L2118.05 338.846ZM2120.06 346.608C2122.23 346.194 2123.65 344.1 2123.24 341.93C2122.83 339.76 2120.73 338.336 2118.56 338.749L2120.06 346.608ZM2147.04 333.05C2144.88 333.5 2143.49 335.619 2143.94 337.782C2144.39 339.944 2146.51 341.332 2148.67 340.881L2147.04 333.05ZM2149.18 340.775C2151.35 340.324 2152.73 338.205 2152.28 336.042C2151.83 333.88 2149.71 332.492 2147.55 332.944L2149.18 340.775ZM2175.99 326.843C2173.83 327.316 2172.47 329.449 2172.94 331.607C2173.41 333.765 2175.54 335.131 2177.7 334.658L2175.99 326.843ZM2178.21 334.547C2180.37 334.074 2181.73 331.941 2181.26 329.783C2180.79 327.625 2178.66 326.259 2176.5 326.732L2178.21 334.547ZM2204.89 320.456C2202.73 320.933 2201.37 323.069 2201.85 325.226C2202.33 327.383 2204.46 328.744 2206.62 328.266L2204.89 320.456ZM2207.13 328.152C2209.29 327.675 2210.65 325.539 2210.17 323.382C2209.7 321.225 2207.56 319.864 2205.4 320.342L2207.13 328.152ZM2233.9 314.123C2231.73 314.583 2230.36 316.707 2230.82 318.868C2231.27 321.029 2233.4 322.408 2235.56 321.948L2233.9 314.123ZM2236.06 321.842C2238.22 321.383 2239.6 319.259 2239.14 317.098C2238.68 314.937 2236.56 313.557 2234.4 314.016L2236.06 321.842ZM2263.04 308.299C2260.87 308.693 2259.42 310.775 2259.82 312.949C2260.21 315.122 2262.29 316.565 2264.47 316.171L2263.04 308.299ZM2264.95 316.083C2267.13 315.689 2268.57 313.607 2268.17 311.433C2267.78 309.26 2265.7 307.817 2263.52 308.211L2264.95 316.083ZM2291.43 302.541C2289.28 303.013 2287.91 305.145 2288.38 307.303C2288.85 309.461 2290.98 310.829 2293.14 310.357L2291.43 302.541ZM2293.66 310.244C2295.82 309.771 2297.18 307.639 2296.71 305.481C2296.24 303.323 2294.11 301.956 2291.95 302.429L2293.66 310.244ZM2319.77 296.103C2317.62 296.606 2316.28 298.758 2316.79 300.909C2317.29 303.06 2319.44 304.396 2321.59 303.892L2319.77 296.103ZM2322.09 303.776C2324.24 303.272 2325.57 301.12 2325.07 298.969C2324.56 296.818 2322.41 295.483 2320.26 295.987L2322.09 303.776ZM2348.1 289.343C2345.96 289.863 2344.64 292.025 2345.16 294.172C2345.68 296.319 2347.84 297.638 2349.99 297.118L2348.1 289.343ZM2350.48 296.998C2352.63 296.477 2353.95 294.315 2353.43 292.168C2352.91 290.021 2350.74 288.702 2348.6 289.223L2350.48 296.998ZM2376.42 282.414C2374.28 282.943 2372.97 285.111 2373.5 287.256C2374.03 289.4 2376.19 290.711 2378.34 290.182L2376.42 282.414ZM2378.83 290.06C2380.98 289.531 2382.29 287.363 2381.76 285.218C2381.23 283.073 2379.06 281.763 2376.92 282.292L2378.83 290.06ZM2404.74 275.399C2402.6 275.932 2401.29 278.102 2401.83 280.246C2402.36 282.39 2404.53 283.696 2406.67 283.163L2404.74 275.399ZM2407.17 283.04C2409.31 282.507 2410.62 280.337 2410.08 278.193C2409.55 276.049 2407.38 274.743 2405.24 275.276L2407.17 283.04ZM2433.05 268.353C2430.91 268.887 2429.6 271.057 2430.14 273.201C2430.67 275.344 2432.84 276.65 2434.99 276.116L2433.05 268.353ZM2435.49 275.991C2437.63 275.458 2438.93 273.287 2438.4 271.143C2437.87 269 2435.7 267.695 2433.55 268.228L2435.49 275.991ZM2461.34 261.32C2459.2 261.851 2457.89 264.021 2458.42 266.165C2458.95 268.309 2461.12 269.616 2463.27 269.084L2461.34 261.32ZM2463.77 268.961C2465.91 268.429 2467.22 266.26 2466.68 264.116C2466.15 261.972 2463.98 260.664 2461.84 261.196L2463.77 268.961ZM2489.67 254.321C2487.52 254.849 2486.21 257.016 2486.74 259.161C2487.27 261.306 2489.43 262.617 2491.58 262.09L2489.67 254.321ZM2492.07 261.968C2494.22 261.44 2495.53 259.274 2495 257.129C2494.48 254.983 2492.31 253.672 2490.16 254.199L2492.07 261.968ZM2518.01 247.398C2515.86 247.919 2514.54 250.081 2515.06 252.228C2515.58 254.375 2517.75 255.693 2519.89 255.173L2518.01 247.398ZM2520.39 255.052C2522.54 254.531 2523.86 252.369 2523.34 250.222C2522.82 248.075 2520.65 246.757 2518.51 247.277L2520.39 255.052ZM2546.39 240.581C2544.24 241.092 2542.91 243.248 2543.42 245.398C2543.93 247.547 2546.09 248.875 2548.24 248.364L2546.39 240.581ZM2548.73 248.247C2550.88 247.736 2552.21 245.58 2551.7 243.43C2551.19 241.281 2549.03 239.953 2546.88 240.463L2548.73 248.247ZM2574.82 233.913C2572.67 234.41 2571.32 236.558 2571.82 238.711C2572.32 240.863 2574.47 242.205 2576.62 241.707L2574.82 233.913ZM2577.12 241.592C2579.27 241.095 2580.61 238.947 2580.11 236.795C2579.62 234.642 2577.47 233.3 2575.32 233.798L2577.12 241.592ZM2603.29 227.452C2601.13 227.932 2599.77 230.068 2600.25 232.225C2600.73 234.381 2602.87 235.741 2605.03 235.262L2603.29 227.452ZM2605.53 235.15C2607.68 234.671 2609.04 232.535 2608.56 230.378C2608.09 228.222 2605.95 226.862 2603.79 227.341L2605.53 235.15ZM2631.83 221.274C2629.66 221.728 2628.28 223.849 2628.73 226.011C2629.19 228.173 2631.31 229.557 2633.47 229.103L2631.83 221.274ZM2633.98 228.997C2636.14 228.543 2637.52 226.423 2637.07 224.261C2636.62 222.099 2634.5 220.714 2632.33 221.167L2633.98 228.997ZM2660.48 215.489C2658.31 215.907 2656.89 218.004 2657.31 220.173C2657.73 222.343 2659.82 223.763 2661.99 223.345L2660.48 215.489ZM2662.5 223.247C2664.67 222.83 2666.09 220.734 2665.68 218.564C2665.26 216.395 2663.16 214.974 2660.99 215.391L2662.5 223.247ZM2689.33 210.301C2687.15 210.66 2685.67 212.719 2686.03 214.899C2686.39 217.078 2688.45 218.554 2690.63 218.194L2689.33 210.301ZM2691.13 218.111C2693.31 217.753 2694.79 215.695 2694.43 213.515C2694.07 211.336 2692.02 209.859 2689.84 210.217L2691.13 218.111ZM2718.3 206.168C2716.11 206.419 2714.53 208.402 2714.78 210.596C2715.03 212.791 2717.02 214.367 2719.21 214.116L2718.3 206.168ZM2719.71 214.06C2721.91 213.812 2723.49 211.832 2723.24 209.637C2722.99 207.441 2721.01 205.862 2718.82 206.11L2719.71 214.06ZM2747.83 204.485C2745.62 204.472 2743.82 206.253 2743.81 208.462C2743.8 210.672 2745.58 212.472 2747.79 212.485L2747.83 204.485ZM2748.28 212.488C2750.49 212.505 2752.29 210.729 2752.31 208.52C2752.33 206.311 2750.55 204.506 2748.34 204.488L2748.28 212.488ZM2777.24 206.835C2775.06 206.483 2773 207.965 2772.65 210.146C2772.3 212.327 2773.78 214.38 2775.96 214.732L2777.24 206.835ZM2776.46 214.813C2778.64 215.171 2780.69 213.695 2781.05 211.515C2781.41 209.336 2779.93 207.278 2777.75 206.919L2776.46 214.813ZM2805.93 214.23C2803.86 213.475 2801.56 214.546 2800.81 216.622C2800.05 218.698 2801.12 220.993 2803.2 221.748L2805.93 214.23ZM2803.66 221.918C2805.74 222.681 2808.04 221.618 2808.8 219.545C2809.56 217.471 2808.5 215.172 2806.43 214.41L2803.66 221.918ZM2832.66 227.132C2830.77 225.978 2828.31 226.569 2827.16 228.453C2826 230.337 2826.59 232.799 2828.48 233.953L2832.66 227.132ZM2828.89 234.211C2830.77 235.371 2833.24 234.788 2834.4 232.908C2835.56 231.028 2834.98 228.564 2833.1 227.403L2828.89 234.211ZM2856.39 244.813C2854.73 243.35 2852.2 243.507 2850.74 245.162C2849.28 246.818 2849.43 249.346 2851.09 250.808L2856.39 244.813ZM2851.46 251.14C2853.11 252.606 2855.64 252.457 2857.11 250.805C2858.58 249.153 2858.43 246.625 2856.78 245.158L2851.46 251.14ZM2877.14 265.647C2875.67 264.002 2873.14 263.864 2871.49 265.338C2869.85 266.812 2869.71 269.341 2871.18 270.987L2877.14 265.647ZM2871.52 271.36C2872.99 273.008 2875.52 273.15 2877.17 271.678C2878.81 270.206 2878.96 267.677 2877.48 266.03L2871.52 271.36ZM2895.95 287.9C2894.55 286.189 2892.03 285.935 2890.32 287.332C2888.61 288.73 2888.35 291.25 2889.75 292.961L2895.95 287.9ZM2890.07 293.355C2891.47 295.066 2893.99 295.321 2895.7 293.923C2897.41 292.526 2897.67 290.006 2896.27 288.295L2890.07 293.355ZM2914.41 310.016C2912.95 308.358 2910.42 308.196 2908.76 309.656C2907.11 311.115 2906.95 313.643 2908.4 315.301L2914.41 310.016ZM2908.74 315.685C2910.2 317.341 2912.73 317.498 2914.39 316.036C2916.04 314.574 2916.2 312.046 2914.74 310.39L2908.74 315.685ZM2934.42 330.111C2932.74 328.679 2930.21 328.883 2928.78 330.566C2927.35 332.248 2927.55 334.773 2929.24 336.204L2934.42 330.111ZM2929.63 336.542C2931.32 337.967 2933.85 337.754 2935.27 336.066C2936.7 334.378 2936.48 331.855 2934.8 330.429L2929.63 336.542ZM2957.64 345.309C2955.64 344.38 2953.26 345.253 2952.33 347.257C2951.4 349.262 2952.28 351.64 2954.28 352.568L2957.64 345.309ZM2954.76 352.789C2956.77 353.706 2959.14 352.821 2960.06 350.811C2960.98 348.801 2960.09 346.428 2958.08 345.511L2954.76 352.789ZM2984.17 352.618C2981.97 352.381 2980 353.969 2979.76 356.166C2979.52 358.362 2981.11 360.335 2983.31 360.572L2984.17 352.618ZM2983.82 360.626C2986.02 360.851 2987.99 359.253 2988.21 357.055C2988.44 354.857 2986.84 352.893 2984.64 352.668L2983.82 360.626ZM3011.91 351.825C3009.73 352.149 3008.22 354.183 3008.55 356.368C3008.87 358.554 3010.9 360.062 3013.09 359.738L3011.91 351.825ZM3013.6 359.66C3015.79 359.328 3017.29 357.289 3016.96 355.105C3016.63 352.921 3014.59 351.419 3012.4 351.751L3013.6 359.66ZM3039.36 345.217C3037.26 345.896 3036.1 348.151 3036.78 350.253C3037.46 352.355 3039.71 353.509 3041.82 352.83L3039.36 345.217ZM3042.3 352.672C3044.4 351.989 3045.55 349.732 3044.87 347.631C3044.18 345.53 3041.93 344.382 3039.83 345.065L3042.3 352.672ZM3066.13 334.843C3064.11 335.743 3063.2 338.108 3064.1 340.125C3065 342.143 3067.37 343.049 3069.39 342.149L3066.13 334.843ZM3069.5 342.103C3071.59 341.402 3072.72 339.135 3072.02 337.04C3071.32 334.945 3069.05 333.816 3066.96 334.517L3069.5 342.103ZM3093.43 325.65C3091.34 326.348 3090.2 328.613 3090.9 330.709C3091.6 332.805 3093.87 333.938 3095.96 333.24L3093.43 325.65ZM3096.44 333.079C3098.54 332.381 3099.67 330.116 3098.98 328.02C3098.28 325.924 3096.01 324.791 3093.92 325.489L3096.44 333.079ZM3120.43 316.774C3118.33 317.454 3117.18 319.709 3117.86 321.811C3118.54 323.913 3120.79 325.066 3122.89 324.386L3120.43 316.774ZM3123.37 324.233C3125.47 323.553 3126.62 321.298 3125.94 319.196C3125.26 317.094 3123.01 315.941 3120.91 316.621L3123.37 324.233ZM3147.6 308.166C3145.49 308.819 3144.31 311.06 3144.96 313.17C3145.62 315.28 3147.86 316.461 3149.97 315.807L3147.6 308.166ZM3150.45 315.658C3152.56 315.005 3153.74 312.765 3153.09 310.655C3152.44 308.544 3150.2 307.363 3148.09 308.016L3150.45 315.658ZM3174.88 299.931C3172.76 300.553 3171.55 302.776 3172.17 304.896C3172.8 307.015 3175.02 308.229 3177.14 307.607L3174.88 299.931ZM3177.61 307.468C3179.73 306.846 3180.94 304.624 3180.32 302.504C3179.7 300.384 3177.48 299.17 3175.36 299.792L3177.61 307.468ZM3202.27 292.125C3200.14 292.713 3198.89 294.916 3199.48 297.046C3200.07 299.175 3202.27 300.425 3204.4 299.837L3202.27 292.125ZM3204.88 299.706C3207.01 299.118 3208.26 296.916 3207.67 294.786C3207.08 292.656 3204.88 291.406 3202.75 291.994L3204.88 299.706ZM3229.81 284.777C3227.67 285.328 3226.38 287.509 3226.93 289.648C3227.48 291.788 3229.66 293.075 3231.8 292.525L3229.81 284.777ZM3232.28 292.402C3234.42 291.852 3235.71 289.671 3235.16 287.532C3234.61 285.392 3232.43 284.104 3230.29 284.654L3232.28 292.402ZM3257.46 277.927C3255.31 278.438 3253.99 280.595 3254.5 282.744C3255.01 284.893 3257.17 286.221 3259.31 285.71L3257.46 277.927ZM3259.8 285.594C3261.95 285.083 3263.28 282.927 3262.77 280.778C3262.26 278.628 3260.1 277.3 3257.95 277.81L3259.8 285.594ZM3285.23 271.601C3283.07 272.07 3281.7 274.201 3282.17 276.36C3282.64 278.518 3284.78 279.888 3286.93 279.418L3285.23 271.601ZM3287.42 279.312C3289.58 278.843 3290.95 276.712 3290.48 274.554C3290.01 272.395 3287.88 271.025 3285.72 271.494L3287.42 279.312ZM3313.14 265.819C3310.97 266.245 3309.56 268.348 3309.99 270.515C3310.41 272.683 3312.51 274.095 3314.68 273.668L3313.14 265.819ZM3315.17 273.572C3317.34 273.147 3318.75 271.044 3318.32 268.877C3317.9 266.709 3315.8 265.297 3313.63 265.722L3315.17 273.572ZM3341.18 260.604C3339.01 260.985 3337.55 263.058 3337.93 265.234C3338.31 267.41 3340.39 268.865 3342.56 268.484L3341.18 260.604ZM3343.05 268.399C3345.23 268.018 3346.68 265.946 3346.3 263.77C3345.92 261.594 3343.85 260.138 3341.67 260.518L3343.05 268.399ZM3369.31 255.988C3367.12 256.323 3365.62 258.364 3365.96 260.547C3366.29 262.731 3368.33 264.231 3370.52 263.896L3369.31 255.988ZM3371.01 263.821C3373.2 263.488 3374.7 261.447 3374.36 259.263C3374.03 257.08 3371.99 255.579 3369.8 255.913L3371.01 263.821ZM3397.53 251.99C3395.34 252.275 3393.8 254.283 3394.08 256.473C3394.37 258.664 3396.37 260.208 3398.56 259.923L3397.53 251.99ZM3399.06 259.859C3401.25 259.574 3402.79 257.568 3402.51 255.377C3402.22 253.186 3400.22 251.641 3398.03 251.926L3399.06 259.859ZM3425.87 248.627C3423.67 248.862 3422.08 250.833 3422.32 253.03C3422.55 255.227 3424.52 256.817 3426.72 256.582L3425.87 248.627ZM3427.22 256.529C3429.41 256.295 3431.01 254.324 3430.77 252.127C3430.54 249.931 3428.57 248.34 3426.37 248.574L3427.22 256.529ZM3454.23 245.93C3452.03 246.113 3450.4 248.046 3450.58 250.248C3450.76 252.449 3452.7 254.086 3454.9 253.903L3454.23 245.93ZM3455.39 253.861C3457.59 253.679 3459.23 251.747 3459.05 249.545C3458.87 247.344 3456.93 245.707 3454.73 245.889L3455.39 253.861ZM3482.71 243.911C3480.5 244.04 3478.82 245.933 3478.95 248.138C3479.08 250.343 3480.97 252.026 3483.18 251.897L3482.71 243.911ZM3483.67 251.868C3485.87 251.74 3487.56 249.848 3487.43 247.642C3487.3 245.437 3485.41 243.753 3483.2 243.882L3483.67 251.868ZM3511.18 242.596C3508.97 242.67 3507.24 244.52 3507.31 246.728C3507.39 248.936 3509.24 250.666 3511.44 250.592L3511.18 242.596ZM3511.94 250.575C3514.15 250.502 3515.88 248.653 3515.81 246.445C3515.73 244.237 3513.88 242.506 3511.68 242.579L3511.94 250.575ZM3539.72 242.002C3537.51 242.02 3535.73 243.825 3535.75 246.034C3535.77 248.243 3537.57 250.019 3539.78 250.002L3539.72 242.002ZM3540.29 249.998C3542.5 249.981 3544.28 248.177 3544.26 245.968C3544.24 243.759 3542.44 241.982 3540.23 241.998L3540.29 249.998ZM3569.18 242.116C3566.97 242.082 3565.15 243.845 3565.12 246.054C3565.08 248.262 3566.84 250.081 3569.05 250.115L3569.18 242.116ZM3569.56 250.123C3571.77 250.159 3573.59 248.396 3573.63 246.188C3573.66 243.979 3571.9 242.16 3569.69 242.124L3569.56 250.123ZM3598.6 242.909C3596.4 242.825 3594.54 244.546 3594.45 246.754C3594.37 248.961 3596.09 250.819 3598.3 250.904L3598.6 242.909ZM3598.81 250.923C3601.02 251.009 3602.88 249.288 3602.96 247.081C3603.05 244.873 3601.33 243.014 3599.12 242.929L3598.81 250.923ZM3627.99 244.353C3625.79 244.221 3623.89 245.902 3623.76 248.107C3623.63 250.312 3625.31 252.207 3627.51 252.339L3627.99 244.353ZM3628.03 252.369C3630.23 252.502 3632.13 250.822 3632.26 248.617C3632.39 246.412 3630.71 244.517 3628.51 244.384L3628.03 252.369ZM3657.33 246.408C3655.13 246.231 3653.2 247.874 3653.03 250.076C3652.85 252.278 3654.49 254.206 3656.7 254.382L3657.33 246.408ZM3657.21 254.423C3659.41 254.6 3661.34 252.958 3661.52 250.756C3661.69 248.554 3660.05 246.626 3657.85 246.449L3657.21 254.423ZM3686.63 249.023C3684.43 248.807 3682.47 250.414 3682.25 252.613C3682.04 254.811 3683.64 256.769 3685.84 256.985L3686.63 249.023ZM3686.36 257.035C3688.56 257.252 3690.51 255.645 3690.73 253.447C3690.95 251.248 3689.34 249.29 3687.14 249.074L3686.36 257.035ZM3715.86 252.134C3713.67 251.884 3711.69 253.46 3711.44 255.655C3711.19 257.85 3712.76 259.832 3714.96 260.083L3715.86 252.134ZM3715.47 260.142C3717.67 260.393 3719.65 258.817 3719.9 256.622C3720.15 254.427 3718.58 252.444 3716.38 252.193L3715.47 260.142ZM3745.05 255.661C3742.86 255.383 3740.86 256.934 3740.58 259.125C3740.3 261.317 3741.85 263.319 3744.04 263.597L3745.05 255.661ZM3744.56 263.662C3746.75 263.941 3748.75 262.391 3749.03 260.199C3749.31 258.008 3747.76 256.005 3745.56 255.726L3744.56 263.662ZM3774.18 259.503C3772 259.205 3769.98 260.738 3769.68 262.927C3769.38 265.116 3770.92 267.132 3773.11 267.43L3774.18 259.503ZM3773.62 267.499C3775.81 267.798 3777.82 266.265 3778.12 264.076C3778.42 261.887 3776.89 259.871 3774.7 259.573L3773.62 267.499ZM3803.27 263.538C3801.09 263.23 3799.06 264.755 3798.76 266.942C3798.45 269.13 3799.97 271.152 3802.16 271.46L3803.27 263.538ZM3802.67 271.532C3804.86 271.839 3806.88 270.315 3807.19 268.127C3807.5 265.939 3805.97 263.917 3803.79 263.609L3802.67 271.532ZM3832.33 267.617C3830.14 267.312 3828.12 268.839 3827.82 271.027C3827.51 273.215 3829.04 275.236 3831.23 275.54L3832.33 267.617ZM3831.73 275.611C3833.92 275.916 3835.94 274.389 3836.25 272.201C3836.55 270.013 3835.03 267.992 3832.84 267.688L3831.73 275.611ZM3861.36 271.56C3859.17 271.273 3857.16 272.816 3856.87 275.006C3856.59 277.197 3858.13 279.205 3860.32 279.492L3861.36 271.56ZM3860.83 279.559C3863.02 279.846 3865.03 278.303 3865.31 276.112C3865.6 273.922 3864.06 271.914 3861.87 271.627L3860.83 279.559ZM3890.43 275.158C3888.23 274.906 3886.25 276.481 3886 278.676C3885.74 280.87 3887.32 282.854 3889.51 283.106L3890.43 275.158ZM3890.03 283.165C3892.22 283.416 3894.21 281.841 3894.46 279.646C3894.71 277.451 3893.13 275.468 3890.94 275.217L3890.03 283.165ZM3919.51 278.145C3917.31 277.95 3915.37 279.575 3915.17 281.776C3914.98 283.976 3916.6 285.918 3918.8 286.114L3919.51 278.145ZM3919.32 286.159C3921.52 286.353 3923.46 284.727 3923.65 282.526C3923.85 280.326 3922.22 278.384 3920.02 278.19L3919.32 286.159ZM3948.63 280.213C3946.43 280.1 3944.55 281.797 3944.43 284.003C3944.32 286.21 3946.02 288.09 3948.22 288.203L3948.63 280.213ZM3948.74 288.229C3950.95 288.34 3952.83 286.642 3952.94 284.436C3953.05 282.229 3951.35 280.35 3949.14 280.239L3948.74 288.229ZM3977.75 281C3975.54 280.999 3973.74 282.789 3973.74 284.998C3973.74 287.207 3975.53 288.999 3977.74 289L3977.75 281ZM4 370.391C4.07758 370.391 4.15531 370.391 4.23319 370.391L4.22416 362.391C4.14927 362.391 4.07455 362.391 4 362.391V370.391ZM31.8392 369.151C32.0095 369.138 32.1802 369.125 32.3512 369.112L31.7509 361.135C31.5818 361.148 31.4131 361.16 31.2448 361.173L31.8392 369.151ZM59.6206 366.639C59.7806 366.623 59.9407 366.606 60.1011 366.59L59.2809 358.632C59.1214 358.648 58.9621 358.665 58.8029 358.681L59.6206 366.639ZM87.359 363.573C87.5192 363.554 87.6794 363.535 87.8398 363.517L86.9098 355.571C86.7499 355.59 86.5901 355.608 86.4304 355.627L87.359 363.573ZM115.078 360.217C115.237 360.197 115.396 360.177 115.555 360.157L114.566 352.219C114.407 352.239 114.249 352.258 114.09 352.278L115.078 360.217ZM142.693 356.719C142.856 356.698 143.02 356.677 143.183 356.656L142.164 348.721C142.001 348.742 141.837 348.763 141.674 348.784L142.693 356.719ZM170.305 353.148C170.466 353.128 170.627 353.107 170.788 353.086L169.758 345.152C169.597 345.173 169.436 345.194 169.275 345.215L170.305 353.148ZM197.953 349.558C198.116 349.537 198.279 349.516 198.442 349.495L197.414 341.561C197.251 341.582 197.088 341.603 196.925 341.624L197.953 349.558ZM225.543 346.002C225.704 345.981 225.865 345.96 226.026 345.94L225.011 338.004C224.85 338.025 224.689 338.046 224.527 338.066L225.543 346.002ZM253.17 342.502C253.332 342.482 253.494 342.461 253.657 342.441L252.663 334.503C252.501 334.523 252.339 334.544 252.176 334.564L253.17 342.502ZM280.8 339.094C280.961 339.074 281.122 339.055 281.283 339.035L280.32 331.094C280.159 331.113 279.997 331.133 279.836 331.152L280.8 339.094ZM308.425 335.807C308.587 335.788 308.749 335.769 308.91 335.75L307.985 327.804C307.823 327.823 307.661 327.841 307.5 327.86L308.425 335.807ZM336.083 332.663C336.245 332.645 336.407 332.627 336.57 332.61L335.691 324.658C335.528 324.676 335.366 324.694 335.204 324.712L336.083 332.663ZM363.744 329.696C363.905 329.679 364.067 329.663 364.229 329.646L363.405 321.688C363.242 321.705 363.08 321.722 362.918 321.739L363.744 329.696ZM391.424 326.934C391.586 326.918 391.748 326.903 391.91 326.887L391.149 318.924C390.987 318.939 390.824 318.955 390.662 318.97L391.424 326.934ZM419.114 324.411C419.275 324.397 419.437 324.383 419.599 324.369L418.912 316.398C418.75 316.412 418.588 316.426 418.425 316.44L419.114 324.411ZM446.84 322.163C447.003 322.151 447.165 322.138 447.327 322.126L446.726 314.149C446.564 314.161 446.401 314.173 446.238 314.186L446.84 322.163ZM474.573 320.238C474.734 320.228 474.896 320.218 475.058 320.208L474.557 312.223C474.395 312.233 474.232 312.244 474.07 312.254L474.573 320.238ZM502.303 318.69C502.466 318.682 502.63 318.674 502.793 318.666L502.409 310.675C502.245 310.683 502.081 310.691 501.917 310.699L502.303 318.69ZM530.088 317.582C530.25 317.577 530.412 317.572 530.574 317.567L530.33 309.571C530.167 309.576 530.003 309.581 529.84 309.586L530.088 317.582ZM557.8 317.002C557.88 317.001 557.96 317.001 558.04 317L557.96 309C557.879 309.001 557.798 309.002 557.718 309.003L557.8 317.002ZM558.04 317C558.125 316.999 558.21 316.998 558.295 316.997L558.218 308.998C558.132 308.998 558.046 308.999 557.96 309L558.04 317ZM586.823 317.269C586.992 317.274 587.162 317.279 587.331 317.283L587.562 309.287C587.39 309.282 587.219 309.277 587.048 309.272L586.823 317.269ZM615.845 318.603C616.014 318.613 616.183 318.624 616.353 318.635L616.862 310.651C616.691 310.64 616.52 310.629 616.349 310.618L615.845 318.603ZM644.822 320.896C644.991 320.912 645.16 320.928 645.329 320.944L646.086 312.98C645.916 312.963 645.745 312.947 645.575 312.931L644.822 320.896ZM673.734 324.039C673.903 324.06 674.071 324.081 674.24 324.101L675.215 316.161C675.045 316.14 674.875 316.119 674.705 316.099L673.734 324.039ZM702.571 327.924C702.739 327.949 702.908 327.973 703.076 327.998L704.238 320.083C704.069 320.058 703.9 320.033 703.731 320.008L702.571 327.924ZM731.331 332.439C731.499 332.467 731.667 332.495 731.834 332.523L733.154 324.633C732.985 324.605 732.817 324.577 732.648 324.548L731.331 332.439ZM760.02 337.474C760.188 337.504 760.355 337.535 760.522 337.566L761.968 329.698C761.8 329.667 761.632 329.636 761.463 329.605L760.02 337.474ZM788.654 342.914C788.822 342.947 788.99 342.98 789.158 343.012L790.697 335.162C790.528 335.129 790.36 335.096 790.192 335.063L788.654 342.914ZM817.254 348.641C817.421 348.675 817.589 348.709 817.757 348.743L819.355 340.905C819.188 340.87 819.02 340.836 818.852 340.802L817.254 348.641ZM845.841 354.526C846.009 354.561 846.176 354.595 846.344 354.63L847.966 346.796C847.798 346.761 847.631 346.727 847.463 346.692L845.841 354.526ZM874.445 360.428C874.613 360.462 874.78 360.497 874.947 360.531L876.551 352.693C876.384 352.659 876.217 352.625 876.05 352.591L874.445 360.428ZM903.096 366.185C903.263 366.218 903.43 366.25 903.597 366.283L905.135 358.432C904.968 358.4 904.801 358.367 904.635 358.334L903.096 366.185ZM931.834 371.606C932.003 371.637 932.173 371.667 932.342 371.697L933.756 363.823C933.587 363.793 933.419 363.763 933.25 363.732L931.834 371.606ZM960.739 376.463C960.908 376.489 961.078 376.515 961.247 376.541L962.464 368.634C962.296 368.609 962.128 368.583 961.96 368.557L960.739 376.463ZM989.781 380.443C989.866 380.453 989.95 380.463 990.035 380.473L990.965 372.527C990.882 372.517 990.798 372.508 990.715 372.498L989.781 380.443ZM990.035 380.473C990.12 380.483 990.205 380.493 990.289 380.503L991.22 372.557C991.135 372.547 991.05 372.537 990.965 372.527L990.035 380.473ZM1018.75 383.819C1018.92 383.838 1019.09 383.857 1019.26 383.876L1020.16 375.927C1019.99 375.908 1019.82 375.889 1019.65 375.869L1018.75 383.819ZM1047.82 386.851C1047.99 386.867 1048.16 386.882 1048.33 386.898L1049.06 378.932C1048.89 378.916 1048.73 378.901 1048.56 378.885L1047.82 386.851ZM1077.01 389.085C1077.18 389.095 1077.35 389.105 1077.52 389.115L1077.99 381.128C1077.82 381.119 1077.65 381.109 1077.48 381.099L1077.01 389.085ZM1106.31 390.175C1106.49 390.177 1106.66 390.18 1106.83 390.182L1106.95 382.183C1106.77 382.181 1106.6 382.178 1106.43 382.175L1106.31 390.175ZM1135.64 389.932C1135.81 389.927 1135.98 389.921 1136.15 389.916L1135.89 381.92C1135.72 381.925 1135.55 381.931 1135.38 381.936L1135.64 389.932ZM1164.91 388.327C1165.08 388.314 1165.25 388.3 1165.42 388.287L1164.8 380.312C1164.63 380.325 1164.46 380.338 1164.29 380.351L1164.91 388.327ZM1194.08 385.433C1194.25 385.413 1194.42 385.392 1194.59 385.372L1193.63 377.429C1193.46 377.45 1193.29 377.47 1193.13 377.49L1194.08 385.433ZM1223.11 381.375C1223.28 381.349 1223.45 381.322 1223.62 381.296L1222.36 373.395C1222.19 373.421 1222.03 373.448 1221.86 373.474L1223.11 381.375ZM1251.93 376.309C1252.09 376.276 1252.26 376.244 1252.43 376.211L1250.92 368.356C1250.75 368.389 1250.58 368.421 1250.41 368.453L1251.93 376.309ZM1280.61 370.352C1280.7 370.333 1280.78 370.314 1280.87 370.296L1279.13 362.486C1279.05 362.505 1278.96 362.524 1278.88 362.543L1280.61 370.352ZM1280.87 370.296C1280.95 370.277 1281.04 370.258 1281.12 370.239L1279.38 362.431C1279.3 362.449 1279.22 362.468 1279.13 362.486L1280.87 370.296ZM1308.87 363.323C1309.04 363.277 1309.2 363.232 1309.37 363.186L1307.22 355.479C1307.06 355.523 1306.9 355.568 1306.74 355.613L1308.87 363.323ZM1336.55 354.8C1336.71 354.747 1336.87 354.693 1337.02 354.639L1334.44 347.069C1334.28 347.122 1334.13 347.175 1333.97 347.228L1336.55 354.8ZM1363.78 344.541C1363.94 344.476 1364.1 344.411 1364.25 344.345L1361.18 336.96C1361.03 337.024 1360.87 337.088 1360.72 337.152L1363.78 344.541ZM1390.2 332.488C1390.36 332.412 1390.51 332.335 1390.66 332.258L1387.08 325.107C1386.93 325.182 1386.78 325.257 1386.62 325.333L1390.2 332.488ZM1415.69 318.559C1415.84 318.471 1415.99 318.383 1416.14 318.294L1412.04 311.425C1411.89 311.512 1411.75 311.598 1411.6 311.685L1415.69 318.559ZM1440.13 302.775C1440.27 302.678 1440.4 302.582 1440.54 302.485L1435.95 295.932C1435.82 296.027 1435.68 296.121 1435.55 296.216L1440.13 302.775ZM1463.37 285.333C1463.51 285.227 1463.64 285.122 1463.77 285.016L1458.75 278.783C1458.62 278.887 1458.49 278.991 1458.37 279.095L1463.37 285.333ZM1485.46 266.524C1485.59 266.411 1485.72 266.297 1485.84 266.184L1480.49 260.238C1480.37 260.35 1480.24 260.461 1480.12 260.573L1485.46 266.524ZM1506.58 246.713C1506.71 246.595 1506.83 246.477 1506.95 246.359L1501.37 240.629C1501.25 240.746 1501.13 240.863 1501 240.98L1506.58 246.713ZM1527.04 226.32C1527.15 226.199 1527.27 226.079 1527.39 225.959L1521.69 220.346C1521.57 220.466 1521.45 220.585 1521.34 220.705L1527.04 226.32ZM1547.2 205.76C1547.32 205.64 1547.44 205.52 1547.55 205.4L1541.85 199.791C1541.73 199.911 1541.61 200.031 1541.5 200.151L1547.2 205.76ZM1567.49 185.437C1567.61 185.319 1567.73 185.202 1567.85 185.085L1562.25 179.369C1562.13 179.487 1562.01 179.605 1561.89 179.723L1567.49 185.437ZM1588.28 165.73C1588.4 165.617 1588.53 165.504 1588.65 165.392L1583.27 159.476C1583.14 159.59 1583.01 159.704 1582.89 159.818L1588.28 165.73ZM1609.86 146.984C1609.99 146.878 1610.12 146.772 1610.25 146.666L1605.17 140.486C1605.04 140.594 1604.91 140.701 1604.78 140.809L1609.86 146.984ZM1632.42 129.493C1632.56 129.395 1632.69 129.297 1632.83 129.199L1628.13 122.724C1627.99 122.824 1627.85 122.923 1627.72 123.023L1632.42 129.493ZM1656.03 113.468C1656.17 113.38 1656.31 113.291 1656.45 113.203L1652.19 106.434C1652.05 106.524 1651.9 106.614 1651.76 106.704L1656.03 113.468ZM1680.68 99.0297C1680.75 98.9893 1680.83 98.9489 1680.9 98.9086L1677.1 91.8728C1677.02 91.914 1676.94 91.9551 1676.87 91.9963L1680.68 99.0297ZM1680.9 98.9086C1680.97 98.8702 1681.05 98.8319 1681.12 98.7937L1677.31 91.7561C1677.24 91.795 1677.17 91.8339 1677.1 91.8728L1680.9 98.9086ZM1705.48 86.4205C1705.63 86.3508 1705.78 86.2811 1705.92 86.2115L1702.48 78.9884C1702.33 79.059 1702.19 79.1296 1702.04 79.2003L1705.48 86.4205ZM1730.9 75.0107C1731.05 74.9475 1731.2 74.8843 1731.35 74.8212L1728.24 67.4493C1728.09 67.5133 1727.93 67.5772 1727.78 67.6412L1730.9 75.0107ZM1756.81 64.6947C1756.96 64.6375 1757.11 64.5803 1757.26 64.5231L1754.46 57.0307C1754.31 57.0885 1754.15 57.1463 1754 57.2042L1756.81 64.6947ZM1783.12 55.3881C1783.28 55.3365 1783.43 55.2849 1783.59 55.2333L1781.06 47.642C1780.9 47.6941 1780.75 47.7462 1780.59 47.7983L1783.12 55.3881ZM1809.76 47.0209C1809.92 46.9746 1810.08 46.9283 1810.23 46.882L1807.97 39.2088C1807.81 39.2555 1807.65 39.3022 1807.49 39.349L1809.76 47.0209ZM1836.68 39.5363C1836.83 39.495 1836.99 39.4537 1837.15 39.4125L1835.13 31.671C1834.97 31.7126 1834.81 31.7542 1834.65 31.7959L1836.68 39.5363ZM1863.81 32.8895C1863.97 32.853 1864.13 32.8165 1864.29 32.7801L1862.51 24.9812C1862.35 25.0179 1862.19 25.0547 1862.03 25.0915L1863.81 32.8895ZM1891.14 27.0465C1891.3 27.0147 1891.46 26.9828 1891.62 26.951L1890.06 19.1039C1889.9 19.1359 1889.74 19.168 1889.58 19.2001L1891.14 27.0465ZM1918.62 21.984C1918.78 21.9567 1918.94 21.9294 1919.1 21.9022L1917.77 14.0144C1917.61 14.0419 1917.44 14.0694 1917.28 14.0969L1918.62 21.984ZM1946.23 17.6887C1946.39 17.6658 1946.55 17.643 1946.71 17.6202L1945.6 9.69856C1945.43 9.72152 1945.27 9.74453 1945.11 9.76758L1946.23 17.6887ZM1973.95 14.1552C1974.12 14.1367 1974.28 14.1182 1974.44 14.0998L1973.55 6.15032C1973.38 6.16889 1973.22 6.18751 1973.05 6.20617L1973.95 14.1552ZM2001.77 11.3928C2001.94 11.3789 2002.1 11.365 2002.27 11.3512L2001.59 3.37967C2001.43 3.39362 2001.26 3.40762 2001.1 3.42166L2001.77 11.3928ZM2029.66 9.42307C2029.83 9.4139 2029.99 9.40477 2030.15 9.39569L2029.71 1.40797C2029.55 1.41713 2029.38 1.42634 2029.22 1.43559L2029.66 9.42307ZM2057.59 8.28159C2057.75 8.27743 2057.92 8.27331 2058.08 8.26924L2057.88 0.271721C2057.72 0.275829 2057.55 0.279983 2057.39 0.284185L2057.59 8.28159ZM2085.52 8.02207C2085.68 8.02326 2085.84 8.02451 2086.01 8.0258L2086.07 0.0260485C2085.91 0.0247449 2085.74 0.0234901 2085.58 0.0222843L2085.52 8.02207ZM2113.39 8.7209C2113.56 8.72792 2113.72 8.73499 2113.88 8.74211L2114.23 0.749901C2114.07 0.742701 2113.91 0.735551 2113.74 0.728454L2113.39 8.7209ZM2141.2 10.4892C2141.36 10.5032 2141.53 10.5173 2141.69 10.5314L2142.38 2.5605C2142.21 2.5462 2142.04 2.53195 2141.87 2.51777L2141.2 10.4892ZM2168.98 13.5041C2169.14 13.5259 2169.3 13.5476 2169.46 13.5695L2170.53 5.64136C2170.37 5.61917 2170.2 5.59706 2170.04 5.575L2168.98 13.5041ZM2196.39 17.9812C2196.54 18.0118 2196.7 18.0425 2196.86 18.0733L2198.4 10.2237C2198.24 10.1923 2198.08 10.161 2197.92 10.1297L2196.39 17.9812ZM2223.44 24.3251C2223.6 24.369 2223.75 24.413 2223.91 24.457L2226.07 16.7541C2225.91 16.7089 2225.75 16.6637 2225.59 16.6187L2223.44 24.3251ZM2249.51 33.0719C2249.66 33.1341 2249.82 33.1964 2249.97 33.2589L2252.98 25.8466C2252.82 25.7816 2252.66 25.7168 2252.5 25.6521L2249.51 33.0719ZM2273.91 45.2863C2274.05 45.3741 2274.19 45.4621 2274.33 45.5502L2278.61 38.7946C2278.46 38.7004 2278.31 38.6064 2278.16 38.5126L2273.91 45.2863ZM2294.28 62.6091C2294.38 62.7295 2294.48 62.8501 2294.58 62.9708L2300.8 57.945C2300.69 57.8082 2300.58 57.6716 2300.47 57.5354L2294.28 62.6091ZM2305.01 85.8035C2305.02 85.8785 2305.03 85.9537 2305.04 86.0288L2312.96 84.8794C2312.95 84.7906 2312.93 84.7018 2312.92 84.613L2305.01 85.8035ZM2305.04 86.0288C2305.05 86.1032 2305.06 86.1775 2305.07 86.2519L2313 85.1545C2312.98 85.0628 2312.97 84.9711 2312.96 84.8794L2305.04 86.0288ZM2299.92 110.723C2299.85 110.86 2299.77 110.998 2299.7 111.136L2306.7 115.008C2306.79 114.851 2306.87 114.694 2306.96 114.537L2299.92 110.723ZM2282.88 131.74C2282.76 131.849 2282.64 131.959 2282.52 132.068L2287.94 137.956C2288.06 137.84 2288.19 137.723 2288.32 137.607L2282.88 131.74ZM2260.84 148.678C2260.71 148.767 2260.57 148.856 2260.43 148.945L2264.8 155.651C2264.94 155.559 2265.08 155.467 2265.22 155.374L2260.84 148.678ZM2236.52 162.682C2236.37 162.758 2236.22 162.833 2236.07 162.909L2239.7 170.038C2239.86 169.96 2240.01 169.883 2240.16 169.805L2236.52 162.682ZM2210.92 174.493C2210.77 174.557 2210.61 174.621 2210.46 174.685L2213.53 182.071C2213.69 182.006 2213.85 181.941 2214 181.876L2210.92 174.493ZM2184.53 184.536C2184.37 184.591 2184.22 184.645 2184.06 184.7L2186.67 192.261C2186.83 192.206 2186.99 192.15 2187.15 192.095L2184.53 184.536ZM2157.58 193.072C2157.42 193.118 2157.26 193.163 2157.1 193.209L2159.31 200.898C2159.47 200.852 2159.63 200.805 2159.79 200.758L2157.58 193.072ZM2130.2 200.248C2130.04 200.286 2129.88 200.324 2129.72 200.362L2131.56 208.148C2131.72 208.109 2131.88 208.071 2132.05 208.032L2130.2 200.248ZM2102.5 206.138C2102.42 206.153 2102.34 206.168 2102.26 206.184L2103.74 214.045C2103.82 214.03 2103.91 214.014 2103.99 213.998L2102.5 206.138ZM2102.26 206.184C2102.17 206.2 2102.09 206.216 2102 206.233L2103.49 214.093C2103.57 214.077 2103.66 214.061 2103.74 214.045L2102.26 206.184ZM2073.27 212.644C2073.1 212.688 2072.93 212.731 2072.76 212.775L2074.77 220.519C2074.93 220.476 2075.1 220.433 2075.27 220.391L2073.27 212.644ZM2044.52 221.138C2044.35 221.194 2044.19 221.249 2044.02 221.305L2046.57 228.888C2046.73 228.833 2046.9 228.779 2047.06 228.724L2044.52 221.138ZM2016.46 231.768C2016.3 231.836 2016.14 231.905 2015.98 231.974L2019.13 239.327C2019.28 239.26 2019.44 239.193 2019.6 239.126L2016.46 231.768ZM1989.41 244.868C1989.25 244.955 1989.09 245.041 1988.93 245.128L1992.81 252.128C1992.96 252.044 1993.11 251.96 1993.26 251.876L1989.41 244.868ZM1963.92 261.209C1963.78 261.315 1963.64 261.422 1963.5 261.528L1968.35 267.892C1968.48 267.79 1968.62 267.689 1968.75 267.588L1963.92 261.209ZM1941.78 282.421C1941.67 282.568 1941.56 282.714 1941.44 282.861L1947.8 287.717C1947.9 287.585 1948 287.453 1948.11 287.321L1941.78 282.421ZM1929.93 311.809C1929.92 312.005 1929.92 312.201 1929.92 312.397L1937.92 312.415C1937.92 312.263 1937.92 312.111 1937.93 311.958L1929.93 311.809ZM1942.98 341.028C1943.05 341.096 1943.12 341.164 1943.19 341.232L1948.81 335.542C1948.75 335.483 1948.69 335.424 1948.63 335.365L1942.98 341.028ZM1943.19 341.232C1943.26 341.299 1943.32 341.365 1943.39 341.431L1948.97 335.701C1948.92 335.648 1948.87 335.595 1948.81 335.542L1943.19 341.232ZM1970.85 355.414C1971.02 355.459 1971.19 355.502 1971.37 355.546L1973.3 347.782C1973.14 347.742 1972.98 347.702 1972.82 347.661L1970.85 355.414ZM2001.03 359.399C2001.21 359.406 2001.39 359.413 2001.57 359.42L2001.87 351.426C2001.7 351.42 2001.53 351.413 2001.35 351.406L2001.03 359.399ZM2031.05 358.944C2031.22 358.933 2031.4 358.922 2031.58 358.911L2031.08 350.927C2030.9 350.938 2030.73 350.949 2030.56 350.959L2031.05 358.944ZM2060.77 356.142C2060.94 356.121 2061.12 356.1 2061.29 356.078L2060.31 348.138C2060.14 348.159 2059.97 348.181 2059.8 348.202L2060.77 356.142ZM2090.27 351.896C2090.44 351.868 2090.62 351.84 2090.79 351.812L2089.5 343.917C2089.33 343.944 2089.16 343.972 2088.99 343.999L2090.27 351.896ZM2119.55 346.705C2119.72 346.673 2119.89 346.64 2120.06 346.608L2118.56 338.749C2118.39 338.781 2118.22 338.814 2118.05 338.846L2119.55 346.705ZM2148.67 340.881C2148.84 340.846 2149.01 340.81 2149.18 340.775L2147.55 332.944C2147.38 332.979 2147.21 333.014 2147.04 333.05L2148.67 340.881ZM2177.7 334.658C2177.87 334.621 2178.04 334.584 2178.21 334.547L2176.5 326.732C2176.33 326.769 2176.16 326.806 2175.99 326.843L2177.7 334.658ZM2206.62 328.266C2206.79 328.228 2206.96 328.19 2207.13 328.152L2205.4 320.342C2205.23 320.38 2205.06 320.418 2204.89 320.456L2206.62 328.266ZM2235.56 321.948C2235.73 321.913 2235.89 321.877 2236.06 321.842L2234.4 314.016C2234.23 314.052 2234.06 314.087 2233.9 314.123L2235.56 321.948ZM2264.47 316.171C2264.55 316.156 2264.63 316.141 2264.71 316.126L2263.29 308.254C2263.21 308.269 2263.12 308.284 2263.04 308.299L2264.47 316.171ZM2264.71 316.126C2264.79 316.112 2264.87 316.098 2264.95 316.083L2263.52 308.211C2263.45 308.226 2263.37 308.24 2263.29 308.254L2264.71 316.126ZM2293.14 310.357C2293.31 310.319 2293.49 310.282 2293.66 310.244L2291.95 302.429C2291.78 302.466 2291.61 302.504 2291.43 302.541L2293.14 310.357ZM2321.59 303.892C2321.76 303.854 2321.92 303.815 2322.09 303.776L2320.26 295.987C2320.1 296.026 2319.93 296.064 2319.77 296.103L2321.59 303.892ZM2349.99 297.118C2350.15 297.078 2350.32 297.038 2350.48 296.998L2348.6 289.223C2348.43 289.263 2348.27 289.303 2348.1 289.343L2349.99 297.118ZM2378.34 290.182C2378.5 290.141 2378.67 290.1 2378.83 290.06L2376.92 282.292C2376.75 282.333 2376.59 282.374 2376.42 282.414L2378.34 290.182ZM2406.67 283.163C2406.84 283.122 2407 283.081 2407.17 283.04L2405.24 275.276C2405.07 275.317 2404.91 275.358 2404.74 275.399L2406.67 283.163ZM2434.99 276.116C2435.15 276.074 2435.32 276.033 2435.49 275.991L2433.55 268.228C2433.39 268.27 2433.22 268.311 2433.05 268.353L2434.99 276.116ZM2463.27 269.084C2463.43 269.043 2463.6 269.002 2463.77 268.961L2461.84 261.196C2461.67 261.237 2461.51 261.279 2461.34 261.32L2463.27 269.084ZM2491.58 262.09C2491.74 262.049 2491.91 262.009 2492.07 261.968L2490.16 254.199C2490 254.24 2489.83 254.281 2489.67 254.321L2491.58 262.09ZM2519.89 255.173C2520.06 255.132 2520.23 255.092 2520.39 255.052L2518.51 247.277C2518.34 247.317 2518.17 247.358 2518.01 247.398L2519.89 255.173ZM2548.24 248.364C2548.4 248.325 2548.57 248.286 2548.73 248.247L2546.88 240.463C2546.72 240.502 2546.55 240.542 2546.39 240.581L2548.24 248.364ZM2576.62 241.707C2576.79 241.669 2576.95 241.631 2577.12 241.592L2575.32 233.798C2575.15 233.836 2574.98 233.874 2574.82 233.913L2576.62 241.707ZM2605.03 235.262C2605.19 235.224 2605.36 235.187 2605.53 235.15L2603.79 227.341C2603.62 227.378 2603.46 227.415 2603.29 227.452L2605.03 235.262ZM2633.47 229.103C2633.64 229.068 2633.81 229.032 2633.98 228.997L2632.33 221.167C2632.16 221.203 2632 221.238 2631.83 221.274L2633.47 229.103ZM2661.99 223.345C2662.16 223.312 2662.33 223.28 2662.5 223.247L2660.99 215.391C2660.82 215.424 2660.65 215.456 2660.48 215.489L2661.99 223.345ZM2690.63 218.194C2690.8 218.166 2690.96 218.139 2691.13 218.111L2689.84 210.217C2689.67 210.245 2689.5 210.273 2689.33 210.301L2690.63 218.194ZM2719.21 214.116C2719.29 214.107 2719.37 214.098 2719.45 214.089L2718.55 206.14C2718.47 206.149 2718.38 206.159 2718.3 206.168L2719.21 214.116ZM2719.45 214.089C2719.54 214.079 2719.62 214.069 2719.71 214.06L2718.82 206.11C2718.73 206.12 2718.64 206.13 2718.55 206.14L2719.45 214.089ZM2747.79 212.485C2747.95 212.485 2748.11 212.487 2748.28 212.488L2748.34 204.488C2748.17 204.487 2748 204.486 2747.83 204.485L2747.79 212.485ZM2775.96 214.732C2776.13 214.759 2776.29 214.786 2776.46 214.813L2777.75 206.919C2777.58 206.891 2777.41 206.863 2777.24 206.835L2775.96 214.732ZM2803.2 221.748C2803.36 221.805 2803.51 221.861 2803.66 221.918L2806.43 214.41C2806.26 214.35 2806.1 214.29 2805.93 214.23L2803.2 221.748ZM2828.48 233.953C2828.62 234.039 2828.76 234.125 2828.89 234.211L2833.1 227.403C2832.95 227.313 2832.8 227.222 2832.66 227.132L2828.48 233.953ZM2851.09 250.808C2851.21 250.919 2851.34 251.029 2851.46 251.14L2856.78 245.158C2856.65 245.043 2856.52 244.928 2856.39 244.813L2851.09 250.808ZM2871.18 270.987C2871.3 271.111 2871.41 271.236 2871.52 271.36L2877.48 266.03C2877.37 265.902 2877.26 265.775 2877.14 265.647L2871.18 270.987ZM2889.75 292.961C2889.86 293.092 2889.97 293.224 2890.07 293.355L2896.27 288.295C2896.16 288.163 2896.05 288.032 2895.95 287.9L2889.75 292.961ZM2908.4 315.301C2908.52 315.429 2908.63 315.557 2908.74 315.685L2914.74 310.39C2914.63 310.266 2914.52 310.141 2914.41 310.016L2908.4 315.301ZM2929.24 336.204C2929.37 336.317 2929.5 336.429 2929.63 336.542L2934.8 330.429C2934.67 330.324 2934.54 330.217 2934.42 330.111L2929.24 336.204ZM2954.28 352.568C2954.44 352.642 2954.6 352.716 2954.76 352.789L2958.08 345.511C2957.94 345.444 2957.79 345.377 2957.64 345.309L2954.28 352.568ZM2983.31 360.572C2983.48 360.59 2983.65 360.608 2983.82 360.626L2984.64 352.668C2984.48 352.651 2984.32 352.635 2984.17 352.618L2983.31 360.572ZM3013.09 359.738C3013.26 359.712 3013.43 359.687 3013.6 359.66L3012.4 351.751C3012.24 351.776 3012.08 351.8 3011.91 351.825L3013.09 359.738ZM3041.82 352.83C3041.98 352.778 3042.14 352.725 3042.3 352.672L3039.83 345.065C3039.67 345.116 3039.51 345.167 3039.36 345.217L3041.82 352.83ZM3069.39 342.149C3069.47 342.113 3069.55 342.076 3069.63 342.039L3066.37 334.735C3066.29 334.771 3066.21 334.807 3066.13 334.843L3069.39 342.149ZM3069.27 342.18C3069.35 342.155 3069.42 342.129 3069.5 342.103L3066.96 334.517C3066.88 334.543 3066.81 334.568 3066.73 334.594L3069.27 342.18ZM3095.96 333.24C3096.12 333.186 3096.28 333.133 3096.44 333.079L3093.92 325.489C3093.75 325.543 3093.59 325.596 3093.43 325.65L3095.96 333.24ZM3122.89 324.386C3123.05 324.335 3123.21 324.284 3123.37 324.233L3120.91 316.621C3120.75 316.672 3120.59 316.723 3120.43 316.774L3122.89 324.386ZM3149.97 315.807C3150.13 315.758 3150.29 315.708 3150.45 315.658L3148.09 308.016C3147.92 308.066 3147.76 308.116 3147.6 308.166L3149.97 315.807ZM3177.14 307.607C3177.3 307.56 3177.45 307.514 3177.61 307.468L3175.36 299.792C3175.2 299.838 3175.04 299.884 3174.88 299.931L3177.14 307.607ZM3204.4 299.837C3204.56 299.793 3204.72 299.749 3204.88 299.706L3202.75 291.994C3202.59 292.037 3202.43 292.081 3202.27 292.125L3204.4 299.837ZM3231.8 292.525C3231.96 292.484 3232.12 292.443 3232.28 292.402L3230.29 284.654C3230.13 284.695 3229.97 284.736 3229.81 284.777L3231.8 292.525ZM3259.31 285.71C3259.48 285.671 3259.64 285.632 3259.8 285.594L3257.95 277.81C3257.79 277.849 3257.63 277.888 3257.46 277.927L3259.31 285.71ZM3286.93 279.418C3287.1 279.382 3287.26 279.347 3287.42 279.312L3285.72 271.494C3285.56 271.53 3285.4 271.565 3285.23 271.601L3286.93 279.418ZM3314.68 273.668C3314.84 273.636 3315.01 273.604 3315.17 273.572L3313.63 265.722C3313.47 265.754 3313.3 265.786 3313.14 265.819L3314.68 273.668ZM3342.56 268.484C3342.72 268.455 3342.89 268.427 3343.05 268.399L3341.67 260.518C3341.51 260.547 3341.35 260.575 3341.18 260.604L3342.56 268.484ZM3370.52 263.896C3370.68 263.871 3370.85 263.846 3371.01 263.821L3369.8 255.913C3369.64 255.938 3369.47 255.963 3369.31 255.988L3370.52 263.896ZM3398.56 259.923C3398.73 259.902 3398.89 259.88 3399.06 259.859L3398.03 251.926C3397.86 251.947 3397.7 251.969 3397.53 251.99L3398.56 259.923ZM3426.72 256.582C3426.89 256.564 3427.05 256.546 3427.22 256.529L3426.37 248.574C3426.2 248.591 3426.04 248.609 3425.87 248.627L3426.72 256.582ZM3454.9 253.903C3455.06 253.889 3455.23 253.875 3455.39 253.861L3454.73 245.889C3454.57 245.902 3454.4 245.916 3454.23 245.93L3454.9 253.903ZM3483.18 251.897C3483.34 251.887 3483.5 251.878 3483.67 251.868L3483.2 243.882C3483.04 243.891 3482.87 243.901 3482.71 243.911L3483.18 251.897ZM3511.44 250.592C3511.61 250.586 3511.78 250.581 3511.94 250.575L3511.68 242.579C3511.51 242.585 3511.34 242.591 3511.18 242.596L3511.44 250.592ZM3539.78 250.002C3539.86 250.001 3539.95 250.001 3540.03 250L3539.97 242C3539.89 242.001 3539.8 242.001 3539.72 242.002L3539.78 250.002ZM3540.03 250C3540.12 249.999 3540.2 249.999 3540.29 249.998L3540.23 241.998C3540.14 241.999 3540.06 241.999 3539.97 242L3540.03 250ZM3569.05 250.115C3569.22 250.118 3569.39 250.121 3569.56 250.123L3569.69 242.124C3569.52 242.122 3569.35 242.119 3569.18 242.116L3569.05 250.115ZM3598.3 250.904C3598.47 250.91 3598.64 250.917 3598.81 250.923L3599.12 242.929C3598.95 242.923 3598.78 242.916 3598.6 242.909L3598.3 250.904ZM3627.51 252.339C3627.68 252.349 3627.86 252.359 3628.03 252.369L3628.51 244.384C3628.34 244.373 3628.16 244.363 3627.99 244.353L3627.51 252.339ZM3656.7 254.382C3656.87 254.396 3657.04 254.41 3657.21 254.423L3657.85 246.449C3657.68 246.435 3657.51 246.421 3657.33 246.408L3656.7 254.382ZM3685.84 256.985C3686.01 257.001 3686.19 257.018 3686.36 257.035L3687.14 249.074C3686.97 249.057 3686.8 249.04 3686.63 249.023L3685.84 256.985ZM3714.96 260.083C3715.13 260.102 3715.3 260.122 3715.47 260.142L3716.38 252.193C3716.21 252.174 3716.04 252.154 3715.86 252.134L3714.96 260.083ZM3744.04 263.597C3744.21 263.619 3744.38 263.641 3744.56 263.662L3745.56 255.726C3745.39 255.705 3745.22 255.683 3745.05 255.661L3744.04 263.597ZM3773.11 267.43C3773.28 267.453 3773.45 267.476 3773.62 267.499L3774.7 259.573C3774.53 259.549 3774.36 259.526 3774.18 259.503L3773.11 267.43ZM3802.16 271.46C3802.33 271.484 3802.5 271.508 3802.67 271.532L3803.79 263.609C3803.61 263.585 3803.44 263.562 3803.27 263.538L3802.16 271.46ZM3831.23 275.54C3831.39 275.564 3831.56 275.588 3831.73 275.611L3832.84 267.688C3832.67 267.664 3832.5 267.64 3832.33 267.617L3831.23 275.54ZM3860.32 279.492C3860.49 279.515 3860.66 279.537 3860.83 279.559L3861.87 271.627C3861.7 271.605 3861.53 271.583 3861.36 271.56L3860.32 279.492ZM3889.51 283.106C3889.69 283.126 3889.86 283.145 3890.03 283.165L3890.94 275.217C3890.77 275.197 3890.6 275.178 3890.43 275.158L3889.51 283.106ZM3918.8 286.114C3918.97 286.129 3919.14 286.144 3919.32 286.159L3920.02 278.19C3919.85 278.175 3919.68 278.16 3919.51 278.145L3918.8 286.114ZM3948.22 288.203C3948.4 288.212 3948.57 288.22 3948.74 288.229L3949.14 280.239C3948.97 280.231 3948.8 280.222 3948.63 280.213L3948.22 288.203ZM3977.74 289C3977.83 289 3977.91 289 3978 289V281C3977.92 281 3977.83 281 3977.75 281L3977.74 289Z" fill="#E5E5E5" fill-opacity="0.8"/>
</svg>
