<svg width="3997" height="523" viewBox="0 0 3997 523" fill="none" xmlns="http://www.w3.org/2000/svg">
<path d="M1100 389.231L1097.84 385.867L1100 389.231ZM1357 8.23138L1357.49 12.2008L1357 8.23138ZM1631 152.231L1634.82 153.428L1631 152.231ZM1480 286.231L1477.96 282.792L1480 286.231ZM2900 421.231L2901.94 424.729L2901.94 424.729L2900 421.231ZM2456 459.231L2456.55 455.269L2456 459.231ZM3454 332L3453.8 335.995L3454 332ZM4000 436.231C4002.21 436.231 4004 434.44 4004 432.231C4004 430.022 4002.21 428.231 4000 428.231V436.231ZM635.5 481L635.531 477L635.5 481ZM4 366C1.79086 366 0 367.791 0 370C0 372.209 1.79086 374 4 374V366ZM4.23842 374C6.44756 374.002 8.23981 372.212 8.24153 370.003C8.24326 367.794 6.45379 366.002 4.24465 366L4.23842 374ZM31.9705 367.133C29.7679 366.963 27.8445 368.61 27.6744 370.813C27.5042 373.016 29.1519 374.939 31.3545 375.109L31.9705 367.133ZM31.8452 375.147C34.0476 375.32 35.973 373.675 36.1457 371.472C36.3184 369.27 34.673 367.345 32.4707 367.172L31.8452 375.147ZM59.9613 370.142C57.772 369.847 55.7577 371.382 55.4622 373.571C55.1667 375.76 56.7019 377.775 58.8912 378.07L59.9613 370.142ZM59.3774 378.136C61.5664 378.433 63.5821 376.9 63.8794 374.711C64.1768 372.522 62.6433 370.506 60.4543 370.209L59.3774 378.136ZM87.7273 374.512C85.5522 374.126 83.4756 375.576 83.0891 377.751C82.7026 379.926 84.1524 382.002 86.3275 382.389L87.7273 374.512ZM86.8076 382.474C88.9824 382.862 91.0599 381.414 91.4478 379.239C91.8356 377.064 90.3871 374.987 88.2122 374.599L86.8076 382.474ZM115.32 379.871C113.158 379.419 111.039 380.805 110.587 382.968C110.135 385.13 111.521 387.25 113.683 387.702L115.32 379.871ZM114.157 387.801C116.319 388.254 118.439 386.868 118.892 384.706C119.345 382.544 117.96 380.424 115.798 379.971L114.157 387.801ZM142.677 385.913C140.524 385.415 138.376 386.756 137.878 388.909C137.38 391.061 138.721 393.209 140.873 393.708L142.677 385.913ZM141.352 393.818C143.504 394.317 145.653 392.977 146.152 390.825C146.651 388.673 145.31 386.524 143.158 386.025L141.352 393.818ZM169.928 392.442C167.783 391.913 165.615 393.222 165.086 395.367C164.557 397.512 165.867 399.68 168.012 400.209L169.928 392.442ZM168.485 400.325C170.629 400.855 172.797 399.545 173.327 397.401C173.856 395.256 172.547 393.088 170.402 392.559L168.485 400.325ZM197.064 399.274C194.924 398.726 192.745 400.017 192.197 402.157C191.649 404.297 192.94 406.476 195.08 407.024L197.064 399.274ZM195.557 407.146C197.697 407.694 199.876 406.404 200.424 404.263C200.972 402.123 199.682 399.944 197.542 399.396L195.557 407.146ZM224.163 406.283C222.025 405.726 219.84 407.007 219.283 409.145C218.726 411.283 220.008 413.467 222.146 414.024L224.163 406.283ZM222.617 414.147C224.755 414.704 226.94 413.423 227.497 411.285C228.054 409.147 226.772 406.963 224.634 406.406L222.617 414.147ZM251.191 413.338C249.054 412.781 246.869 414.061 246.311 416.199C245.753 418.337 247.034 420.522 249.172 421.079L251.191 413.338ZM249.647 421.203C251.784 421.761 253.969 420.48 254.527 418.342C255.084 416.205 253.804 414.02 251.666 413.462L249.647 421.203ZM278.263 420.365C276.124 419.814 273.943 421.102 273.391 423.241C272.84 425.38 274.128 427.561 276.267 428.112L278.263 420.365ZM276.745 428.236C278.884 428.787 281.065 427.499 281.616 425.36C282.167 423.22 280.88 421.039 278.741 420.488L276.745 428.236ZM305.317 427.257C303.174 426.719 301.001 428.019 300.463 430.161C299.924 432.304 301.225 434.477 303.367 435.016L305.317 427.257ZM303.842 435.135C305.984 435.673 308.157 434.372 308.696 432.23C309.234 430.087 307.933 427.914 305.79 427.376L303.842 435.135ZM332.415 433.948C330.268 433.429 328.106 434.748 327.586 436.895C327.066 439.042 328.385 441.204 330.532 441.724L332.415 433.948ZM331.01 441.839C333.157 442.359 335.319 441.039 335.839 438.892C336.358 436.745 335.039 434.583 332.891 434.064L331.01 441.839ZM359.592 440.375C357.439 439.879 355.292 441.222 354.796 443.375C354.3 445.527 355.643 447.674 357.796 448.17L359.592 440.375ZM358.276 448.281C360.429 448.777 362.576 447.433 363.072 445.28C363.567 443.127 362.224 440.981 360.071 440.485L358.276 448.281ZM386.823 446.463C384.664 445.996 382.535 447.367 382.068 449.526C381.601 451.686 382.972 453.815 385.131 454.282L386.823 446.463ZM385.61 454.385C387.769 454.852 389.898 453.48 390.365 451.321C390.831 449.161 389.459 447.032 387.3 446.566L385.61 454.385ZM414.115 452.152C411.949 451.718 409.841 453.123 409.408 455.289C408.974 457.455 410.378 459.563 412.545 459.996L414.115 452.152ZM413.026 460.093C415.192 460.526 417.3 459.121 417.733 456.955C418.166 454.788 416.761 452.681 414.595 452.248L413.026 460.093ZM441.504 457.392C439.33 456.996 437.248 458.437 436.852 460.61C436.456 462.784 437.897 464.867 440.071 465.262L441.504 457.392ZM440.555 465.35C442.729 465.745 444.811 464.304 445.206 462.13C445.601 459.957 444.159 457.874 441.986 457.479L440.555 465.35ZM468.987 462.125C466.806 461.771 464.752 463.253 464.399 465.433C464.045 467.614 465.527 469.668 467.707 470.022L468.987 462.125ZM468.194 470.101C470.375 470.453 472.429 468.971 472.782 466.79C473.134 464.61 471.652 462.556 469.471 462.203L468.194 470.101ZM496.547 466.295C494.36 465.988 492.337 467.513 492.03 469.701C491.723 471.888 493.248 473.911 495.436 474.218L496.547 466.295ZM495.921 474.286C498.109 474.592 500.131 473.066 500.437 470.878C500.743 468.691 499.218 466.669 497.03 466.363L495.921 474.286ZM524.169 469.851C521.975 469.594 519.988 471.165 519.731 473.359C519.475 475.553 521.046 477.54 523.24 477.796L524.169 469.851ZM523.728 477.853C525.922 478.109 527.908 476.537 528.164 474.343C528.419 472.149 526.848 470.163 524.653 469.907L523.728 477.853ZM551.868 472.745C549.668 472.543 547.721 474.163 547.519 476.363C547.317 478.562 548.936 480.51 551.136 480.712L551.868 472.745ZM551.626 480.757C553.826 480.958 555.773 479.337 555.974 477.137C556.175 474.938 554.555 472.991 552.355 472.79L551.626 480.757ZM579.632 474.931C577.428 474.787 575.524 476.458 575.38 478.662C575.236 480.866 576.906 482.77 579.111 482.914L579.632 474.931ZM579.603 482.946C581.807 483.089 583.71 481.418 583.853 479.214C583.996 477.009 582.325 475.106 580.12 474.963L579.603 482.946ZM607.445 476.363C605.237 476.281 603.381 478.003 603.298 480.211C603.216 482.419 604.938 484.275 607.146 484.358L607.445 476.363ZM607.639 484.376C609.847 484.457 611.703 482.734 611.784 480.526C611.865 478.318 610.142 476.463 607.934 476.381L607.639 484.376ZM635.286 476.998C633.077 476.98 631.272 478.757 631.254 480.966C631.236 483.175 633.013 484.98 635.222 484.998L635.286 476.998ZM635.718 485.002C637.927 485.019 639.732 483.241 639.749 481.032C639.766 478.823 637.988 477.019 635.779 477.002L635.718 485.002ZM663.44 477.002C661.231 477.019 659.454 478.824 659.471 481.033C659.488 483.242 661.293 485.019 663.502 485.002L663.44 477.002ZM663.998 484.998C666.207 484.981 667.983 483.175 667.966 480.966C667.948 478.757 666.143 476.981 663.934 476.998L663.998 484.998ZM691.533 476.558C689.324 476.611 687.577 478.444 687.63 480.653C687.683 482.861 689.517 484.609 691.725 484.556L691.533 476.558ZM692.217 484.544C694.426 484.49 696.173 482.656 696.119 480.447C696.065 478.239 694.231 476.492 692.023 476.546L692.217 484.544ZM719.663 475.64C717.456 475.731 715.741 477.595 715.832 479.802C715.923 482.009 717.786 483.725 719.994 483.633L719.663 475.64ZM720.489 483.613C722.696 483.521 724.411 481.657 724.319 479.45C724.227 477.243 722.363 475.528 720.156 475.62L720.489 483.613ZM747.716 474.226C745.511 474.358 743.83 476.252 743.961 478.457C744.093 480.663 745.987 482.344 748.192 482.212L747.716 474.226ZM748.69 482.182C750.896 482.05 752.576 480.155 752.444 477.95C752.312 475.745 750.417 474.065 748.211 474.197L748.69 482.182ZM775.782 472.282C773.579 472.456 771.935 474.383 772.11 476.585C772.284 478.787 774.211 480.431 776.413 480.257L775.782 472.282ZM776.906 480.217C779.108 480.042 780.752 478.115 780.576 475.913C780.401 473.711 778.474 472.068 776.272 472.243L776.906 480.217ZM803.772 469.776C801.574 469.996 799.97 471.956 800.191 474.154C800.411 476.352 802.371 477.956 804.569 477.736L803.772 469.776ZM805.064 477.686C807.262 477.465 808.865 475.504 808.644 473.306C808.423 471.108 806.462 469.505 804.264 469.726L805.064 477.686ZM831.67 466.67C829.477 466.939 827.918 468.935 828.187 471.128C828.457 473.32 830.452 474.88 832.645 474.61L831.67 466.67ZM833.138 474.55C835.331 474.279 836.889 472.283 836.619 470.09C836.349 467.898 834.353 466.34 832.16 466.61L833.138 474.55ZM859.533 462.909C857.348 463.231 855.837 465.264 856.16 467.45C856.482 469.635 858.516 471.146 860.701 470.823L859.533 462.909ZM861.19 470.751C863.375 470.427 864.885 468.394 864.561 466.208C864.238 464.023 862.204 462.514 860.019 462.837L861.19 470.751ZM887.265 458.446C885.089 458.826 883.633 460.898 884.013 463.075C884.394 465.251 886.466 466.706 888.642 466.326L887.265 458.446ZM889.131 466.241C891.307 465.859 892.762 463.786 892.38 461.61C891.999 459.434 889.926 457.979 887.75 458.361L889.131 466.241ZM914.841 453.215C912.677 453.659 911.283 455.773 911.726 457.938C912.17 460.102 914.285 461.496 916.449 461.052L914.841 453.215ZM916.936 460.952C919.1 460.507 920.493 458.392 920.048 456.228C919.603 454.064 917.488 452.671 915.324 453.116L916.936 460.952ZM942.228 447.14C940.08 447.654 938.755 449.813 939.269 451.961C939.783 454.109 941.942 455.434 944.09 454.92L942.228 447.14ZM944.575 454.804C946.723 454.288 948.047 452.129 947.532 449.981C947.016 447.833 944.857 446.509 942.709 447.025L944.575 454.804ZM969.376 440.125C967.248 440.718 966.004 442.923 966.596 445.051C967.189 447.18 969.394 448.424 971.523 447.832L969.376 440.125ZM972.003 447.698C974.131 447.104 975.374 444.897 974.78 442.769C974.186 440.642 971.98 439.398 969.852 439.992L972.003 447.698ZM996.212 432.057C994.111 432.739 992.96 434.994 993.641 437.096C994.322 439.197 996.578 440.349 998.679 439.668L996.212 432.057ZM999.153 439.514C1001.25 438.831 1002.4 436.574 1001.72 434.473C1001.04 432.372 998.782 431.223 996.681 431.905L999.153 439.514ZM1022.63 422.801C1020.56 423.583 1019.52 425.892 1020.3 427.958C1021.09 430.024 1023.4 431.065 1025.46 430.283L1022.63 422.801ZM1025.93 430.107C1027.99 429.323 1029.03 427.013 1028.25 424.947C1027.46 422.882 1025.15 421.843 1023.09 422.627L1025.93 430.107ZM1048.47 412.193C1046.45 413.092 1045.54 415.456 1046.44 417.474C1047.34 419.492 1049.7 420.4 1051.72 419.502L1048.47 412.193ZM1052.17 419.301C1054.19 418.4 1055.1 416.035 1054.2 414.017C1053.3 412 1050.93 411.095 1048.91 411.996L1052.17 419.301ZM1073.6 399.997C1071.64 401.031 1070.9 403.452 1071.93 405.404C1072.97 407.356 1075.39 408.1 1077.34 407.066L1073.6 399.997ZM1077.78 406.831C1079.73 405.794 1080.48 403.373 1079.44 401.422C1078.4 399.471 1075.98 398.73 1074.03 399.767L1077.78 406.831ZM1097.63 385.997C1095.77 387.19 1095.23 389.665 1096.43 391.524C1097.62 393.383 1100.1 393.923 1101.95 392.73L1097.63 385.997ZM1102.38 392.456C1104.23 391.254 1104.76 388.777 1103.56 386.923C1102.36 385.07 1099.88 384.542 1098.03 385.744L1102.38 392.456ZM1116.92 367.565C1115.57 369.314 1115.89 371.826 1117.64 373.175C1119.39 374.524 1121.9 374.199 1123.25 372.45L1116.92 367.565ZM1123.57 372.036C1124.91 370.281 1124.58 367.77 1122.82 366.429C1121.07 365.087 1118.56 365.422 1117.22 367.178L1123.57 372.036ZM1131.66 344.259C1130.62 346.207 1131.35 348.631 1133.3 349.672C1135.25 350.714 1137.67 349.98 1138.71 348.032L1131.66 344.259ZM1138.95 347.597C1139.98 345.647 1139.24 343.224 1137.29 342.186C1135.34 341.148 1132.92 341.887 1131.88 343.837L1138.95 347.597ZM1143.65 319.087C1142.77 321.115 1143.71 323.469 1145.74 324.343C1147.77 325.217 1150.12 324.281 1151 322.252L1143.65 319.087ZM1151.19 321.799C1152.06 319.77 1151.12 317.417 1149.09 316.545C1147.06 315.673 1144.71 316.611 1143.84 318.641L1151.19 321.799ZM1154.12 293.028C1153.34 295.093 1154.38 297.403 1156.44 298.186C1158.51 298.969 1160.82 297.929 1161.6 295.863L1154.12 293.028ZM1161.78 295.403C1162.56 293.337 1161.52 291.029 1159.45 290.247C1157.38 289.465 1155.08 290.506 1154.29 292.572L1161.78 295.403ZM1163.77 266.585C1163.04 268.667 1164.13 270.954 1166.21 271.692C1168.29 272.431 1170.58 271.342 1171.31 269.26L1163.77 266.585ZM1171.48 268.787C1172.22 266.705 1171.13 264.419 1169.05 263.681C1166.97 262.943 1164.68 264.032 1163.94 266.114L1171.48 268.787ZM1173.1 239.967C1172.37 242.053 1173.48 244.334 1175.56 245.061C1177.65 245.788 1179.93 244.687 1180.66 242.601L1173.1 239.967ZM1180.82 242.132C1181.55 240.046 1180.44 237.766 1178.36 237.038C1176.27 236.311 1173.99 237.413 1173.27 239.499L1180.82 242.132ZM1182.48 213.282C1181.74 215.363 1182.83 217.651 1184.91 218.394C1186.99 219.136 1189.28 218.051 1190.02 215.97L1182.48 213.282ZM1190.18 215.505C1190.93 213.424 1189.84 211.136 1187.76 210.393C1185.68 209.65 1183.39 210.735 1182.65 212.816L1190.18 215.505ZM1192.22 186.689C1191.44 188.755 1192.48 191.064 1194.55 191.845C1196.62 192.626 1198.92 191.584 1199.7 189.518L1192.22 186.689ZM1199.88 189.056C1200.66 186.99 1199.62 184.681 1197.55 183.899C1195.49 183.117 1193.18 184.158 1192.4 186.224L1199.88 189.056ZM1202.63 160.296C1201.79 162.337 1202.76 164.677 1204.8 165.521C1206.84 166.366 1209.18 165.395 1210.03 163.354L1202.63 160.296ZM1210.22 162.899C1211.06 160.858 1210.09 158.518 1208.05 157.672C1206.01 156.826 1203.67 157.795 1202.82 159.836L1210.22 162.899ZM1214.05 134.272C1213.11 136.274 1213.98 138.654 1215.98 139.589C1217.98 140.524 1220.36 139.659 1221.3 137.657L1214.05 134.272ZM1221.51 137.21C1222.44 135.209 1221.58 132.828 1219.58 131.891C1217.58 130.955 1215.2 131.817 1214.26 133.818L1221.51 137.21ZM1226.85 108.834C1225.79 110.774 1226.51 113.203 1228.45 114.259C1230.39 115.316 1232.82 114.599 1233.87 112.659L1226.85 108.834ZM1234.11 112.231C1235.17 110.292 1234.45 107.862 1232.51 106.803C1230.57 105.745 1228.14 106.458 1227.08 108.397L1234.11 112.231ZM1241.5 84.2877C1240.29 86.1329 1240.8 88.6134 1242.65 89.8282C1244.49 91.0429 1246.97 90.5318 1248.19 88.6866L1241.5 84.2877ZM1248.45 88.28C1249.67 86.4368 1249.17 83.9554 1247.32 82.7375C1245.48 81.5197 1243 82.0265 1241.78 83.8697L1248.45 88.28ZM1258.53 61.214C1257.12 62.9115 1257.35 65.4337 1259.04 66.8475C1260.74 68.2613 1263.26 68.0314 1264.68 66.3339L1258.53 61.214ZM1264.99 65.9603C1266.41 64.266 1266.18 61.7433 1264.49 60.3256C1262.79 58.9079 1260.27 59.1321 1258.85 60.8264L1264.99 65.9603ZM1278.47 40.4495C1276.83 41.9203 1276.68 44.4489 1278.15 46.0972C1279.62 47.7456 1282.15 47.8895 1283.8 46.4187L1278.47 40.4495ZM1284.16 46.0965C1285.82 44.6306 1285.97 42.1025 1284.5 40.4498C1283.03 38.7971 1280.51 38.6457 1278.85 40.1116L1284.16 46.0965ZM1301.69 23.2058C1299.8 24.3481 1299.19 26.807 1300.34 28.6979C1301.48 30.5887 1303.94 31.1955 1305.83 30.0532L1301.69 23.2058ZM1306.24 29.8052C1308.14 28.6695 1308.75 26.2128 1307.62 24.3179C1306.48 22.423 1304.02 21.8076 1302.13 22.9432L1306.24 29.8052ZM1327.95 10.8605C1325.86 11.5835 1324.76 13.8618 1325.48 15.9493C1326.2 18.0368 1328.48 19.1429 1330.57 18.4199L1327.95 10.8605ZM1331.02 18.2649C1333.11 17.5497 1334.22 15.2755 1333.51 13.1854C1332.79 11.0952 1330.52 9.98058 1328.43 10.6958L1331.02 18.2649ZM1356.25 4.29421C1354.06 4.57049 1352.5 6.57126 1352.78 8.76306C1353.06 10.9549 1355.06 12.5077 1357.25 12.2314L1356.25 4.29421ZM1357.74 12.1706C1359.93 11.8991 1361.49 9.9017 1361.21 7.70931C1360.94 5.51693 1358.95 3.95976 1356.75 4.23129L1357.74 12.1706ZM1384 1.49547C1381.79 1.66332 1380.14 3.58507 1380.31 5.78782C1380.48 7.99058 1382.4 9.64019 1384.6 9.47234L1384 1.49547ZM1385.08 9.43594C1387.29 9.27005 1388.94 7.34978 1388.77 5.14687C1388.61 2.94397 1386.69 1.29264 1384.48 1.45852L1385.08 9.43594ZM1411.69 0.117804C1409.49 0.166919 1407.74 1.99715 1407.78 4.20575C1407.83 6.41434 1409.66 8.16494 1411.87 8.11583L1411.69 0.117804ZM1412.34 8.10558C1414.55 8.05865 1416.3 6.23016 1416.26 4.02151C1416.21 1.81287 1414.38 0.06046 1412.17 0.107388L1412.34 8.10558ZM1439.58 0.336499C1437.37 0.249745 1435.51 1.9689 1435.42 4.17633C1435.34 6.38377 1437.06 8.24357 1439.26 8.33033L1439.58 0.336499ZM1439.74 8.3494C1441.95 8.43869 1443.81 6.72169 1443.9 4.51435C1443.99 2.30702 1442.27 0.445232 1440.07 0.355937L1439.74 8.3494ZM1467.34 2.38517C1465.14 2.14326 1463.16 3.72725 1462.92 5.92311C1462.68 8.11896 1464.26 10.0952 1466.46 10.3371L1467.34 2.38517ZM1466.94 10.3903C1469.14 10.6352 1471.12 9.05386 1471.36 6.85833C1471.6 4.6628 1470.02 2.68448 1467.83 2.43962L1466.94 10.3903ZM1494.9 6.53808C1492.73 6.11776 1490.63 7.53517 1490.21 9.70395C1489.79 11.8727 1491.21 13.9716 1493.38 14.3919L1494.9 6.53808ZM1493.85 14.4847C1496.02 14.9084 1498.12 13.4943 1498.55 11.3262C1498.97 9.15806 1497.56 7.05695 1495.39 6.63321L1493.85 14.4847ZM1522.08 13.1339C1519.96 12.5077 1517.73 13.7174 1517.11 15.836C1516.48 17.9545 1517.69 20.1795 1519.81 20.8058L1522.08 13.1339ZM1520.27 20.9432C1522.39 21.5733 1524.62 20.3677 1525.25 18.2504C1525.88 16.133 1524.67 13.9057 1522.55 13.2756L1520.27 20.9432ZM1548.49 22.5613C1546.46 21.6982 1544.11 22.6469 1543.25 24.6804C1542.39 26.7139 1543.34 29.0622 1545.37 29.9254L1548.49 22.5613ZM1545.81 30.1123C1547.84 30.9799 1550.19 30.0363 1551.06 28.0047C1551.93 25.9731 1550.98 23.6228 1548.95 22.7551L1545.81 30.1123ZM1573.56 35.2229C1571.67 34.0904 1569.21 34.71 1568.08 36.6068C1566.95 38.5036 1567.56 40.9593 1569.46 42.0917L1573.56 35.2229ZM1569.86 42.3313C1571.76 43.4688 1574.21 42.8556 1575.35 40.9617C1576.49 39.0679 1575.87 36.6106 1573.98 35.4732L1569.86 42.3313ZM1596.56 51.6059C1594.88 50.1741 1592.36 50.3771 1590.92 52.0594C1589.49 53.7417 1589.7 56.2662 1591.38 57.6981L1596.56 51.6059ZM1591.73 58.0027C1593.41 59.44 1595.94 59.2451 1597.37 57.5674C1598.81 55.8897 1598.62 53.3646 1596.94 51.9273L1591.73 58.0027ZM1616.23 72.0307C1614.87 70.2855 1612.36 69.9687 1610.61 71.3231C1608.87 72.6775 1608.55 75.1903 1609.91 76.9355L1616.23 72.0307ZM1610.19 77.3036C1611.54 79.0543 1614.05 79.3811 1615.8 78.0337C1617.55 76.6862 1617.88 74.1748 1616.53 72.4241L1610.19 77.3036ZM1630.8 96.533C1629.93 94.5015 1627.58 93.5583 1625.55 94.4262C1623.52 95.2942 1622.57 97.6447 1623.44 99.6761L1630.8 96.533ZM1623.62 100.108C1624.48 102.144 1626.83 103.099 1628.86 102.242C1630.9 101.384 1631.85 99.0386 1631 97.0027L1623.62 100.108ZM1637.89 124.396C1637.71 122.195 1635.77 120.561 1633.57 120.746C1631.37 120.931 1629.73 122.866 1629.92 125.067L1637.89 124.396ZM1629.96 125.521C1630.13 127.723 1632.05 129.37 1634.25 129.198C1636.46 129.027 1638.1 127.102 1637.93 124.9L1629.96 125.521ZM1634.89 153.184C1635.55 151.073 1634.36 148.833 1632.25 148.18C1630.14 147.526 1627.9 148.708 1627.25 150.818L1634.89 153.184ZM1627.11 151.278C1626.44 153.385 1627.61 155.631 1629.72 156.296C1631.82 156.961 1634.07 155.792 1634.74 153.685L1627.11 151.278ZM1622.72 181.049C1623.82 179.136 1623.17 176.69 1621.26 175.584C1619.34 174.479 1616.9 175.134 1615.79 177.046L1622.72 181.049ZM1615.54 177.481C1614.43 179.389 1615.07 181.838 1616.98 182.951C1618.89 184.064 1621.34 183.419 1622.45 181.51L1615.54 177.481ZM1604.8 205.559C1606.28 203.916 1606.14 201.387 1604.5 199.91C1602.86 198.433 1600.33 198.568 1598.85 200.211L1604.8 205.559ZM1598.51 200.587C1597.03 202.226 1597.16 204.755 1598.79 206.237C1600.43 207.719 1602.96 207.593 1604.44 205.955L1598.51 200.587ZM1582.85 226.259C1584.56 224.864 1584.82 222.345 1583.42 220.632C1582.03 218.919 1579.51 218.661 1577.79 220.055L1582.85 226.259ZM1577.4 220.378C1575.68 221.769 1575.42 224.288 1576.81 226.004C1578.2 227.72 1580.72 227.984 1582.43 226.593L1577.4 220.378ZM1558.65 243.926C1560.49 242.703 1560.99 240.22 1559.76 238.381C1558.54 236.541 1556.06 236.041 1554.22 237.265L1558.65 243.926ZM1553.79 237.549C1551.95 238.769 1551.45 241.252 1552.67 243.093C1553.89 244.934 1556.37 245.437 1558.21 244.216L1553.79 237.549ZM1533.4 259.717C1535.29 258.586 1535.91 256.131 1534.78 254.233C1533.65 252.336 1531.2 251.715 1529.3 252.846L1533.4 259.717ZM1528.85 253.112C1526.95 254.242 1526.33 256.697 1527.46 258.595C1528.59 260.493 1531.05 261.115 1532.95 259.985L1528.85 253.112ZM1507.79 274.658C1509.7 273.554 1510.35 271.107 1509.25 269.194C1508.14 267.281 1505.7 266.625 1503.79 267.73L1507.79 274.658ZM1503.33 267.99C1501.42 269.095 1500.77 271.541 1501.87 273.454C1502.98 275.367 1505.42 276.023 1507.33 274.918L1503.33 267.99ZM1482.27 289.537C1484.17 288.409 1484.79 285.954 1483.66 284.055C1482.54 282.156 1480.08 281.53 1478.18 282.658L1482.27 289.537ZM1477.75 282.914C1475.85 284.043 1475.23 286.498 1476.36 288.396C1477.49 290.295 1479.94 290.919 1481.84 289.79L1477.75 282.914ZM1459.75 303.632C1461.59 302.409 1462.09 299.926 1460.86 298.086C1459.64 296.247 1457.16 295.748 1455.32 296.972L1459.75 303.632ZM1454.92 297.233C1453.09 298.459 1452.59 300.943 1453.82 302.78C1455.04 304.618 1457.52 305.114 1459.36 303.889L1454.92 297.233ZM1438.36 319.085C1440.09 317.711 1440.38 315.195 1439 313.465C1437.63 311.735 1435.11 311.447 1433.38 312.821L1438.36 319.085ZM1433.01 313.117C1431.28 314.494 1431 317.011 1432.38 318.738C1433.76 320.465 1436.27 320.749 1438 319.371L1433.01 313.117ZM1418.97 336.616C1420.49 335.014 1420.43 332.482 1418.83 330.961C1417.22 329.44 1414.69 329.505 1413.17 331.107L1418.97 336.616ZM1412.84 331.46C1411.32 333.067 1411.39 335.598 1413 337.115C1414.61 338.631 1417.14 338.557 1418.65 336.95L1412.84 331.46ZM1403.33 357.06C1404.44 355.151 1403.79 352.702 1401.88 351.59C1399.98 350.479 1397.53 351.125 1396.42 353.034L1403.33 357.06ZM1396.17 353.46C1395.07 355.375 1395.73 357.82 1397.64 358.922C1399.55 360.024 1402 359.366 1403.1 357.451L1396.17 353.46ZM1394.31 380.647C1394.73 378.477 1393.3 376.383 1391.13 375.97C1388.96 375.556 1386.87 376.981 1386.45 379.151L1394.31 380.647ZM1386.36 379.637C1385.96 381.81 1387.4 383.895 1389.57 384.294C1391.75 384.693 1393.83 383.255 1394.23 381.083L1386.36 379.637ZM1394.11 405.841C1393.75 403.661 1391.7 402.178 1389.52 402.531C1387.34 402.883 1385.86 404.936 1386.21 407.117L1394.11 405.841ZM1386.29 407.602C1386.65 409.781 1388.71 411.252 1390.89 410.888C1393.07 410.524 1394.54 408.462 1394.18 406.283L1386.29 407.602ZM1401.57 430.415C1400.69 428.389 1398.33 427.462 1396.31 428.344C1394.28 429.226 1393.35 431.583 1394.24 433.608L1401.57 430.415ZM1394.44 434.069C1395.33 436.09 1397.69 437.006 1399.71 436.114C1401.73 435.223 1402.65 432.861 1401.76 430.84L1394.44 434.069ZM1415.88 452.752C1414.43 451.084 1411.91 450.908 1410.24 452.357C1408.57 453.806 1408.4 456.333 1409.85 458L1415.88 452.752ZM1410.18 458.38C1411.63 460.041 1414.16 460.206 1415.82 458.749C1417.48 457.292 1417.65 454.765 1416.19 453.104L1410.18 458.38ZM1435.81 470.859C1434.03 469.551 1431.52 469.934 1430.21 471.715C1428.91 473.495 1429.29 475.999 1431.07 477.307L1435.81 470.859ZM1431.47 477.601C1433.26 478.903 1435.76 478.511 1437.06 476.727C1438.36 474.942 1437.97 472.44 1436.19 471.138L1431.47 477.601ZM1458.99 485.069C1457.02 484.06 1454.61 484.834 1453.6 486.799C1452.59 488.763 1453.37 491.175 1455.33 492.185L1458.99 485.069ZM1455.78 492.413C1457.75 493.418 1460.15 492.638 1461.16 490.671C1462.17 488.704 1461.39 486.294 1459.42 485.289L1455.78 492.413ZM1484.06 496.029C1481.99 495.263 1479.69 496.321 1478.92 498.393C1478.16 500.465 1479.22 502.766 1481.29 503.532L1484.06 496.029ZM1481.75 503.704C1483.83 504.466 1486.13 503.403 1486.89 501.33C1487.65 499.256 1486.59 496.958 1484.51 496.195L1481.75 503.704ZM1510.26 504.237C1508.13 503.678 1505.94 504.958 1505.38 507.096C1504.82 509.233 1506.1 511.419 1508.24 511.977L1510.26 504.237ZM1508.72 512.102C1510.86 512.657 1513.04 511.374 1513.6 509.236C1514.15 507.097 1512.87 504.914 1510.73 504.359L1508.72 512.102ZM1537.16 510.009C1534.98 509.639 1532.92 511.104 1532.55 513.282C1532.18 515.46 1533.64 517.526 1535.82 517.896L1537.16 510.009ZM1536.31 517.979C1538.48 518.346 1540.55 516.878 1540.92 514.699C1541.28 512.521 1539.81 510.457 1537.64 510.09L1536.31 517.979ZM1564.46 513.487C1562.26 513.299 1560.32 514.932 1560.14 517.133C1559.95 519.334 1561.58 521.27 1563.78 521.458L1564.46 513.487ZM1564.27 521.5C1566.48 521.684 1568.41 520.049 1568.59 517.847C1568.78 515.646 1567.14 513.712 1564.94 513.528L1564.27 521.5ZM1591.95 514.647C1589.74 514.652 1587.95 516.446 1587.96 518.655C1587.96 520.864 1589.75 522.652 1591.96 522.647L1591.95 514.647ZM1592.46 522.646C1594.67 522.638 1596.45 520.841 1596.44 518.632C1596.44 516.423 1594.64 514.639 1592.43 514.646L1592.46 522.646ZM1619.35 513.277C1617.16 513.5 1615.56 515.463 1615.78 517.66C1616 519.858 1617.97 521.459 1620.16 521.236L1619.35 513.277ZM1620.66 521.185C1622.86 520.958 1624.46 518.993 1624.23 516.795C1624 514.598 1622.04 513 1619.84 513.227L1620.66 521.185ZM1647.67 509.419C1645.5 509.785 1644.03 511.849 1644.39 514.027C1644.76 516.206 1646.82 517.674 1649 517.308L1647.67 509.419ZM1649.51 517.222C1651.69 516.853 1653.15 514.788 1652.78 512.61C1652.42 510.432 1650.35 508.965 1648.17 509.334L1649.51 517.222ZM1675.78 503.897C1673.63 504.377 1672.27 506.515 1672.75 508.671C1673.23 510.827 1675.37 512.186 1677.52 511.705L1675.78 503.897ZM1678.02 511.594C1680.18 511.112 1681.54 508.973 1681.05 506.817C1680.57 504.661 1678.43 503.305 1676.28 503.787L1678.02 511.594ZM1703.65 497.049C1701.51 497.619 1700.25 499.812 1700.82 501.946C1701.39 504.08 1703.58 505.348 1705.71 504.778L1703.65 497.049ZM1706.21 504.646C1708.34 504.074 1709.61 501.88 1709.04 499.747C1708.46 497.613 1706.27 496.347 1704.14 496.918L1706.21 504.646ZM1731.28 489.147C1729.16 489.789 1727.97 492.023 1728.61 494.137C1729.25 496.251 1731.49 497.444 1733.6 496.803L1731.28 489.147ZM1734.09 496.655C1736.2 496.012 1737.39 493.778 1736.75 491.664C1736.11 489.551 1733.87 488.358 1731.76 489.001L1734.09 496.655ZM1758.69 480.418C1756.59 481.115 1755.46 483.379 1756.15 485.476C1756.85 487.572 1759.11 488.707 1761.21 488.01L1758.69 480.418ZM1761.69 487.85C1763.79 487.153 1764.92 484.888 1764.22 482.792C1763.53 480.696 1761.26 479.562 1759.17 480.259L1761.69 487.85ZM1785.91 471.054C1783.83 471.793 1782.74 474.079 1783.48 476.161C1784.22 478.243 1786.5 479.333 1788.59 478.595L1785.91 471.054ZM1789.06 478.425C1791.15 477.686 1792.23 475.399 1791.5 473.317C1790.76 471.235 1788.47 470.147 1786.39 470.886L1789.06 478.425ZM1812.99 461.222C1810.92 461.99 1809.87 464.291 1810.63 466.363C1811.4 468.434 1813.7 469.492 1815.77 468.724L1812.99 461.222ZM1816.25 468.548C1818.32 467.78 1819.38 465.478 1818.61 463.407C1817.84 461.336 1815.54 460.279 1813.47 461.047L1816.25 468.548ZM1839.99 451.074C1837.93 451.859 1836.89 454.169 1837.67 456.234C1838.46 458.299 1840.77 459.336 1842.83 458.551L1839.99 451.074ZM1843.31 458.371C1845.37 457.586 1846.41 455.275 1845.62 453.21C1844.84 451.146 1842.53 450.108 1840.46 450.894L1843.31 458.371ZM1866.95 440.762C1864.89 441.553 1863.86 443.866 1864.65 445.929C1865.44 447.992 1867.75 449.022 1869.81 448.231L1866.95 440.762ZM1870.29 448.05C1872.35 447.259 1873.38 444.945 1872.59 442.882C1871.8 440.82 1869.48 439.789 1867.42 440.58L1870.29 448.05ZM1893.93 430.447C1891.86 431.231 1890.82 433.541 1891.61 435.607C1892.39 437.672 1894.7 438.71 1896.77 437.926L1893.93 430.447ZM1897.24 437.746C1899.31 436.962 1900.35 434.652 1899.56 432.587C1898.78 430.522 1896.47 429.483 1894.4 430.267L1897.24 437.746ZM1921 420.31C1918.93 421.072 1917.87 423.371 1918.63 425.445C1919.39 427.518 1921.69 428.581 1923.76 427.819L1921 420.31ZM1924.24 427.644C1926.31 426.883 1927.38 424.585 1926.62 422.511C1925.85 420.437 1923.56 419.373 1921.48 420.135L1924.24 427.644ZM1948.27 410.574C1946.18 411.294 1945.07 413.571 1945.79 415.66C1946.51 417.748 1948.79 418.858 1950.88 418.138L1948.27 410.574ZM1951.36 417.973C1953.45 417.254 1954.56 414.978 1953.84 412.889C1953.12 410.8 1950.84 409.689 1948.75 410.408L1951.36 417.973ZM1975.84 401.545C1973.73 402.195 1972.54 404.433 1973.19 406.544C1973.84 408.656 1976.08 409.841 1978.19 409.192L1975.84 401.545ZM1978.68 409.043C1980.79 408.395 1981.97 406.158 1981.33 404.046C1980.68 401.934 1978.44 400.747 1976.33 401.395L1978.68 409.043ZM2003.84 393.688C2001.69 394.223 2000.39 396.394 2000.93 398.538C2001.46 400.681 2003.63 401.985 2005.78 401.45L2003.84 393.688ZM2006.26 401.33C2008.4 400.798 2009.71 398.628 2009.18 396.484C2008.64 394.34 2006.47 393.033 2004.33 393.566L2006.26 401.33ZM2032.43 387.771C2030.24 388.114 2028.75 390.162 2029.1 392.344C2029.44 394.526 2031.49 396.017 2033.67 395.673L2032.43 387.771ZM2034.17 395.595C2036.35 395.256 2037.85 393.212 2037.51 391.029C2037.17 388.846 2035.13 387.351 2032.94 387.69L2034.17 395.595ZM2061.75 385.232C2059.54 385.236 2057.75 387.03 2057.75 389.239C2057.76 391.448 2059.55 393.236 2061.76 393.232L2061.75 385.232ZM2062.24 393.232C2064.45 393.233 2066.25 391.444 2066.25 389.235C2066.25 387.026 2064.46 385.233 2062.25 385.232L2062.24 393.232ZM2090.63 386.371C2088.42 386.206 2086.5 387.857 2086.34 390.06C2086.17 392.263 2087.82 394.183 2090.03 394.349L2090.63 386.371ZM2090.53 394.387C2092.73 394.555 2094.65 392.906 2094.82 390.703C2094.99 388.5 2093.34 386.578 2091.14 386.41L2090.53 394.387ZM2119.29 389.332C2117.1 389.051 2115.09 390.599 2114.81 392.79C2114.53 394.981 2116.08 396.986 2118.27 397.267L2119.29 389.332ZM2118.76 397.331C2120.96 397.614 2122.96 396.067 2123.24 393.876C2123.53 391.685 2121.98 389.679 2119.79 389.397L2118.76 397.331ZM2147.76 393.551C2145.58 393.189 2143.52 394.663 2143.16 396.842C2142.8 399.022 2144.27 401.082 2146.45 401.443L2147.76 393.551ZM2146.94 401.524C2149.12 401.887 2151.18 400.414 2151.54 398.235C2151.91 396.056 2150.43 393.995 2148.25 393.633L2146.94 401.524ZM2176.01 398.627C2173.84 398.211 2171.75 399.632 2171.33 401.802C2170.92 403.971 2172.34 406.067 2174.51 406.484L2176.01 398.627ZM2175 406.578C2177.17 406.995 2179.26 405.575 2179.68 403.405C2180.1 401.236 2178.68 399.139 2176.51 398.722L2175 406.578ZM2204.15 404.288C2201.99 403.836 2199.87 405.222 2199.42 407.384C2198.97 409.547 2200.35 411.666 2202.51 412.119L2204.15 404.288ZM2203.01 412.222C2205.17 412.675 2207.29 411.289 2207.74 409.127C2208.2 406.965 2206.81 404.845 2204.65 404.392L2203.01 412.222ZM2232.17 410.311C2230.01 409.837 2227.88 411.202 2227.41 413.359C2226.93 415.517 2228.3 417.65 2230.45 418.124L2232.17 410.311ZM2230.94 418.232C2233.1 418.706 2235.23 417.341 2235.71 415.183C2236.18 413.026 2234.82 410.892 2232.66 410.418L2230.94 418.232ZM2260.12 416.527C2257.96 416.044 2255.83 417.399 2255.34 419.555C2254.86 421.71 2256.21 423.85 2258.37 424.333L2260.12 416.527ZM2258.86 424.443C2261.01 424.927 2263.15 423.571 2263.64 421.416C2264.12 419.26 2262.77 417.121 2260.61 416.637L2258.86 424.443ZM2288.05 422.799C2285.89 422.316 2283.75 423.672 2283.27 425.828C2282.78 427.983 2284.14 430.123 2286.3 430.606L2288.05 422.799ZM2286.79 430.716C2288.94 431.198 2291.08 429.842 2291.56 427.687C2292.05 425.531 2290.69 423.392 2288.54 422.909L2286.79 430.716ZM2315.97 429.002C2313.81 428.529 2311.68 429.894 2311.21 432.052C2310.73 434.21 2312.1 436.343 2314.26 436.816L2315.97 429.002ZM2314.75 436.924C2316.91 437.398 2319.04 436.032 2319.51 433.874C2319.98 431.716 2318.62 429.583 2316.46 429.11L2314.75 436.924ZM2343.92 435.025C2341.76 434.569 2339.64 435.952 2339.18 438.114C2338.72 440.275 2340.11 442.397 2342.27 442.853L2343.92 435.025ZM2342.76 442.957C2344.92 443.412 2347.05 442.029 2347.5 439.867C2347.96 437.706 2346.57 435.584 2344.41 435.129L2342.76 442.957ZM2371.91 440.762C2369.75 440.332 2367.64 441.74 2367.21 443.907C2366.78 446.074 2368.19 448.179 2370.36 448.609L2371.91 440.762ZM2370.85 448.707C2373.02 449.137 2375.12 447.728 2375.55 445.561C2375.98 443.394 2374.57 441.289 2372.41 440.86L2370.85 448.707ZM2399.97 446.112C2397.79 445.716 2395.71 447.156 2395.31 449.329C2394.92 451.503 2396.36 453.586 2398.53 453.982L2399.97 446.112ZM2399.03 454.072C2401.2 454.468 2403.28 453.027 2403.68 450.853C2404.08 448.68 2402.63 446.597 2400.46 446.202L2399.03 454.072ZM2428.09 450.971C2425.91 450.617 2423.86 452.097 2423.5 454.277C2423.15 456.458 2424.63 458.513 2426.81 458.868L2428.09 450.971ZM2427.31 458.948C2429.49 459.302 2431.54 457.821 2431.9 455.64C2432.25 453.46 2430.77 451.405 2428.59 451.052L2427.31 458.948ZM2456.3 455.235C2454.11 454.931 2452.09 456.458 2451.79 458.646C2451.49 460.834 2453.01 462.854 2455.2 463.159L2456.3 455.235ZM2455.7 463.228C2457.89 463.532 2459.91 462.004 2460.21 459.816C2460.51 457.628 2458.99 455.608 2456.8 455.304L2455.7 463.228ZM2484.37 458.928C2482.18 458.656 2480.18 460.213 2479.91 462.406C2479.64 464.598 2481.19 466.596 2483.39 466.867L2484.37 458.928ZM2483.88 466.929C2486.07 467.2 2488.07 465.642 2488.34 463.45C2488.61 461.257 2487.06 459.26 2484.86 458.989L2483.88 466.929ZM2512.4 462.173C2510.2 461.937 2508.23 463.526 2507.99 465.723C2507.76 467.919 2509.35 469.891 2511.54 470.127L2512.4 462.173ZM2512.03 470.18C2514.23 470.415 2516.2 468.825 2516.44 466.629C2516.67 464.432 2515.08 462.461 2512.88 462.225L2512.03 470.18ZM2540.52 464.942C2538.32 464.746 2536.38 466.37 2536.18 468.571C2535.98 470.771 2537.61 472.714 2539.81 472.91L2540.52 464.942ZM2540.31 472.955C2542.51 473.15 2544.45 471.525 2544.65 469.324C2544.84 467.124 2543.22 465.181 2541.02 464.986L2540.31 472.955ZM2568.62 467.171C2566.41 467.019 2564.5 468.682 2564.35 470.886C2564.2 473.089 2565.86 475 2568.07 475.152L2568.62 467.171ZM2568.56 475.186C2570.76 475.337 2572.67 473.674 2572.82 471.47C2572.97 469.266 2571.31 467.356 2569.11 467.205L2568.56 475.186ZM2596.83 468.811C2594.62 468.708 2592.75 470.413 2592.65 472.62C2592.54 474.827 2594.25 476.699 2596.46 476.802L2596.83 468.811ZM2596.95 476.825C2599.16 476.928 2601.03 475.222 2601.13 473.015C2601.24 470.808 2599.53 468.936 2597.32 468.834L2596.95 476.825ZM2625.01 469.784C2622.8 469.736 2620.97 471.487 2620.92 473.696C2620.88 475.904 2622.63 477.734 2624.84 477.782L2625.01 469.784ZM2625.34 477.793C2627.55 477.84 2629.37 476.087 2629.42 473.879C2629.47 471.67 2627.72 469.841 2625.51 469.794L2625.34 477.793ZM2653.18 470.011C2650.97 470.025 2649.19 471.827 2649.2 474.036C2649.22 476.245 2651.02 478.025 2653.23 478.011L2653.18 470.011ZM2653.73 478.008C2655.94 477.993 2657.72 476.19 2657.7 473.981C2657.69 471.772 2655.89 469.993 2653.68 470.008L2653.73 478.008ZM2681.34 469.399C2679.14 469.483 2677.41 471.341 2677.5 473.548C2677.58 475.756 2679.44 477.477 2681.65 477.394L2681.34 469.399ZM2682.14 477.375C2684.35 477.29 2686.07 475.432 2685.98 473.224C2685.9 471.017 2684.04 469.296 2681.83 469.381L2682.14 477.375ZM2709.47 467.838C2707.27 468.001 2705.61 469.919 2705.77 472.122C2705.94 474.326 2707.86 475.979 2710.06 475.817L2709.47 467.838ZM2710.55 475.78C2712.75 475.616 2714.41 473.696 2714.24 471.493C2714.08 469.29 2712.16 467.638 2709.96 467.802L2710.55 475.78ZM2737.48 465.203C2735.28 465.456 2733.71 467.44 2733.96 469.635C2734.21 471.829 2736.2 473.403 2738.39 473.151L2737.48 465.203ZM2738.89 473.093C2741.09 472.838 2742.66 470.853 2742.4 468.658C2742.15 466.464 2740.17 464.891 2737.97 465.146L2738.89 473.093ZM2765.35 461.344C2763.17 461.699 2761.69 463.755 2762.05 465.935C2762.4 468.116 2764.46 469.595 2766.64 469.24L2765.35 461.344ZM2767.13 469.159C2769.31 468.802 2770.79 466.745 2770.43 464.565C2770.08 462.385 2768.02 460.907 2765.84 461.264L2767.13 469.159ZM2792.96 456.104C2790.8 456.575 2789.44 458.706 2789.91 460.865C2790.38 463.023 2792.51 464.391 2794.67 463.92L2792.96 456.104ZM2795.16 463.813C2797.31 463.34 2798.68 461.207 2798.21 459.049C2797.73 456.891 2795.6 455.525 2793.44 455.999L2795.16 463.813ZM2820.16 449.315C2818.04 449.916 2816.8 452.126 2817.4 454.252C2818.01 456.378 2820.22 457.614 2822.34 457.013L2820.16 449.315ZM2822.82 456.877C2824.94 456.274 2826.18 454.062 2825.57 451.937C2824.97 449.811 2822.76 448.578 2820.63 449.182L2822.82 456.877ZM2846.88 440.777C2844.8 441.523 2843.72 443.813 2844.46 445.893C2845.21 447.972 2847.5 449.053 2849.58 448.307L2846.88 440.777ZM2850.05 448.137C2852.13 447.388 2853.21 445.096 2852.46 443.018C2851.71 440.939 2849.42 439.862 2847.34 440.61L2850.05 448.137ZM2872.84 430.339C2870.82 431.242 2869.92 433.609 2870.82 435.625C2871.73 437.641 2874.09 438.542 2876.11 437.639L2872.84 430.339ZM2876.57 437.432C2878.58 436.525 2879.48 434.157 2878.58 432.143C2877.67 430.128 2875.3 429.23 2873.29 430.136L2876.57 437.432ZM2897.85 417.852C2895.91 418.922 2895.21 421.357 2896.29 423.289C2897.36 425.222 2899.79 425.92 2901.72 424.85L2897.85 417.852ZM2902.16 424.61C2904.09 423.539 2904.79 421.104 2903.72 419.172C2902.64 417.24 2900.21 416.542 2898.28 417.613L2902.16 424.61ZM2923.22 404.671C2921.23 405.636 2920.4 408.029 2921.37 410.016C2922.33 412.004 2924.73 412.833 2926.71 411.868L2923.22 404.671ZM2927.16 411.651C2929.15 410.688 2929.98 408.296 2929.02 406.308C2928.05 404.32 2925.66 403.489 2923.67 404.452L2927.16 411.651ZM2949.25 392.844C2947.21 393.708 2946.27 396.057 2947.13 398.09C2947.99 400.123 2950.34 401.071 2952.38 400.207L2949.25 392.844ZM2952.83 400.014C2954.87 399.152 2955.81 396.804 2954.95 394.77C2954.09 392.736 2951.74 391.786 2949.71 392.648L2952.83 400.014ZM2975.81 382.281C2973.74 383.051 2972.68 385.353 2973.45 387.424C2974.22 389.495 2976.53 390.549 2978.6 389.779L2975.81 382.281ZM2979.06 389.607C2981.13 388.839 2982.19 386.537 2981.42 384.466C2980.65 382.394 2978.35 381.338 2976.28 382.107L2979.06 389.607ZM3002.78 372.895C3000.68 373.578 2999.53 375.835 3000.22 377.936C3000.9 380.037 3003.16 381.186 3005.26 380.503L3002.78 372.895ZM3005.73 380.35C3007.83 379.668 3008.98 377.413 3008.3 375.311C3007.62 373.21 3005.36 372.059 3003.26 372.74L3005.73 380.35ZM3030.09 364.598C3027.96 365.201 3026.73 367.412 3027.33 369.538C3027.93 371.663 3030.15 372.898 3032.27 372.295L3030.09 364.598ZM3032.75 372.16C3034.87 371.559 3036.11 369.348 3035.51 367.222C3034.91 365.097 3032.7 363.861 3030.57 364.462L3032.75 372.16ZM3057.68 357.299C3055.54 357.827 3054.23 359.995 3054.76 362.14C3055.28 364.285 3057.45 365.595 3059.6 365.067L3057.68 357.299ZM3060.08 364.949C3062.22 364.422 3063.53 362.256 3063.01 360.11C3062.48 357.965 3060.31 356.653 3058.17 357.18L3060.08 364.949ZM3085.48 350.929C3083.32 351.389 3081.94 353.513 3082.4 355.674C3082.86 357.835 3084.98 359.214 3087.14 358.754L3085.48 350.929ZM3087.63 358.651C3089.79 358.193 3091.17 356.069 3090.71 353.908C3090.26 351.747 3088.13 350.367 3085.97 350.825L3087.63 358.651ZM3113.45 345.414C3111.28 345.81 3109.84 347.893 3110.23 350.066C3110.63 352.239 3112.71 353.68 3114.89 353.284L3113.45 345.414ZM3115.37 353.195C3117.55 352.801 3118.99 350.718 3118.6 348.545C3118.2 346.371 3116.12 344.929 3113.94 345.324L3115.37 353.195ZM3141.57 340.688C3139.39 341.025 3137.89 343.069 3138.23 345.252C3138.56 347.435 3140.61 348.932 3142.79 348.595L3141.57 340.688ZM3143.28 348.519C3145.47 348.183 3146.96 346.141 3146.63 343.957C3146.29 341.774 3144.25 340.276 3142.07 340.612L3143.28 348.519ZM3169.78 336.699C3167.59 336.982 3166.04 338.987 3166.32 341.178C3166.6 343.369 3168.61 344.916 3170.8 344.634L3169.78 336.699ZM3171.29 344.571C3173.48 344.289 3175.03 342.285 3174.75 340.094C3174.47 337.903 3172.46 336.354 3170.27 336.636L3171.29 344.571ZM3198.08 333.391C3195.88 333.622 3194.29 335.591 3194.52 337.788C3194.75 339.985 3196.72 341.578 3198.92 341.347L3198.08 333.391ZM3199.41 341.295C3201.61 341.065 3203.2 339.097 3202.97 336.9C3202.74 334.703 3200.77 333.108 3198.58 333.339L3199.41 341.295ZM3226.43 330.719C3224.23 330.903 3222.6 332.837 3222.78 335.038C3222.96 337.24 3224.9 338.875 3227.1 338.692L3226.43 330.719ZM3227.59 338.65C3229.79 338.468 3231.43 336.535 3231.25 334.333C3231.07 332.131 3229.13 330.495 3226.93 330.678L3227.59 338.65ZM3254.84 328.641C3252.63 328.78 3250.96 330.68 3251.1 332.885C3251.24 335.09 3253.14 336.764 3255.34 336.625L3254.84 328.641ZM3255.84 336.594C3258.04 336.455 3259.72 334.556 3259.58 332.351C3259.44 330.146 3257.54 328.471 3255.33 328.61L3255.84 336.594ZM3283.27 327.119C3281.06 327.216 3279.35 329.084 3279.45 331.291C3279.54 333.498 3281.41 335.209 3283.62 335.111L3283.27 327.119ZM3284.12 335.089C3286.32 334.993 3288.03 333.125 3287.94 330.918C3287.84 328.711 3285.97 327 3283.77 327.097L3284.12 335.089ZM3311.72 326.119C3309.51 326.177 3307.77 328.015 3307.82 330.223C3307.88 332.431 3309.72 334.174 3311.93 334.116L3311.72 326.119ZM3312.42 334.103C3314.63 334.046 3316.38 332.209 3316.32 330.001C3316.26 327.792 3314.43 326.049 3312.22 326.106L3312.42 334.103ZM3340.18 325.611C3337.97 325.632 3336.19 327.44 3336.21 329.649C3336.24 331.858 3338.04 333.632 3340.25 333.611L3340.18 325.611ZM3340.75 333.606C3342.96 333.586 3344.73 331.778 3344.71 329.569C3344.69 327.36 3342.88 325.586 3340.68 325.607L3340.75 333.606ZM3368.64 325.568C3366.43 325.554 3364.63 327.333 3364.61 329.543C3364.6 331.752 3366.38 333.554 3368.59 333.568L3368.64 325.568ZM3369.08 333.571C3371.29 333.586 3373.1 331.807 3373.11 329.598C3373.13 327.389 3371.35 325.586 3369.14 325.571L3369.08 333.571ZM3397.09 325.965C3394.88 325.917 3393.05 327.67 3393 329.878C3392.96 332.087 3394.71 333.916 3396.92 333.963L3397.09 325.965ZM3397.41 333.974C3399.62 334.022 3401.45 332.27 3401.5 330.061C3401.55 327.853 3399.8 326.023 3397.59 325.976L3397.41 333.974ZM3425.54 326.78C3423.33 326.701 3421.48 328.427 3421.4 330.634C3421.32 332.842 3423.04 334.696 3425.25 334.775L3425.54 326.78ZM3425.75 334.793C3427.96 334.872 3429.81 333.147 3429.89 330.939C3429.97 328.731 3428.24 326.877 3426.04 326.798L3425.75 334.793ZM3453.95 327.993C3451.74 327.883 3449.87 329.584 3449.76 331.79C3449.65 333.996 3451.35 335.874 3453.55 335.983L3453.95 327.993ZM3454.05 336.007C3456.25 336.117 3458.13 334.418 3458.24 332.211C3458.35 330.005 3456.65 328.127 3454.45 328.017L3454.05 336.007ZM3481.84 329.643C3479.64 329.491 3477.73 331.154 3477.57 333.358C3477.42 335.562 3479.09 337.472 3481.29 337.624L3481.84 329.643ZM3481.78 337.658C3483.99 337.811 3485.9 336.148 3486.05 333.945C3486.2 331.741 3484.54 329.83 3482.34 329.677L3481.78 337.658ZM3509.69 331.844C3507.49 331.648 3505.55 333.273 3505.36 335.473C3505.16 337.674 3506.78 339.616 3508.98 339.812L3509.69 331.844ZM3509.47 339.856C3511.67 340.053 3513.62 338.429 3513.81 336.228C3514.01 334.028 3512.39 332.085 3510.19 331.888L3509.47 339.856ZM3537.49 334.605C3535.29 334.364 3533.32 335.949 3533.08 338.145C3532.84 340.341 3534.42 342.316 3536.62 342.557L3537.49 334.605ZM3537.1 342.61C3539.3 342.852 3541.28 341.268 3541.52 339.072C3541.76 336.876 3540.17 334.9 3537.98 334.658L3537.1 342.61ZM3565.2 337.93C3563.01 337.644 3561.01 339.189 3560.72 341.379C3560.43 343.57 3561.98 345.577 3564.17 345.863L3565.2 337.93ZM3564.65 345.926C3566.84 346.212 3568.85 344.669 3569.14 342.478C3569.42 340.288 3567.88 338.28 3565.69 337.993L3564.65 345.926ZM3592.81 341.82C3590.62 341.489 3588.59 342.992 3588.25 345.176C3587.92 347.36 3589.43 349.399 3591.61 349.73L3592.81 341.82ZM3592.09 349.802C3594.27 350.133 3596.31 348.631 3596.64 346.447C3596.97 344.263 3595.47 342.224 3593.29 341.892L3592.09 349.802ZM3620.35 346.277C3618.17 345.902 3616.1 347.363 3615.73 349.54C3615.35 351.717 3616.81 353.786 3618.99 354.161L3620.35 346.277ZM3619.47 354.245C3621.65 354.621 3623.72 353.161 3624.1 350.984C3624.47 348.807 3623.01 346.737 3620.84 346.361L3619.47 354.245ZM3647.84 351.3C3645.67 350.881 3643.57 352.3 3643.16 354.469C3642.74 356.639 3644.16 358.736 3646.33 359.155L3647.84 351.3ZM3646.8 359.247C3648.97 359.667 3651.07 358.248 3651.49 356.079C3651.91 353.91 3650.49 351.812 3648.32 351.393L3646.8 359.247ZM3675.15 356.843C3672.99 356.383 3670.87 357.762 3670.41 359.923C3669.95 362.083 3671.33 364.208 3673.49 364.668L3675.15 356.843ZM3673.96 364.768C3676.12 365.229 3678.24 363.851 3678.71 361.69C3679.17 359.529 3677.79 357.405 3675.63 356.944L3673.96 364.768ZM3702.41 362.902C3700.26 362.404 3698.11 363.744 3697.61 365.897C3697.11 368.049 3698.45 370.197 3700.61 370.696L3702.41 362.902ZM3701.08 370.806C3703.23 371.305 3705.38 369.965 3705.88 367.813C3706.38 365.661 3705.04 363.512 3702.89 363.013L3701.08 370.806ZM3729.52 369.409C3727.37 368.877 3725.2 370.183 3724.67 372.327C3724.14 374.471 3725.44 376.641 3727.59 377.173L3729.52 369.409ZM3728.06 377.29C3730.2 377.823 3732.37 376.517 3732.9 374.373C3733.44 372.229 3732.13 370.059 3729.99 369.526L3728.06 377.29ZM3756.55 376.318C3754.41 375.757 3752.22 377.035 3751.66 379.172C3751.1 381.308 3752.38 383.495 3754.52 384.056L3756.55 376.318ZM3754.99 384.18C3757.13 384.741 3759.31 383.463 3759.87 381.327C3760.44 379.19 3759.16 377.003 3757.02 376.442L3754.99 384.18ZM3783.42 383.515C3781.29 382.934 3779.09 384.191 3778.51 386.322C3777.93 388.453 3779.19 390.652 3781.32 391.233L3783.42 383.515ZM3781.79 391.363C3783.92 391.944 3786.12 390.687 3786.7 388.556C3787.29 386.425 3786.03 384.226 3783.9 383.645L3781.79 391.363ZM3810.3 390.922C3808.17 390.332 3805.97 391.578 3805.38 393.707C3804.79 395.835 3806.03 398.04 3808.16 398.631L3810.3 390.922ZM3808.63 398.761C3810.76 399.352 3812.96 398.105 3813.55 395.977C3814.14 393.848 3812.9 391.643 3810.77 391.052L3808.63 398.761ZM3837.12 398.361C3834.99 397.774 3832.79 399.024 3832.2 401.154C3831.61 403.283 3832.86 405.486 3834.99 406.073L3837.12 398.361ZM3835.46 406.203C3837.59 406.79 3839.8 405.54 3840.38 403.41C3840.97 401.281 3839.72 399.078 3837.59 398.491L3835.46 406.203ZM3863.93 405.637C3861.8 405.071 3859.61 406.343 3859.04 408.478C3858.48 410.614 3859.75 412.804 3861.88 413.37L3863.93 405.637ZM3862.36 413.495C3864.49 414.061 3866.68 412.789 3867.25 410.653C3867.81 408.518 3866.54 406.328 3864.41 405.762L3862.36 413.495ZM3890.81 412.499C3888.67 411.977 3886.5 413.293 3885.98 415.44C3885.46 417.586 3886.78 419.75 3888.92 420.272L3890.81 412.499ZM3889.4 420.388C3891.55 420.91 3893.71 419.592 3894.23 417.445C3894.75 415.298 3893.44 413.135 3891.29 412.614L3889.4 420.388ZM3917.82 418.624C3915.66 418.175 3913.54 419.564 3913.09 421.726C3912.64 423.889 3914.03 426.007 3916.19 426.457L3917.82 418.624ZM3916.67 426.557C3918.84 427.005 3920.95 425.614 3921.4 423.451C3921.85 421.288 3920.46 419.171 3918.3 418.723L3916.67 426.557ZM3944.99 423.61C3942.81 423.269 3940.76 424.761 3940.42 426.944C3940.08 429.127 3941.57 431.173 3943.75 431.514L3944.99 423.61ZM3944.24 431.59C3946.42 431.929 3948.47 430.434 3948.81 428.251C3949.15 426.068 3947.65 424.024 3945.47 423.685L3944.24 431.59ZM3972.33 426.982C3970.12 426.79 3968.18 428.418 3967.99 430.619C3967.8 432.819 3969.43 434.759 3971.63 434.952L3972.33 426.982ZM3972.12 434.994C3974.32 435.184 3976.26 433.553 3976.45 431.352C3976.64 429.151 3975.01 427.213 3972.8 427.024L3972.12 434.994ZM3999.76 428.231C3997.55 428.229 3995.76 430.018 3995.76 432.227C3995.75 434.437 3997.54 436.229 3999.75 436.231L3999.76 428.231ZM4 374C4.07945 374 4.15892 374 4.23842 374L4.24465 366C4.16308 366 4.08153 366 4 366V374ZM31.3545 375.109C31.518 375.122 31.6815 375.135 31.8452 375.147L32.4707 367.172C32.3039 367.159 32.1371 367.146 31.9705 367.133L31.3545 375.109ZM58.8912 378.07C59.0532 378.092 59.2153 378.114 59.3774 378.136L60.4543 370.209C60.2899 370.186 60.1256 370.164 59.9613 370.142L58.8912 378.07ZM86.3275 382.389C86.4875 382.417 86.6475 382.446 86.8076 382.474L88.2122 374.599C88.0505 374.57 87.8889 374.541 87.7273 374.512L86.3275 382.389ZM113.683 387.702C113.841 387.735 113.999 387.768 114.157 387.801L115.798 379.971C115.639 379.938 115.48 379.904 115.32 379.871L113.683 387.702ZM140.873 393.708C141.033 393.744 141.192 393.781 141.352 393.818L143.158 386.025C142.998 385.988 142.837 385.951 142.677 385.913L140.873 393.708ZM168.012 400.209C168.169 400.248 168.327 400.286 168.485 400.325L170.402 392.559C170.244 392.52 170.086 392.481 169.928 392.442L168.012 400.209ZM195.08 407.024C195.239 407.064 195.398 407.105 195.557 407.146L197.542 399.396C197.382 399.355 197.223 399.314 197.064 399.274L195.08 407.024ZM222.146 414.024C222.303 414.065 222.46 414.106 222.617 414.147L224.634 406.406C224.477 406.365 224.32 406.324 224.163 406.283L222.146 414.024ZM249.172 421.079C249.33 421.121 249.488 421.162 249.647 421.203L251.666 413.462C251.508 413.421 251.349 413.38 251.191 413.338L249.172 421.079ZM276.267 428.112C276.426 428.153 276.586 428.194 276.745 428.236L278.741 420.488C278.581 420.447 278.422 420.406 278.263 420.365L276.267 428.112ZM303.367 435.016C303.525 435.055 303.683 435.095 303.842 435.135L305.79 427.376C305.633 427.336 305.475 427.297 305.317 427.257L303.367 435.016ZM330.532 441.724C330.692 441.762 330.851 441.801 331.01 441.839L332.891 434.064C332.733 434.025 332.574 433.987 332.415 433.948L330.532 441.724ZM357.796 448.17C357.956 448.207 358.116 448.244 358.276 448.281L360.071 440.485C359.911 440.448 359.752 440.411 359.592 440.375L357.796 448.17ZM385.131 454.282C385.291 454.316 385.45 454.351 385.61 454.385L387.3 446.566C387.141 446.532 386.982 446.497 386.823 446.463L385.131 454.282ZM412.545 459.996C412.705 460.029 412.866 460.061 413.026 460.093L414.595 452.248C414.435 452.216 414.275 452.184 414.115 452.152L412.545 459.996ZM440.071 465.262C440.232 465.292 440.394 465.321 440.555 465.35L441.986 457.479C441.825 457.45 441.664 457.421 441.504 457.392L440.071 465.262ZM467.707 470.022C467.87 470.048 468.032 470.074 468.194 470.101L469.471 462.203C469.31 462.177 469.148 462.151 468.987 462.125L467.707 470.022ZM495.436 474.218C495.598 474.24 495.759 474.263 495.921 474.286L497.03 466.363C496.869 466.34 496.708 466.318 496.547 466.295L495.436 474.218ZM523.24 477.796C523.403 477.815 523.565 477.834 523.728 477.853L524.653 469.907C524.492 469.888 524.33 469.869 524.169 469.851L523.24 477.796ZM551.136 480.712C551.3 480.727 551.463 480.742 551.626 480.757L552.355 472.79C552.193 472.775 552.03 472.76 551.868 472.745L551.136 480.712ZM579.111 482.914C579.275 482.925 579.439 482.936 579.603 482.946L580.12 474.963C579.958 474.953 579.795 474.942 579.632 474.931L579.111 482.914ZM607.146 484.358C607.31 484.364 607.475 484.37 607.639 484.376L607.934 476.381C607.771 476.375 607.608 476.369 607.445 476.363L607.146 484.358ZM635.222 484.998C635.304 484.999 635.387 484.999 635.469 485L635.531 477C635.449 476.999 635.368 476.999 635.286 476.998L635.222 484.998ZM635.469 485C635.552 485.001 635.635 485.001 635.718 485.002L635.779 477.002C635.697 477.001 635.614 477.001 635.531 477L635.469 485ZM663.502 485.002C663.667 485.001 663.833 484.999 663.998 484.998L663.934 476.998C663.769 477 663.605 477.001 663.44 477.002L663.502 485.002ZM691.725 484.556C691.889 484.552 692.053 484.548 692.217 484.544L692.023 476.546C691.859 476.55 691.696 476.554 691.533 476.558L691.725 484.556ZM719.994 483.633C720.159 483.627 720.324 483.62 720.489 483.613L720.156 475.62C719.992 475.627 719.827 475.633 719.663 475.64L719.994 483.633ZM748.192 482.212C748.358 482.202 748.524 482.192 748.69 482.182L748.211 474.197C748.046 474.207 747.881 474.217 747.716 474.226L748.192 482.212ZM776.413 480.257C776.577 480.244 776.742 480.231 776.906 480.217L776.272 472.243C776.108 472.256 775.945 472.269 775.782 472.282L776.413 480.257ZM804.569 477.736C804.734 477.719 804.899 477.703 805.064 477.686L804.264 469.726C804.1 469.743 803.936 469.759 803.772 469.776L804.569 477.736ZM832.645 474.61C832.81 474.59 832.974 474.57 833.138 474.55L832.16 466.61C831.997 466.63 831.833 466.65 831.67 466.67L832.645 474.61ZM860.701 470.823C860.864 470.799 861.027 470.775 861.19 470.751L860.019 462.837C859.857 462.861 859.695 462.885 859.533 462.909L860.701 470.823ZM888.642 466.326C888.805 466.298 888.968 466.269 889.131 466.241L887.75 458.361C887.588 458.389 887.426 458.417 887.265 458.446L888.642 466.326ZM916.449 461.052C916.611 461.019 916.774 460.985 916.936 460.952L915.324 453.116C915.163 453.149 915.002 453.182 914.841 453.215L916.449 461.052ZM944.09 454.92C944.252 454.881 944.414 454.843 944.575 454.804L942.709 447.025C942.549 447.063 942.388 447.102 942.228 447.14L944.09 454.92ZM971.523 447.832C971.683 447.787 971.843 447.742 972.003 447.698L969.852 439.992C969.694 440.037 969.535 440.081 969.376 440.125L971.523 447.832ZM998.679 439.668C998.837 439.616 998.995 439.565 999.153 439.514L996.681 431.905C996.525 431.956 996.369 432.007 996.212 432.057L998.679 439.668ZM1025.46 430.283C1025.62 430.224 1025.77 430.165 1025.93 430.107L1023.09 422.627C1022.93 422.685 1022.78 422.743 1022.63 422.801L1025.46 430.283ZM1051.72 419.502C1051.87 419.435 1052.02 419.368 1052.17 419.301L1048.91 411.996C1048.77 412.061 1048.62 412.127 1048.47 412.193L1051.72 419.502ZM1077.34 407.066C1077.49 406.988 1077.64 406.91 1077.78 406.831L1074.03 399.767C1073.89 399.844 1073.74 399.92 1073.6 399.997L1077.34 407.066ZM1101.95 392.73C1102.02 392.685 1102.09 392.641 1102.16 392.596L1097.84 385.867C1097.77 385.91 1097.7 385.954 1097.63 385.997L1101.95 392.73ZM1102.16 392.596C1102.24 392.55 1102.31 392.503 1102.38 392.456L1098.03 385.744C1097.96 385.785 1097.9 385.826 1097.84 385.867L1102.16 392.596ZM1123.25 372.45C1123.36 372.312 1123.47 372.174 1123.57 372.036L1117.22 367.178C1117.12 367.307 1117.02 367.436 1116.92 367.565L1123.25 372.45ZM1138.71 348.032C1138.79 347.887 1138.87 347.742 1138.95 347.597L1131.88 343.837C1131.81 343.978 1131.73 344.118 1131.66 344.259L1138.71 348.032ZM1151 322.252C1151.06 322.102 1151.13 321.95 1151.19 321.799L1143.84 318.641C1143.78 318.79 1143.71 318.938 1143.65 319.087L1151 322.252ZM1161.6 295.863C1161.66 295.71 1161.72 295.557 1161.78 295.403L1154.29 292.572C1154.24 292.724 1154.18 292.876 1154.12 293.028L1161.6 295.863ZM1171.31 269.26C1171.37 269.102 1171.43 268.945 1171.48 268.787L1163.94 266.114C1163.89 266.271 1163.83 266.428 1163.77 266.585L1171.31 269.26ZM1180.66 242.601C1180.71 242.445 1180.76 242.288 1180.82 242.132L1173.27 239.499C1173.21 239.655 1173.16 239.811 1173.1 239.967L1180.66 242.601ZM1190.02 215.97C1190.07 215.815 1190.13 215.66 1190.18 215.505L1182.65 212.816C1182.59 212.971 1182.54 213.127 1182.48 213.282L1190.02 215.97ZM1199.7 189.518C1199.76 189.364 1199.82 189.21 1199.88 189.056L1192.4 186.224C1192.34 186.379 1192.28 186.534 1192.22 186.689L1199.7 189.518ZM1210.03 163.354C1210.09 163.202 1210.15 163.051 1210.22 162.899L1202.82 159.836C1202.76 159.989 1202.7 160.142 1202.63 160.296L1210.03 163.354ZM1221.3 137.657C1221.37 137.508 1221.44 137.359 1221.51 137.21L1214.26 133.818C1214.19 133.969 1214.12 134.121 1214.05 134.272L1221.3 137.657ZM1233.87 112.659C1233.95 112.516 1234.03 112.373 1234.11 112.231L1227.08 108.397C1227.01 108.543 1226.93 108.688 1226.85 108.834L1233.87 112.659ZM1248.19 88.6866C1248.28 88.551 1248.36 88.4154 1248.45 88.28L1241.78 83.8697C1241.69 84.0089 1241.6 84.1482 1241.5 84.2877L1248.19 88.6866ZM1264.68 66.3339C1264.78 66.2092 1264.88 66.0847 1264.99 65.9603L1258.85 60.8264C1258.75 60.9554 1258.64 61.0846 1258.53 61.214L1264.68 66.3339ZM1283.8 46.4187C1283.92 46.3111 1284.04 46.2037 1284.16 46.0965L1278.85 40.1116C1278.73 40.2241 1278.6 40.3367 1278.47 40.4495L1283.8 46.4187ZM1305.83 30.0532C1305.97 29.9703 1306.1 29.8876 1306.24 29.8052L1302.13 22.9432C1301.98 23.0305 1301.84 23.118 1301.69 23.2058L1305.83 30.0532ZM1330.57 18.4199C1330.72 18.368 1330.87 18.3163 1331.02 18.2649L1328.43 10.6958C1328.27 10.7504 1328.11 10.8053 1327.95 10.8605L1330.57 18.4199ZM1357.25 12.2314C1357.33 12.2211 1357.41 12.211 1357.49 12.2008L1356.51 4.26191C1356.42 4.2726 1356.33 4.28337 1356.25 4.29421L1357.25 12.2314ZM1357.49 12.2008C1357.57 12.1908 1357.66 12.1807 1357.74 12.1706L1356.75 4.23129C1356.67 4.24147 1356.59 4.25168 1356.51 4.26191L1357.49 12.2008ZM1384.6 9.47234C1384.76 9.46013 1384.92 9.44799 1385.08 9.43594L1384.48 1.45852C1384.32 1.47076 1384.16 1.48307 1384 1.49547L1384.6 9.47234ZM1411.87 8.11583C1412.03 8.11233 1412.19 8.10892 1412.34 8.10558L1412.17 0.107388C1412.01 0.110779 1411.85 0.114251 1411.69 0.117804L1411.87 8.11583ZM1439.26 8.33033C1439.42 8.3366 1439.58 8.34295 1439.74 8.3494L1440.07 0.355937C1439.9 0.349368 1439.74 0.342889 1439.58 0.336499L1439.26 8.33033ZM1466.46 10.3371C1466.62 10.3547 1466.78 10.3725 1466.94 10.3903L1467.83 2.43962C1467.66 2.42138 1467.5 2.40322 1467.34 2.38517L1466.46 10.3371ZM1493.38 14.3919C1493.54 14.4227 1493.7 14.4537 1493.85 14.4847L1495.39 6.63321C1495.23 6.60139 1495.06 6.56968 1494.9 6.53808L1493.38 14.3919ZM1519.81 20.8058C1519.96 20.8515 1520.12 20.8973 1520.27 20.9432L1522.55 13.2756C1522.39 13.2282 1522.23 13.181 1522.08 13.1339L1519.81 20.8058ZM1545.37 29.9254C1545.52 29.9876 1545.66 30.0499 1545.81 30.1123L1548.95 22.7551C1548.8 22.6904 1548.65 22.6258 1548.49 22.5613L1545.37 29.9254ZM1569.46 42.0917C1569.6 42.1715 1569.73 42.2514 1569.86 42.3313L1573.98 35.4732C1573.84 35.3896 1573.7 35.3062 1573.56 35.2229L1569.46 42.0917ZM1591.38 57.6981C1591.5 57.7995 1591.62 57.9011 1591.73 58.0027L1596.94 51.9273C1596.81 51.8201 1596.69 51.7129 1596.56 51.6059L1591.38 57.6981ZM1609.91 76.9355C1610 77.0582 1610.1 77.1809 1610.19 77.3036L1616.53 72.4241C1616.43 72.2929 1616.33 72.1618 1616.23 72.0307L1609.91 76.9355ZM1623.44 99.6761C1623.5 99.8202 1623.56 99.9643 1623.62 100.108L1631 97.0027C1630.93 96.8461 1630.86 96.6895 1630.8 96.533L1623.44 99.6761ZM1629.92 125.067C1629.93 125.218 1629.94 125.37 1629.96 125.521L1637.93 124.9C1637.92 124.732 1637.91 124.564 1637.89 124.396L1629.92 125.067ZM1627.25 150.818C1627.23 150.89 1627.21 150.963 1627.18 151.035L1634.82 153.428C1634.84 153.346 1634.87 153.265 1634.89 153.184L1627.25 150.818ZM1627.18 151.035C1627.16 151.116 1627.13 151.197 1627.11 151.278L1634.74 153.685C1634.76 153.599 1634.79 153.513 1634.82 153.428L1627.18 151.035ZM1615.79 177.046C1615.71 177.191 1615.62 177.336 1615.54 177.481L1622.45 181.51C1622.54 181.357 1622.63 181.203 1622.72 181.049L1615.79 177.046ZM1598.85 200.211C1598.74 200.337 1598.62 200.462 1598.51 200.587L1604.44 205.955C1604.56 205.823 1604.68 205.691 1604.8 205.559L1598.85 200.211ZM1577.79 220.055C1577.66 220.163 1577.53 220.271 1577.4 220.378L1582.43 226.593C1582.57 226.482 1582.71 226.37 1582.85 226.259L1577.79 220.055ZM1554.22 237.265C1554.07 237.359 1553.93 237.454 1553.79 237.549L1558.21 244.216C1558.36 244.119 1558.5 244.023 1558.65 243.926L1554.22 237.265ZM1529.3 252.846C1529.15 252.935 1529 253.023 1528.85 253.112L1532.95 259.985C1533.1 259.896 1533.25 259.807 1533.4 259.717L1529.3 252.846ZM1503.79 267.73C1503.63 267.817 1503.48 267.903 1503.33 267.99L1507.33 274.918C1507.48 274.832 1507.64 274.745 1507.79 274.658L1503.79 267.73ZM1478.18 282.658C1478.11 282.703 1478.03 282.748 1477.96 282.792L1482.04 289.67C1482.12 289.625 1482.19 289.581 1482.27 289.537L1478.18 282.658ZM1477.96 282.792C1477.89 282.833 1477.82 282.873 1477.75 282.914L1481.84 289.79C1481.91 289.75 1481.98 289.71 1482.04 289.67L1477.96 282.792ZM1455.32 296.972C1455.19 297.059 1455.05 297.146 1454.92 297.233L1459.36 303.889C1459.49 303.803 1459.62 303.718 1459.75 303.632L1455.32 296.972ZM1433.38 312.821C1433.26 312.92 1433.14 313.018 1433.01 313.117L1438 319.371C1438.12 319.276 1438.24 319.18 1438.36 319.085L1433.38 312.821ZM1413.17 331.107C1413.06 331.225 1412.95 331.342 1412.84 331.46L1418.65 336.95C1418.76 336.839 1418.87 336.727 1418.97 336.616L1413.17 331.107ZM1396.42 353.034C1396.33 353.176 1396.25 353.318 1396.17 353.46L1403.1 357.451C1403.18 357.321 1403.25 357.19 1403.33 357.06L1396.42 353.034ZM1386.45 379.151C1386.42 379.313 1386.39 379.475 1386.36 379.637L1394.23 381.083C1394.26 380.937 1394.29 380.792 1394.31 380.647L1386.45 379.151ZM1386.21 407.117C1386.24 407.279 1386.26 407.44 1386.29 407.602L1394.18 406.283C1394.16 406.136 1394.13 405.989 1394.11 405.841L1386.21 407.117ZM1394.24 433.608C1394.27 433.684 1394.3 433.759 1394.34 433.834L1401.66 430.628C1401.63 430.557 1401.6 430.486 1401.57 430.415L1394.24 433.608ZM1394.34 433.834C1394.37 433.912 1394.4 433.991 1394.44 434.069L1401.76 430.84C1401.73 430.769 1401.7 430.698 1401.66 430.628L1394.34 433.834ZM1409.85 458C1409.96 458.127 1410.07 458.254 1410.18 458.38L1416.19 453.104C1416.09 452.987 1415.99 452.869 1415.88 452.752L1409.85 458ZM1431.07 477.307C1431.2 477.405 1431.34 477.503 1431.47 477.601L1436.19 471.138C1436.06 471.045 1435.93 470.952 1435.81 470.859L1431.07 477.307ZM1455.33 492.185C1455.48 492.261 1455.63 492.337 1455.78 492.413L1459.42 485.289C1459.27 485.216 1459.13 485.143 1458.99 485.069L1455.33 492.185ZM1481.29 503.532C1481.44 503.59 1481.6 503.647 1481.75 503.704L1484.51 496.195C1484.36 496.14 1484.21 496.085 1484.06 496.029L1481.29 503.532ZM1508.24 511.977C1508.4 512.019 1508.56 512.061 1508.72 512.102L1510.73 504.359C1510.58 504.318 1510.42 504.278 1510.26 504.237L1508.24 511.977ZM1535.82 517.896C1535.98 517.924 1536.14 517.951 1536.31 517.979L1537.64 510.09C1537.48 510.063 1537.32 510.036 1537.16 510.009L1535.82 517.896ZM1563.78 521.458C1563.95 521.472 1564.11 521.486 1564.27 521.5L1564.94 513.528C1564.78 513.514 1564.62 513.501 1564.46 513.487L1563.78 521.458ZM1591.96 522.647C1592.13 522.647 1592.29 522.647 1592.46 522.646L1592.43 514.646C1592.27 514.647 1592.11 514.647 1591.95 514.647L1591.96 522.647ZM1620.16 521.236C1620.24 521.227 1620.33 521.219 1620.41 521.211L1619.59 513.252C1619.51 513.26 1619.43 513.268 1619.35 513.277L1620.16 521.236ZM1620.41 521.211C1620.49 521.202 1620.58 521.193 1620.66 521.185L1619.84 513.227C1619.76 513.235 1619.67 513.244 1619.59 513.252L1620.41 521.211ZM1649 517.308C1649.17 517.279 1649.34 517.251 1649.51 517.222L1648.17 509.334C1648.01 509.363 1647.84 509.391 1647.67 509.419L1649 517.308ZM1677.52 511.705C1677.69 511.668 1677.86 511.631 1678.02 511.594L1676.28 503.787C1676.11 503.824 1675.95 503.86 1675.78 503.897L1677.52 511.705ZM1705.71 504.778C1705.88 504.734 1706.04 504.69 1706.21 504.646L1704.14 496.918C1703.97 496.962 1703.81 497.005 1703.65 497.049L1705.71 504.778ZM1733.6 496.803C1733.76 496.754 1733.92 496.704 1734.09 496.655L1731.76 489.001C1731.6 489.05 1731.44 489.099 1731.28 489.147L1733.6 496.803ZM1761.21 488.01C1761.37 487.957 1761.53 487.903 1761.69 487.85L1759.17 480.259C1759.01 480.312 1758.85 480.365 1758.69 480.418L1761.21 488.01ZM1788.59 478.595C1788.74 478.538 1788.9 478.481 1789.06 478.425L1786.39 470.886C1786.23 470.942 1786.07 470.998 1785.91 471.054L1788.59 478.595ZM1815.77 468.724C1815.93 468.665 1816.09 468.607 1816.25 468.548L1813.47 461.047C1813.31 461.105 1813.15 461.164 1812.99 461.222L1815.77 468.724ZM1842.83 458.551C1842.99 458.491 1843.15 458.431 1843.31 458.371L1840.46 450.894C1840.31 450.954 1840.15 451.014 1839.99 451.074L1842.83 458.551ZM1869.81 448.231C1869.97 448.171 1870.13 448.11 1870.29 448.05L1867.42 440.58C1867.26 440.641 1867.11 440.701 1866.95 440.762L1869.81 448.231ZM1896.77 437.926C1896.93 437.866 1897.08 437.806 1897.24 437.746L1894.4 430.267C1894.24 430.327 1894.09 430.387 1893.93 430.447L1896.77 437.926ZM1923.76 427.819C1923.92 427.761 1924.08 427.703 1924.24 427.644L1921.48 420.135C1921.32 420.193 1921.16 420.252 1921 420.31L1923.76 427.819ZM1950.88 418.138C1951.04 418.083 1951.2 418.028 1951.36 417.973L1948.75 410.408C1948.59 410.463 1948.43 410.519 1948.27 410.574L1950.88 418.138ZM1978.19 409.192C1978.35 409.142 1978.52 409.093 1978.68 409.043L1976.33 401.395C1976.17 401.445 1976 401.495 1975.84 401.545L1978.19 409.192ZM2005.78 401.45C2005.94 401.41 2006.1 401.37 2006.26 401.33L2004.33 393.566C2004.17 393.606 2004 393.647 2003.84 393.688L2005.78 401.45ZM2033.67 395.673C2033.84 395.647 2034 395.621 2034.17 395.595L2032.94 387.69C2032.77 387.717 2032.6 387.744 2032.43 387.771L2033.67 395.673ZM2061.76 393.232C2061.84 393.232 2061.92 393.231 2062 393.231V385.231C2061.92 385.231 2061.83 385.232 2061.75 385.232L2061.76 393.232ZM2062 393.231C2062.08 393.231 2062.16 393.231 2062.24 393.232L2062.25 385.232C2062.17 385.231 2062.08 385.231 2062 385.231V393.231ZM2090.03 394.349C2090.19 394.362 2090.36 394.374 2090.53 394.387L2091.14 386.41C2090.97 386.397 2090.8 386.384 2090.63 386.371L2090.03 394.349ZM2118.27 397.267C2118.43 397.288 2118.6 397.309 2118.76 397.331L2119.79 389.397C2119.62 389.375 2119.45 389.353 2119.29 389.332L2118.27 397.267ZM2146.45 401.443C2146.61 401.47 2146.78 401.497 2146.94 401.524L2148.25 393.633C2148.09 393.605 2147.92 393.578 2147.76 393.551L2146.45 401.443ZM2174.51 406.484C2174.67 406.515 2174.83 406.547 2175 406.578L2176.51 398.722C2176.34 398.69 2176.18 398.659 2176.01 398.627L2174.51 406.484ZM2202.51 412.119C2202.68 412.153 2202.84 412.187 2203.01 412.222L2204.65 404.392C2204.48 404.357 2204.32 404.323 2204.15 404.288L2202.51 412.119ZM2230.45 418.124C2230.62 418.16 2230.78 418.196 2230.94 418.232L2232.66 410.418C2232.5 410.382 2232.33 410.346 2232.17 410.311L2230.45 418.124ZM2258.37 424.333C2258.53 424.37 2258.7 424.407 2258.86 424.443L2260.61 416.637C2260.45 416.601 2260.28 416.564 2260.12 416.527L2258.37 424.333ZM2286.3 430.606C2286.46 430.642 2286.62 430.679 2286.79 430.716L2288.54 422.909C2288.37 422.872 2288.21 422.836 2288.05 422.799L2286.3 430.606ZM2314.26 436.816C2314.42 436.852 2314.58 436.888 2314.75 436.924L2316.46 429.11C2316.3 429.074 2316.13 429.038 2315.97 429.002L2314.26 436.816ZM2342.27 442.853C2342.43 442.888 2342.6 442.922 2342.76 442.957L2344.41 435.129C2344.25 435.094 2344.08 435.06 2343.92 435.025L2342.27 442.853ZM2370.36 448.609C2370.52 448.642 2370.69 448.675 2370.85 448.707L2372.41 440.86C2372.24 440.827 2372.08 440.795 2371.91 440.762L2370.36 448.609ZM2398.53 453.982C2398.7 454.012 2398.86 454.042 2399.03 454.072L2400.46 446.202C2400.3 446.172 2400.13 446.142 2399.97 446.112L2398.53 453.982ZM2426.81 458.868C2426.98 458.895 2427.14 458.921 2427.31 458.948L2428.59 451.052C2428.42 451.025 2428.26 450.998 2428.09 450.971L2426.81 458.868ZM2455.2 463.159C2455.28 463.17 2455.37 463.182 2455.45 463.193L2456.55 455.269C2456.47 455.258 2456.39 455.247 2456.3 455.235L2455.2 463.159ZM2455.45 463.193C2455.53 463.205 2455.62 463.217 2455.7 463.228L2456.8 455.304C2456.72 455.292 2456.63 455.281 2456.55 455.269L2455.45 463.193ZM2483.39 466.867C2483.55 466.888 2483.72 466.908 2483.88 466.929L2484.86 458.989C2484.7 458.969 2484.53 458.948 2484.37 458.928L2483.39 466.867ZM2511.54 470.127C2511.71 470.145 2511.87 470.162 2512.03 470.18L2512.88 462.225C2512.72 462.208 2512.56 462.19 2512.4 462.173L2511.54 470.127ZM2539.81 472.91C2539.98 472.925 2540.14 472.94 2540.31 472.955L2541.02 464.986C2540.85 464.971 2540.69 464.957 2540.52 464.942L2539.81 472.91ZM2568.07 475.152C2568.23 475.163 2568.39 475.175 2568.56 475.186L2569.11 467.205C2568.94 467.193 2568.78 467.182 2568.62 467.171L2568.07 475.152ZM2596.46 476.802C2596.62 476.81 2596.79 476.818 2596.95 476.825L2597.32 468.834C2597.16 468.826 2596.99 468.819 2596.83 468.811L2596.46 476.802ZM2624.84 477.782C2625 477.785 2625.17 477.789 2625.34 477.793L2625.51 469.794C2625.34 469.791 2625.18 469.787 2625.01 469.784L2624.84 477.782ZM2653.23 478.011C2653.4 478.01 2653.56 478.009 2653.73 478.008L2653.68 470.008C2653.51 470.009 2653.34 470.01 2653.18 470.011L2653.23 478.011ZM2681.65 477.394C2681.81 477.388 2681.98 477.381 2682.14 477.375L2681.83 469.381C2681.67 469.387 2681.51 469.393 2681.34 469.399L2681.65 477.394ZM2710.06 475.817C2710.22 475.804 2710.39 475.792 2710.55 475.78L2709.96 467.802C2709.79 467.814 2709.63 467.826 2709.47 467.838L2710.06 475.817ZM2738.39 473.151C2738.56 473.131 2738.73 473.112 2738.89 473.093L2737.97 465.146C2737.81 465.165 2737.64 465.184 2737.48 465.203L2738.39 473.151ZM2766.64 469.24C2766.8 469.213 2766.97 469.186 2767.13 469.159L2765.84 461.264C2765.68 461.291 2765.51 461.318 2765.35 461.344L2766.64 469.24ZM2794.67 463.92C2794.83 463.884 2794.99 463.849 2795.16 463.813L2793.44 455.999C2793.28 456.034 2793.12 456.069 2792.96 456.104L2794.67 463.92ZM2822.34 457.013C2822.5 456.968 2822.66 456.922 2822.82 456.877L2820.63 449.182C2820.48 449.226 2820.32 449.27 2820.16 449.315L2822.34 457.013ZM2849.58 448.307C2849.74 448.25 2849.89 448.194 2850.05 448.137L2847.34 440.61C2847.19 440.666 2847.03 440.721 2846.88 440.777L2849.58 448.307ZM2876.11 437.639C2876.26 437.57 2876.42 437.501 2876.57 437.432L2873.29 430.136C2873.14 430.204 2872.99 430.271 2872.84 430.339L2876.11 437.639ZM2901.72 424.85C2901.8 424.81 2901.87 424.769 2901.94 424.729L2898.06 417.734C2897.99 417.773 2897.92 417.813 2897.85 417.852L2901.72 424.85ZM2901.94 424.729C2902.01 424.689 2902.08 424.65 2902.16 424.61L2898.28 417.613C2898.21 417.653 2898.13 417.693 2898.06 417.734L2901.94 424.729ZM2926.71 411.868C2926.86 411.796 2927.01 411.724 2927.16 411.651L2923.67 404.452C2923.52 404.525 2923.37 404.598 2923.22 404.671L2926.71 411.868ZM2952.38 400.207C2952.53 400.143 2952.68 400.078 2952.83 400.014L2949.71 392.648C2949.56 392.713 2949.4 392.779 2949.25 392.844L2952.38 400.207ZM2978.6 389.779C2978.75 389.722 2978.9 389.664 2979.06 389.607L2976.28 382.107C2976.12 382.165 2975.96 382.223 2975.81 382.281L2978.6 389.779ZM3005.26 380.503C3005.41 380.452 3005.57 380.401 3005.73 380.35L3003.26 372.74C3003.1 372.792 3002.94 372.844 3002.78 372.895L3005.26 380.503ZM3032.27 372.295C3032.43 372.25 3032.59 372.205 3032.75 372.16L3030.57 364.462C3030.41 364.507 3030.25 364.553 3030.09 364.598L3032.27 372.295ZM3059.6 365.067C3059.76 365.028 3059.92 364.988 3060.08 364.949L3058.17 357.18C3058.01 357.22 3057.84 357.259 3057.68 357.299L3059.6 365.067ZM3087.14 358.754C3087.31 358.72 3087.47 358.685 3087.63 358.651L3085.97 350.825C3085.81 350.86 3085.64 350.895 3085.48 350.929L3087.14 358.754ZM3114.89 353.284C3115.05 353.255 3115.21 353.225 3115.37 353.195L3113.94 345.324C3113.78 345.354 3113.62 345.384 3113.45 345.414L3114.89 353.284ZM3142.79 348.595C3142.95 348.569 3143.12 348.544 3143.28 348.519L3142.07 340.612C3141.9 340.637 3141.74 340.663 3141.57 340.688L3142.79 348.595ZM3170.8 344.634C3170.96 344.613 3171.13 344.592 3171.29 344.571L3170.27 336.636C3170.11 336.657 3169.94 336.678 3169.78 336.699L3170.8 344.634ZM3198.92 341.347C3199.08 341.33 3199.25 341.312 3199.41 341.295L3198.58 333.339C3198.41 333.356 3198.25 333.374 3198.08 333.391L3198.92 341.347ZM3227.1 338.692C3227.26 338.678 3227.43 338.664 3227.59 338.65L3226.93 330.678C3226.76 330.692 3226.6 330.706 3226.43 330.719L3227.1 338.692ZM3255.34 336.625C3255.51 336.615 3255.67 336.604 3255.84 336.594L3255.33 328.61C3255.17 328.62 3255 328.63 3254.84 328.641L3255.34 336.625ZM3283.62 335.111C3283.78 335.104 3283.95 335.097 3284.12 335.089L3283.77 327.097C3283.6 327.104 3283.43 327.112 3283.27 327.119L3283.62 335.111ZM3311.93 334.116C3312.09 334.112 3312.26 334.108 3312.42 334.103L3312.22 326.106C3312.05 326.11 3311.88 326.115 3311.72 326.119L3311.93 334.116ZM3340.25 333.611C3340.42 333.609 3340.58 333.608 3340.75 333.606L3340.68 325.607C3340.51 325.608 3340.34 325.61 3340.18 325.611L3340.25 333.611ZM3368.59 333.568C3368.75 333.569 3368.92 333.57 3369.08 333.571L3369.14 325.571C3368.97 325.57 3368.8 325.569 3368.64 325.568L3368.59 333.568ZM3396.92 333.963C3397.08 333.967 3397.25 333.97 3397.41 333.974L3397.59 325.976C3397.42 325.972 3397.26 325.968 3397.09 325.965L3396.92 333.963ZM3425.25 334.775C3425.42 334.781 3425.58 334.787 3425.75 334.793L3426.04 326.798C3425.87 326.792 3425.7 326.786 3425.54 326.78L3425.25 334.775ZM3453.55 335.983C3453.64 335.987 3453.72 335.991 3453.8 335.995L3454.2 328.005C3454.12 328.001 3454.03 327.997 3453.95 327.993L3453.55 335.983ZM3453.8 335.995C3453.88 335.999 3453.97 336.003 3454.05 336.007L3454.45 328.017C3454.36 328.013 3454.28 328.009 3454.2 328.005L3453.8 335.995ZM3481.29 337.624C3481.45 337.635 3481.62 337.647 3481.78 337.658L3482.34 329.677C3482.17 329.666 3482.01 329.655 3481.84 329.643L3481.29 337.624ZM3508.98 339.812C3509.15 339.827 3509.31 339.842 3509.47 339.856L3510.19 331.888C3510.02 331.873 3509.86 331.859 3509.69 331.844L3508.98 339.812ZM3536.62 342.557C3536.78 342.575 3536.94 342.593 3537.1 342.61L3537.98 334.658C3537.82 334.64 3537.65 334.623 3537.49 334.605L3536.62 342.557ZM3564.17 345.863C3564.33 345.884 3564.49 345.905 3564.65 345.926L3565.69 337.993C3565.53 337.972 3565.37 337.951 3565.2 337.93L3564.17 345.863ZM3591.61 349.73C3591.77 349.754 3591.93 349.778 3592.09 349.802L3593.29 341.892C3593.13 341.868 3592.97 341.844 3592.81 341.82L3591.61 349.73ZM3618.99 354.161C3619.15 354.189 3619.31 354.217 3619.47 354.245L3620.84 346.361C3620.67 346.333 3620.51 346.305 3620.35 346.277L3618.99 354.161ZM3646.33 359.155C3646.48 359.186 3646.64 359.216 3646.8 359.247L3648.32 351.393C3648.16 351.362 3648 351.331 3647.84 351.3L3646.33 359.155ZM3673.49 364.668C3673.65 364.701 3673.8 364.735 3673.96 364.768L3675.63 356.944C3675.47 356.91 3675.31 356.877 3675.15 356.843L3673.49 364.668ZM3700.61 370.696C3700.77 370.733 3700.92 370.769 3701.08 370.806L3702.89 363.013C3702.73 362.976 3702.57 362.939 3702.41 362.902L3700.61 370.696ZM3727.59 377.173C3727.74 377.212 3727.9 377.251 3728.06 377.29L3729.99 369.526C3729.83 369.487 3729.67 369.448 3729.52 369.409L3727.59 377.173ZM3754.52 384.056C3754.68 384.097 3754.83 384.138 3754.99 384.18L3757.02 376.442C3756.86 376.401 3756.71 376.359 3756.55 376.318L3754.52 384.056ZM3781.32 391.233C3781.48 391.276 3781.63 391.32 3781.79 391.363L3783.9 383.645C3783.74 383.601 3783.58 383.558 3783.42 383.515L3781.32 391.233ZM3808.16 398.631C3808.32 398.674 3808.47 398.717 3808.63 398.761L3810.77 391.052C3810.61 391.009 3810.46 390.966 3810.3 390.922L3808.16 398.631ZM3834.99 406.073C3835.15 406.117 3835.31 406.16 3835.46 406.203L3837.59 398.491C3837.43 398.448 3837.28 398.405 3837.12 398.361L3834.99 406.073ZM3861.88 413.37C3862.04 413.412 3862.2 413.454 3862.36 413.495L3864.41 405.762C3864.25 405.72 3864.09 405.679 3863.93 405.637L3861.88 413.37ZM3888.92 420.272C3889.08 420.311 3889.24 420.35 3889.4 420.388L3891.29 412.614C3891.13 412.576 3890.97 412.537 3890.81 412.499L3888.92 420.272ZM3916.19 426.457C3916.35 426.49 3916.51 426.523 3916.67 426.557L3918.3 418.723C3918.14 418.69 3917.98 418.657 3917.82 418.624L3916.19 426.457ZM3943.75 431.514C3943.92 431.539 3944.08 431.565 3944.24 431.59L3945.47 423.685C3945.31 423.66 3945.15 423.635 3944.99 423.61L3943.75 431.514ZM3971.63 434.952C3971.79 434.966 3971.96 434.98 3972.12 434.994L3972.8 427.024C3972.64 427.01 3972.49 426.996 3972.33 426.982L3971.63 434.952ZM3999.75 436.231C3999.84 436.231 3999.92 436.231 4000 436.231V428.231C3999.92 428.231 3999.84 428.231 3999.76 428.231L3999.75 436.231Z" fill="#E5E5E5" fill-opacity="0.8"/>
</svg>
